GFORTRAN module version '0' created from acp.f90 on Mon Apr 18 18:09:46 2016
MD5:107ebee50584fa93f9c63db3238757c2 -- If you edit this, you'll get what you deserve.

(() () () () () () () () () () () () () () () () () () () () () () () ()
() () ())

()

()

()

()

(2 'acp' 'acp' 'acp' 1 ((MODULE UNKNOWN-INTENT UNKNOWN-PROC UNKNOWN
UNKNOWN) (UNKNOWN 0 0 0 UNKNOWN ()) 0 0 () () 0 () () () 0 0)
3 'dfdt' 'acp' 'dfdt' 1 ((PROCEDURE UNKNOWN-INTENT MODULE-PROC DECL
UNKNOWN SUBROUTINE ALWAYS_EXPLICIT) (UNKNOWN 0 0 0 UNKNOWN ()) 4 0 (5 6
7 8 9 10 11) () 0 () () () 0 0)
12 'ftg' 'acp' 'ftg' 1 ((PROCEDURE UNKNOWN-INTENT MODULE-PROC DECL
UNKNOWN SUBROUTINE) (UNKNOWN 0 0 0 UNKNOWN ()) 13 0 (14 15 16 17) () 0 ()
() () 0 0)
18 'ftgo' 'acp' 'ftgo' 1 ((PROCEDURE UNKNOWN-INTENT MODULE-PROC DECL
UNKNOWN SUBROUTINE ALWAYS_EXPLICIT) (UNKNOWN 0 0 0 UNKNOWN ()) 19 0 (20
21 22 23) () 0 () () () 0 0)
24 'im' 'acp' 'im' 1 ((PROCEDURE UNKNOWN-INTENT MODULE-PROC DECL UNKNOWN
FUNCTION) (REAL 8 0 0 REAL ()) 25 0 (26 27 28) () 24 () () () 0 0)
29 'kind' '(intrinsic)' 'kind' 1 ((PROCEDURE UNKNOWN-INTENT UNKNOWN-PROC
UNKNOWN UNKNOWN FUNCTION) (INTEGER 4 0 0 INTEGER ()) 0 0 () () 29 () ()
() 0 0)
30 'lmax' 'acp' 'lmax' 1 ((PARAMETER UNKNOWN-INTENT UNKNOWN-PROC UNKNOWN
IMPLICIT-SAVE) (INTEGER 4 0 0 INTEGER ()) 0 0 () (CONSTANT (INTEGER 4 0
0 INTEGER ()) 0 '10') () 0 () () () 0 0)
31 'lp' 'acp' 'lp' 1 ((PARAMETER UNKNOWN-INTENT UNKNOWN-PROC UNKNOWN
IMPLICIT-SAVE) (INTEGER 4 0 0 INTEGER ()) 0 0 () (CONSTANT (INTEGER 4 0
0 INTEGER ()) 0 '121') () 0 () () () 0 0)
32 'pvalues' 'acp' 'pvalues' 1 ((PROCEDURE UNKNOWN-INTENT MODULE-PROC
DECL UNKNOWN SUBROUTINE) (UNKNOWN 0 0 0 UNKNOWN ()) 33 0 (34 35 36 37 38
39 40 41 42 43) () 0 () () () 0 0)
44 're' 'acp' 're' 1 ((PROCEDURE UNKNOWN-INTENT MODULE-PROC DECL UNKNOWN
FUNCTION) (REAL 8 0 0 REAL ()) 45 0 (46 47 48) () 44 () () () 0 0)
49 'read_3js' 'acp' 'read_3js' 1 ((PROCEDURE UNKNOWN-INTENT MODULE-PROC
DECL UNKNOWN SUBROUTINE) (UNKNOWN 0 0 0 UNKNOWN ()) 0 0 () () 0 () () ()
0 0)
50 'rftrg' 'acp' 'rftrg' 1 ((PROCEDURE UNKNOWN-INTENT MODULE-PROC DECL
UNKNOWN SUBROUTINE) (UNKNOWN 0 0 0 UNKNOWN ()) 51 0 (52 53 54 55) () 0 ()
() () 0 0)
34 'ppn1' '' 'ppn1' 33 ((VARIABLE UNKNOWN-INTENT UNKNOWN-PROC UNKNOWN
UNKNOWN DUMMY) (REAL 8 0 0 REAL ()) 0 0 () () 0 () () () 0 0)
35 'ppal' '' 'ppal' 33 ((VARIABLE UNKNOWN-INTENT UNKNOWN-PROC UNKNOWN
UNKNOWN DUMMY) (REAL 8 0 0 REAL ()) 0 0 () () 0 () () () 0 0)
36 'ppn2' '' 'ppn2' 33 ((VARIABLE UNKNOWN-INTENT UNKNOWN-PROC UNKNOWN
UNKNOWN DUMMY) (REAL 8 0 0 REAL ()) 0 0 () () 0 () () () 0 0)
37 'ppu0' '' 'ppu0' 33 ((VARIABLE UNKNOWN-INTENT UNKNOWN-PROC UNKNOWN
UNKNOWN DUMMY) (REAL 8 0 0 REAL ()) 0 0 () () 0 () () () 0 0)
38 'ppds' '' 'ppds' 33 ((VARIABLE UNKNOWN-INTENT UNKNOWN-PROC UNKNOWN
UNKNOWN DUMMY) (REAL 8 0 0 REAL ()) 0 0 () () 0 () () () 0 0)
39 'ppde' '' 'ppde' 33 ((VARIABLE UNKNOWN-INTENT UNKNOWN-PROC UNKNOWN
UNKNOWN DUMMY) (REAL 8 0 0 REAL ()) 0 0 () () 0 () () () 0 0)
40 'ppa' '' 'ppa' 33 ((VARIABLE UNKNOWN-INTENT UNKNOWN-PROC UNKNOWN
UNKNOWN DUMMY) (REAL 8 0 0 REAL ()) 0 0 () () 0 () () () 0 0)
41 'co2' '' 'co2' 33 ((VARIABLE UNKNOWN-INTENT UNKNOWN-PROC UNKNOWN
UNKNOWN DUMMY) (REAL 8 0 0 REAL ()) 0 0 () () 0 () () () 0 0)
42 'ct2' '' 'ct2' 33 ((VARIABLE UNKNOWN-INTENT UNKNOWN-PROC UNKNOWN
UNKNOWN DUMMY) (REAL 8 0 0 REAL ()) 0 0 () () 0 () () () 0 0)
43 'pf' '' 'pf' 33 ((VARIABLE UNKNOWN-INTENT UNKNOWN-PROC UNKNOWN
UNKNOWN DUMMY) (REAL 8 0 0 REAL ()) 0 0 () () 0 () () () 0 0)
5 'ai' '' 'ai' 4 ((VARIABLE UNKNOWN-INTENT UNKNOWN-PROC UNKNOWN UNKNOWN
DIMENSION DUMMY) (REAL 8 0 0 REAL ()) 0 0 () (1 ASSUMED_SHAPE (CONSTANT
(INTEGER 4 0 0 INTEGER ()) 0 '1') ()) 0 () () () 0 0)
6 'd1aix' '' 'd1aix' 4 ((VARIABLE UNKNOWN-INTENT UNKNOWN-PROC UNKNOWN
UNKNOWN DIMENSION DUMMY) (REAL 8 0 0 REAL ()) 0 0 () (1 ASSUMED_SHAPE (
CONSTANT (INTEGER 4 0 0 INTEGER ()) 0 '1') ()) 0 () () () 0 0)
7 'd2aix' '' 'd2aix' 4 ((VARIABLE UNKNOWN-INTENT UNKNOWN-PROC UNKNOWN
UNKNOWN DIMENSION DUMMY) (REAL 8 0 0 REAL ()) 0 0 () (1 ASSUMED_SHAPE (
CONSTANT (INTEGER 4 0 0 INTEGER ()) 0 '1') ()) 0 () () () 0 0)
8 'd1aiy' '' 'd1aiy' 4 ((VARIABLE UNKNOWN-INTENT UNKNOWN-PROC UNKNOWN
UNKNOWN DIMENSION DUMMY) (REAL 8 0 0 REAL ()) 0 0 () (1 ASSUMED_SHAPE (
CONSTANT (INTEGER 4 0 0 INTEGER ()) 0 '1') ()) 0 () () () 0 0)
9 'd2aiy' '' 'd2aiy' 4 ((VARIABLE UNKNOWN-INTENT UNKNOWN-PROC UNKNOWN
UNKNOWN DIMENSION DUMMY) (REAL 8 0 0 REAL ()) 0 0 () (1 ASSUMED_SHAPE (
CONSTANT (INTEGER 4 0 0 INTEGER ()) 0 '1') ()) 0 () () () 0 0)
10 'dv' '' 'dv' 4 ((VARIABLE UNKNOWN-INTENT UNKNOWN-PROC UNKNOWN UNKNOWN
DIMENSION DUMMY) (REAL 8 0 0 REAL ()) 0 0 () (2 EXPLICIT (CONSTANT (
INTEGER 4 0 0 INTEGER ()) 0 '1') (CONSTANT (INTEGER 4 0 0 INTEGER ()) 0
'3') (CONSTANT (INTEGER 4 0 0 INTEGER ()) 0 '1') (CONSTANT (INTEGER 4 0
0 INTEGER ()) 0 '3')) 0 () () () 0 0)
11 'fv' '' 'fv' 4 ((VARIABLE UNKNOWN-INTENT UNKNOWN-PROC UNKNOWN UNKNOWN
DIMENSION DUMMY) (REAL 8 0 0 REAL ()) 0 0 () (1 ASSUMED_SHAPE (CONSTANT
(INTEGER 4 0 0 INTEGER ()) 0 '1') ()) 0 () () () 0 0)
54 'd' '' 'd' 51 ((VARIABLE UNKNOWN-INTENT UNKNOWN-PROC UNKNOWN UNKNOWN
DIMENSION DUMMY) (REAL 8 0 0 REAL ()) 0 0 () (2 EXPLICIT (CONSTANT (
INTEGER 4 0 0 INTEGER ()) 0 '0') (CONSTANT (INTEGER 4 0 0 INTEGER ()) 0
'10') (CONSTANT (INTEGER 4 0 0 INTEGER ()) 0 '-10') (CONSTANT (INTEGER 4
0 0 INTEGER ()) 0 '10')) 0 () () () 0 0)
28 'm' '' 'm' 25 ((VARIABLE UNKNOWN-INTENT UNKNOWN-PROC UNKNOWN UNKNOWN
DUMMY) (INTEGER 4 0 0 INTEGER ()) 0 0 () () 0 () () () 0 0)
21 'a' '' 'a' 19 ((VARIABLE UNKNOWN-INTENT UNKNOWN-PROC UNKNOWN UNKNOWN
DIMENSION DUMMY) (REAL 8 0 0 REAL ()) 0 0 () (1 ASSUMED_SHAPE (CONSTANT
(INTEGER 4 0 0 INTEGER ()) 0 '1') ()) 0 () () () 0 0)
22 'ax' '' 'ax' 19 ((VARIABLE UNKNOWN-INTENT UNKNOWN-PROC UNKNOWN
UNKNOWN DIMENSION DUMMY) (REAL 8 0 0 REAL ()) 0 0 () (1 ASSUMED_SHAPE (
CONSTANT (INTEGER 4 0 0 INTEGER ()) 0 '1') ()) 0 () () () 0 0)
20 'jm' '' 'jm' 19 ((VARIABLE UNKNOWN-INTENT UNKNOWN-PROC UNKNOWN
UNKNOWN DUMMY) (INTEGER 4 0 0 INTEGER ()) 0 0 () () 0 () () () 0 0)
23 'fv' '' 'fv' 19 ((VARIABLE UNKNOWN-INTENT UNKNOWN-PROC UNKNOWN
UNKNOWN DIMENSION DUMMY) (REAL 8 0 0 REAL ()) 0 0 () (1 ASSUMED_SHAPE (
CONSTANT (INTEGER 4 0 0 INTEGER ()) 0 '1') ()) 0 () () () 0 0)
53 'a' '' 'a' 51 ((VARIABLE UNKNOWN-INTENT UNKNOWN-PROC UNKNOWN UNKNOWN
DIMENSION DUMMY) (REAL 8 0 0 REAL ()) 0 0 () (2 EXPLICIT (CONSTANT (
INTEGER 4 0 0 INTEGER ()) 0 '0') (CONSTANT (INTEGER 4 0 0 INTEGER ()) 0
'10') (CONSTANT (INTEGER 4 0 0 INTEGER ()) 0 '-10') (CONSTANT (INTEGER 4
0 0 INTEGER ()) 0 '10')) 0 () () () 0 0)
15 'c' '' 'c' 13 ((VARIABLE UNKNOWN-INTENT UNKNOWN-PROC UNKNOWN UNKNOWN
DIMENSION DUMMY) (REAL 8 0 0 REAL ()) 0 0 () (2 EXPLICIT (CONSTANT (
INTEGER 4 0 0 INTEGER ()) 0 '0') (CONSTANT (INTEGER 4 0 0 INTEGER ()) 0
'10') (CONSTANT (INTEGER 4 0 0 INTEGER ()) 0 '-10') (CONSTANT (INTEGER 4
0 0 INTEGER ()) 0 '10')) 0 () () () 0 0)
16 'b' '' 'b' 13 ((VARIABLE UNKNOWN-INTENT UNKNOWN-PROC UNKNOWN UNKNOWN
DIMENSION DUMMY) (REAL 8 0 0 REAL ()) 0 0 () (2 EXPLICIT (CONSTANT (
INTEGER 4 0 0 INTEGER ()) 0 '0') (CONSTANT (INTEGER 4 0 0 INTEGER ()) 0
'10') (CONSTANT (INTEGER 4 0 0 INTEGER ()) 0 '-10') (CONSTANT (INTEGER 4
0 0 INTEGER ()) 0 '10')) 0 () () () 0 0)
14 'jm' '' 'jm' 13 ((VARIABLE UNKNOWN-INTENT UNKNOWN-PROC UNKNOWN
UNKNOWN DUMMY) (INTEGER 4 0 0 INTEGER ()) 0 0 () () 0 () () () 0 0)
17 'd' '' 'd' 13 ((VARIABLE UNKNOWN-INTENT UNKNOWN-PROC UNKNOWN UNKNOWN
DIMENSION DUMMY) (REAL 8 0 0 REAL ()) 0 0 () (2 EXPLICIT (CONSTANT (
INTEGER 4 0 0 INTEGER ()) 0 '0') (CONSTANT (INTEGER 4 0 0 INTEGER ()) 0
'10') (CONSTANT (INTEGER 4 0 0 INTEGER ()) 0 '-10') (CONSTANT (INTEGER 4
0 0 INTEGER ()) 0 '10')) 0 () () () 0 0)
27 'l' '' 'l' 25 ((VARIABLE UNKNOWN-INTENT UNKNOWN-PROC UNKNOWN UNKNOWN
DUMMY) (INTEGER 4 0 0 INTEGER ()) 0 0 () () 0 () () () 0 0)
52 'jm' '' 'jm' 51 ((VARIABLE UNKNOWN-INTENT UNKNOWN-PROC UNKNOWN
UNKNOWN DUMMY) (INTEGER 4 0 0 INTEGER ()) 0 0 () () 0 () () () 0 0)
55 'c' '' 'c' 51 ((VARIABLE UNKNOWN-INTENT UNKNOWN-PROC UNKNOWN UNKNOWN
DIMENSION DUMMY) (REAL 8 0 0 REAL ()) 0 0 () (2 EXPLICIT (CONSTANT (
INTEGER 4 0 0 INTEGER ()) 0 '0') (CONSTANT (INTEGER 4 0 0 INTEGER ()) 0
'10') (CONSTANT (INTEGER 4 0 0 INTEGER ()) 0 '-10') (CONSTANT (INTEGER 4
0 0 INTEGER ()) 0 '10')) 0 () () () 0 0)
26 'a' '' 'a' 25 ((VARIABLE UNKNOWN-INTENT UNKNOWN-PROC UNKNOWN UNKNOWN
DIMENSION DUMMY) (REAL 8 0 0 REAL ()) 0 0 () (2 EXPLICIT (CONSTANT (
INTEGER 4 0 0 INTEGER ()) 0 '0') (CONSTANT (INTEGER 4 0 0 INTEGER ()) 0
'10') (CONSTANT (INTEGER 4 0 0 INTEGER ()) 0 '-10') (CONSTANT (INTEGER 4
0 0 INTEGER ()) 0 '10')) 0 () () () 0 0)
47 'l' '' 'l' 45 ((VARIABLE UNKNOWN-INTENT UNKNOWN-PROC UNKNOWN UNKNOWN
DUMMY) (INTEGER 4 0 0 INTEGER ()) 0 0 () () 0 () () () 0 0)
48 'm' '' 'm' 45 ((VARIABLE UNKNOWN-INTENT UNKNOWN-PROC UNKNOWN UNKNOWN
DUMMY) (INTEGER 4 0 0 INTEGER ()) 0 0 () () 0 () () () 0 0)
46 'a' '' 'a' 45 ((VARIABLE UNKNOWN-INTENT UNKNOWN-PROC UNKNOWN UNKNOWN
DIMENSION DUMMY) (REAL 8 0 0 REAL ()) 0 0 () (2 EXPLICIT (CONSTANT (
INTEGER 4 0 0 INTEGER ()) 0 '0') (CONSTANT (INTEGER 4 0 0 INTEGER ()) 0
'10') (CONSTANT (INTEGER 4 0 0 INTEGER ()) 0 '-10') (CONSTANT (INTEGER 4
0 0 INTEGER ()) 0 '10')) 0 () () () 0 0)
)

('acp' 0 2 'dfdt' 0 3 'ftg' 0 12 'ftgo' 0 18 'im' 0 24 'kind' 0 29 'lmax'
0 30 'lp' 0 31 'pvalues' 0 32 're' 0 44 'read_3js' 0 49 'rftrg' 0 50)
