GFORTRAN module version '0' created from fv.f90 on Sat May  7 21:17:13 2016
MD5:2b7c5afd5e63efc63a47460a9643d8f2 -- If you edit this, you'll get what you deserve.

(() () () () () () () () () ()
() () () () () () () () () () () () () () () () ())

()

()

()

()

(2 '__convert_i4_r4' '(intrinsic)' '__convert_i4_r4' 1 ((PROCEDURE
UNKNOWN-INTENT UNKNOWN-PROC UNKNOWN UNKNOWN FUNCTION ELEMENTAL PURE) (
REAL 4 0 0 REAL ()) 0 0 () () 0 () () () 0 0)
3 '__convert_i4_r8' '(intrinsic)' '__convert_i4_r8' 1 ((PROCEDURE
UNKNOWN-INTENT UNKNOWN-PROC UNKNOWN UNKNOWN FUNCTION ELEMENTAL PURE) (
REAL 8 0 0 REAL ()) 0 0 () () 0 () () () 0 0)
4 '__convert_r4_r8' '(intrinsic)' '__convert_r4_r8' 1 ((PROCEDURE
UNKNOWN-INTENT UNKNOWN-PROC UNKNOWN UNKNOWN FUNCTION ELEMENTAL PURE) (
REAL 8 0 0 REAL ()) 0 0 () () 0 () () () 0 0)
5 '__convert_r8_r4' '(intrinsic)' '__convert_r8_r4' 1 ((PROCEDURE
UNKNOWN-INTENT UNKNOWN-PROC UNKNOWN UNKNOWN FUNCTION ELEMENTAL PURE) (
REAL 4 0 0 REAL ()) 0 0 () () 0 () () () 0 0)
6 'acp' 'acp' 'acp' 1 ((MODULE UNKNOWN-INTENT UNKNOWN-PROC UNKNOWN
UNKNOWN) (UNKNOWN 0 0 0 UNKNOWN ()) 0 0 () () 0 () () () 0 0)
7 'bdf_solv' 'f_value' 'bdf_solv' 1 ((PROCEDURE UNKNOWN-INTENT
MODULE-PROC DECL UNKNOWN SUBROUTINE ALWAYS_EXPLICIT) (UNKNOWN 0 0 0
UNKNOWN ()) 8 0 (9 10 11 12) () 0 () () () 0 0)
13 'd1x' 'lcp_2d' 'd1x' 1 ((VARIABLE UNKNOWN-INTENT UNKNOWN-PROC UNKNOWN
UNKNOWN DIMENSION) (REAL 8 0 0 REAL ()) 0 0 () (2 EXPLICIT (CONSTANT (
INTEGER 4 0 0 INTEGER ()) 0 '1') (CONSTANT (INTEGER 4 0 0 INTEGER ()) 0
'128') (CONSTANT (INTEGER 4 0 0 INTEGER ()) 0 '1') (CONSTANT (INTEGER 4
0 0 INTEGER ()) 0 '121')) 0 () () () 0 0)
14 'd1y' 'lcp_2d' 'd1y' 1 ((VARIABLE UNKNOWN-INTENT UNKNOWN-PROC UNKNOWN
UNKNOWN DIMENSION) (REAL 8 0 0 REAL ()) 0 0 () (2 EXPLICIT (CONSTANT (
INTEGER 4 0 0 INTEGER ()) 0 '1') (CONSTANT (INTEGER 4 0 0 INTEGER ()) 0
'128') (CONSTANT (INTEGER 4 0 0 INTEGER ()) 0 '1') (CONSTANT (INTEGER 4
0 0 INTEGER ()) 0 '121')) 0 () () () 0 0)
15 'd2u' 'lcp_2d' 'd2u' 1 ((VARIABLE UNKNOWN-INTENT UNKNOWN-PROC UNKNOWN
UNKNOWN DIMENSION) (REAL 8 0 0 REAL ()) 0 0 () (2 EXPLICIT (CONSTANT (
INTEGER 4 0 0 INTEGER ()) 0 '1') (CONSTANT (INTEGER 4 0 0 INTEGER ()) 0
'128') (CONSTANT (INTEGER 4 0 0 INTEGER ()) 0 '1') (CONSTANT (INTEGER 4
0 0 INTEGER ()) 0 '121')) 0 () () () 0 0)
16 'd2x' 'lcp_2d' 'd2x' 1 ((VARIABLE UNKNOWN-INTENT UNKNOWN-PROC UNKNOWN
UNKNOWN DIMENSION) (REAL 8 0 0 REAL ()) 0 0 () (2 EXPLICIT (CONSTANT (
INTEGER 4 0 0 INTEGER ()) 0 '1') (CONSTANT (INTEGER 4 0 0 INTEGER ()) 0
'128') (CONSTANT (INTEGER 4 0 0 INTEGER ()) 0 '1') (CONSTANT (INTEGER 4
0 0 INTEGER ()) 0 '121')) 0 () () () 0 0)
17 'd2y' 'lcp_2d' 'd2y' 1 ((VARIABLE UNKNOWN-INTENT UNKNOWN-PROC UNKNOWN
UNKNOWN DIMENSION) (REAL 8 0 0 REAL ()) 0 0 () (2 EXPLICIT (CONSTANT (
INTEGER 4 0 0 INTEGER ()) 0 '1') (CONSTANT (INTEGER 4 0 0 INTEGER ()) 0
'128') (CONSTANT (INTEGER 4 0 0 INTEGER ()) 0 '1') (CONSTANT (INTEGER 4
0 0 INTEGER ()) 0 '121')) 0 () () () 0 0)
18 'dagp' 'lcp_2d' 'dagp' 1 ((VARIABLE UNKNOWN-INTENT UNKNOWN-PROC
UNKNOWN UNKNOWN DIMENSION) (REAL 8 0 0 REAL ()) 0 0 () (2 EXPLICIT (
CONSTANT (INTEGER 4 0 0 INTEGER ()) 0 '1') (CONSTANT (INTEGER 4 0 0
INTEGER ()) 0 '128') (CONSTANT (INTEGER 4 0 0 INTEGER ()) 0 '1') (
CONSTANT (INTEGER 4 0 0 INTEGER ()) 0 '121')) 0 () () () 0 0)
19 'dble' '(intrinsic)' 'dble' 1 ((PROCEDURE UNKNOWN-INTENT UNKNOWN-PROC
UNKNOWN UNKNOWN FUNCTION) (REAL 4 0 0 REAL ()) 0 0 () () 19 () () () 0 0)
20 'dfdt' 'acp' 'dfdt' 1 ((PROCEDURE UNKNOWN-INTENT MODULE-PROC DECL
UNKNOWN SUBROUTINE ALWAYS_EXPLICIT) (UNKNOWN 0 0 0 UNKNOWN ()) 21 0 (22
23 24 25 26 27 28) () 0 () () () 0 0)
29 'dtaum' 'lcp_2d' 'dtaum' 1 ((PROCEDURE UNKNOWN-INTENT MODULE-PROC
DECL UNKNOWN SUBROUTINE ALWAYS_EXPLICIT) (UNKNOWN 0 0 0 UNKNOWN ()) 30 0
(31 32 33) () 0 () () () 0 0)
34 'dvds' 'lcp_2d' 'dvds' 1 ((VARIABLE UNKNOWN-INTENT UNKNOWN-PROC
UNKNOWN EXPLICIT-SAVE DIMENSION) (REAL 8 0 0 REAL ()) 0 0 () (3 EXPLICIT
(CONSTANT (INTEGER 4 0 0 INTEGER ()) 0 '1') (CONSTANT (INTEGER 4 0 0
INTEGER ()) 0 '128') (CONSTANT (INTEGER 4 0 0 INTEGER ()) 0 '1') (
CONSTANT (INTEGER 4 0 0 INTEGER ()) 0 '3') (CONSTANT (INTEGER 4 0 0
INTEGER ()) 0 '1') (CONSTANT (INTEGER 4 0 0 INTEGER ()) 0 '3')) 0 () ()
() 0 0)
35 'er' 'lcp_2d' 'er' 1 ((VARIABLE UNKNOWN-INTENT UNKNOWN-PROC UNKNOWN
EXPLICIT-SAVE) (REAL 4 0 0 REAL ()) 0 0 () () 0 () () () 0 0)
36 'error' 'f_value' 'error' 1 ((PROCEDURE UNKNOWN-INTENT MODULE-PROC
DECL UNKNOWN SUBROUTINE ALWAYS_EXPLICIT) (UNKNOWN 0 0 0 UNKNOWN ()) 37 0
(38 39 40) () 0 () () () 0 0)
41 'exact_value' 'f_value' 'exact_value' 1 ((PROCEDURE UNKNOWN-INTENT
MODULE-PROC DECL UNKNOWN DIMENSION FUNCTION ALWAYS_EXPLICIT) (REAL 8 0 0
REAL ()) 42 0 (43 44) (1 EXPLICIT (CONSTANT (INTEGER 4 0 0 INTEGER ()) 0
'1') (VARIABLE (INTEGER 4 0 0 INTEGER ()) 0 43 ())) 41 () () () 0 0)
45 'f_para' 'lcp_2d' 'f_para' 1 ((VARIABLE UNKNOWN-INTENT UNKNOWN-PROC
UNKNOWN UNKNOWN) (INTEGER 4 0 0 INTEGER ()) 0 0 () () 0 () () () 0 0)
46 'f_value' 'f_value' 'f_value' 1 ((MODULE UNKNOWN-INTENT UNKNOWN-PROC
UNKNOWN UNKNOWN) (UNKNOWN 0 0 0 UNKNOWN ()) 0 0 () () 0 () () () 0 0)
47 'flow_field' 'velocity' 'flow_field' 1 ((PROCEDURE UNKNOWN-INTENT
MODULE-PROC DECL UNKNOWN SUBROUTINE ALWAYS_EXPLICIT) (UNKNOWN 0 0 0
UNKNOWN ()) 48 0 (49 50) () 0 () () () 0 0)
51 'fourpin1' 'lcp_2d' 'fourpin1' 1 ((VARIABLE UNKNOWN-INTENT
UNKNOWN-PROC UNKNOWN UNKNOWN) (REAL 8 0 0 REAL ()) 0 0 () () 0 () () ()
0 0)
52 'fourpio3al' 'lcp_2d' 'fourpio3al' 1 ((VARIABLE UNKNOWN-INTENT
UNKNOWN-PROC UNKNOWN UNKNOWN) (REAL 8 0 0 REAL ()) 0 0 () () 0 () () ()
0 0)
53 'fourpio5n' 'lcp_2d' 'fourpio5n' 1 ((VARIABLE UNKNOWN-INTENT
UNKNOWN-PROC UNKNOWN UNKNOWN) (REAL 8 0 0 REAL ()) 0 0 () () 0 () () ()
0 0)
54 'ftg' 'acp' 'ftg' 1 ((PROCEDURE UNKNOWN-INTENT MODULE-PROC DECL
UNKNOWN SUBROUTINE) (UNKNOWN 0 0 0 UNKNOWN ()) 55 0 (56 57 58 59) () 0 ()
() () 0 0)
60 'ftgo' 'acp' 'ftgo' 1 ((PROCEDURE UNKNOWN-INTENT MODULE-PROC DECL
UNKNOWN SUBROUTINE ALWAYS_EXPLICIT) (UNKNOWN 0 0 0 UNKNOWN ()) 61 0 (62
63 64 65) () 0 () () () 0 0)
66 'ftuy' 'lcp_2d' 'ftuy' 1 ((VARIABLE UNKNOWN-INTENT UNKNOWN-PROC
UNKNOWN UNKNOWN DIMENSION) (REAL 8 0 0 REAL ()) 0 0 () (2 EXPLICIT (
CONSTANT (INTEGER 4 0 0 INTEGER ()) 0 '1') (CONSTANT (INTEGER 4 0 0
INTEGER ()) 0 '128') (CONSTANT (INTEGER 4 0 0 INTEGER ()) 0 '1') (
CONSTANT (INTEGER 4 0 0 INTEGER ()) 0 '121')) 0 () () () 0 0)
67 'fu3' 'lcp_2d' 'fu3' 1 ((VARIABLE UNKNOWN-INTENT UNKNOWN-PROC UNKNOWN
UNKNOWN DIMENSION) (REAL 8 0 0 REAL ()) 0 0 () (2 EXPLICIT (CONSTANT (
INTEGER 4 0 0 INTEGER ()) 0 '1') (CONSTANT (INTEGER 4 0 0 INTEGER ()) 0
'128') (CONSTANT (INTEGER 4 0 0 INTEGER ()) 0 '1') (CONSTANT (INTEGER 4
0 0 INTEGER ()) 0 '121')) 0 () () () 0 0)
68 'fv3' 'velocity' 'fv3' 1 ((VARIABLE UNKNOWN-INTENT UNKNOWN-PROC
UNKNOWN EXPLICIT-SAVE DIMENSION) (REAL 8 0 0 REAL ()) 0 0 () (2 EXPLICIT
(CONSTANT (INTEGER 4 0 0 INTEGER ()) 0 '1') (CONSTANT (INTEGER 4 0 0
INTEGER ()) 0 '128') (CONSTANT (INTEGER 4 0 0 INTEGER ()) 0 '1') (
CONSTANT (INTEGER 4 0 0 INTEGER ()) 0 '3')) 0 () () () 0 0)
69 'fv3a' 'velocity' 'fv3a' 1 ((VARIABLE UNKNOWN-INTENT UNKNOWN-PROC
UNKNOWN EXPLICIT-SAVE DIMENSION) (REAL 8 0 0 REAL ()) 0 0 () (2 EXPLICIT
(CONSTANT (INTEGER 4 0 0 INTEGER ()) 0 '1') (CONSTANT (INTEGER 4 0 0
INTEGER ()) 0 '128') (CONSTANT (INTEGER 4 0 0 INTEGER ()) 0 '1') (
CONSTANT (INTEGER 4 0 0 INTEGER ()) 0 '3')) 0 () () () 0 0)
70 'fv_11' 'lcp_2d' 'fv_11' 1 ((PROCEDURE UNKNOWN-INTENT MODULE-PROC
DECL UNKNOWN SUBROUTINE ALWAYS_EXPLICIT) (UNKNOWN 0 0 0 UNKNOWN ()) 71 0
(72 73 74 75) () 0 () () () 0 0)
76 'fvalue' 'f_value' 'fvalue' 1 ((PROCEDURE UNKNOWN-INTENT MODULE-PROC
DECL UNKNOWN SUBROUTINE ALWAYS_EXPLICIT) (UNKNOWN 0 0 0 UNKNOWN ()) 77 0
(78 79 80) () 0 () () () 0 0)
81 'fvalue_1' 'lcp_2d' 'fvalue_1' 1 ((PROCEDURE UNKNOWN-INTENT
MODULE-PROC DECL UNKNOWN SUBROUTINE ALWAYS_EXPLICIT) (UNKNOWN 0 0 0
UNKNOWN ()) 82 0 (83 84 85) () 0 () () () 0 0)
86 'fvalue_ex' 'f_value' 'fvalue_ex' 1 ((PROCEDURE UNKNOWN-INTENT
MODULE-PROC DECL UNKNOWN SUBROUTINE ALWAYS_EXPLICIT) (UNKNOWN 0 0 0
UNKNOWN ()) 87 0 (88 89 90) () 0 () () () 0 0)
91 'fvalue_exc' 'f_value' 'fvalue_exc' 1 ((PROCEDURE UNKNOWN-INTENT
MODULE-PROC DECL UNKNOWN SUBROUTINE ALWAYS_EXPLICIT) (UNKNOWN 0 0 0
UNKNOWN ()) 92 0 (93 94 95) () 0 () () () 0 0)
96 'fvalue_im' 'f_value' 'fvalue_im' 1 ((PROCEDURE UNKNOWN-INTENT
MODULE-PROC DECL UNKNOWN SUBROUTINE ALWAYS_EXPLICIT) (UNKNOWN 0 0 0
UNKNOWN ()) 97 0 (98 99 100) () 0 () () () 0 0)
101 'gradient_p' 'velocity' 'gradient_p' 1 ((PROCEDURE UNKNOWN-INTENT
MODULE-PROC DECL UNKNOWN SUBROUTINE) (UNKNOWN 0 0 0 UNKNOWN ()) 102 0 (
103) () 0 () () () 0 0)
104 'hy' 'lcp_2d' 'hy' 1 ((PARAMETER UNKNOWN-INTENT UNKNOWN-PROC UNKNOWN
IMPLICIT-SAVE) (REAL 8 0 0 REAL ()) 0 0 () (CONSTANT (REAL 8 0 0 REAL ())
0 '0.20000000000000@-1') () 0 () () () 0 0)
105 'im' 'acp' 'im' 1 ((PROCEDURE UNKNOWN-INTENT MODULE-PROC DECL
UNKNOWN FUNCTION) (REAL 8 0 0 REAL ()) 106 0 (107 108 109) () 105 () ()
() 0 0)
110 'itersolv' 'f_value' 'itersolv' 1 ((PROCEDURE UNKNOWN-INTENT
MODULE-PROC DECL UNKNOWN SUBROUTINE ALWAYS_EXPLICIT) (UNKNOWN 0 0 0
UNKNOWN ()) 111 0 (112 113 114) () 0 () () () 0 0)
115 'kind' '(intrinsic)' 'kind' 1 ((PROCEDURE UNKNOWN-INTENT
UNKNOWN-PROC UNKNOWN UNKNOWN FUNCTION) (INTEGER 4 0 0 INTEGER ()) 0 0 ()
() 115 () () () 0 0)
116 'lcp_2d' 'lcp_2d' 'lcp_2d' 1 ((MODULE UNKNOWN-INTENT UNKNOWN-PROC
UNKNOWN UNKNOWN) (UNKNOWN 0 0 0 UNKNOWN ()) 0 0 () () 0 () () () 0 0)
117 'lmax' 'acp' 'lmax' 1 ((PARAMETER UNKNOWN-INTENT UNKNOWN-PROC
UNKNOWN IMPLICIT-SAVE) (INTEGER 4 0 0 INTEGER ()) 0 0 () (CONSTANT (
INTEGER 4 0 0 INTEGER ()) 0 '10') () 0 () () () 0 0)
118 'lp' 'acp' 'lp' 1 ((PARAMETER UNKNOWN-INTENT UNKNOWN-PROC UNKNOWN
IMPLICIT-SAVE) (INTEGER 4 0 0 INTEGER ()) 0 0 () (CONSTANT (INTEGER 4 0
0 INTEGER ()) 0 '121') () 0 () () () 0 0)
119 'moments' 'lcp_2d' 'moments' 1 ((PROCEDURE UNKNOWN-INTENT
MODULE-PROC DECL UNKNOWN SUBROUTINE ALWAYS_EXPLICIT) (UNKNOWN 0 0 0
UNKNOWN ()) 120 0 (121) () 0 () () () 0 0)
122 'momentum' 'velocity' 'momentum' 1 ((PROCEDURE UNKNOWN-INTENT
MODULE-PROC DECL UNKNOWN SUBROUTINE ALWAYS_EXPLICIT) (UNKNOWN 0 0 0
UNKNOWN ()) 123 0 (124 125 126) () 0 () () () 0 0)
127 'momentum_ex' 'velocity' 'momentum_ex' 1 ((PROCEDURE UNKNOWN-INTENT
MODULE-PROC DECL UNKNOWN SUBROUTINE ALWAYS_EXPLICIT) (UNKNOWN 0 0 0
UNKNOWN ()) 128 0 (129 130 131) () 0 () () () 0 0)
132 'momentum_o' 'velocity' 'momentum_o' 1 ((PROCEDURE UNKNOWN-INTENT
MODULE-PROC DECL UNKNOWN SUBROUTINE ALWAYS_EXPLICIT) (UNKNOWN 0 0 0
UNKNOWN ()) 133 0 (134 135 136) () 0 () () () 0 0)
137 'n' 'lcp_2d' 'n' 1 ((PARAMETER UNKNOWN-INTENT UNKNOWN-PROC UNKNOWN
IMPLICIT-SAVE) (INTEGER 4 0 0 INTEGER ()) 0 0 () (CONSTANT (INTEGER 4 0
0 INTEGER ()) 0 '15488') () 0 () () () 0 0)
138 'n3' 'lcp_2d' 'n3' 1 ((PARAMETER UNKNOWN-INTENT UNKNOWN-PROC UNKNOWN
IMPLICIT-SAVE) (INTEGER 4 0 0 INTEGER ()) 0 0 () (CONSTANT (INTEGER 4 0
0 INTEGER ()) 0 '384') () 0 () () () 0 0)
139 'nv' 'lcp_2d' 'nv' 1 ((PARAMETER UNKNOWN-INTENT UNKNOWN-PROC UNKNOWN
IMPLICIT-SAVE) (INTEGER 4 0 0 INTEGER ()) 0 0 () (CONSTANT (INTEGER 4 0
0 INTEGER ()) 0 '121') () 0 () () () 0 0)
140 'ny' 'lcp_2d' 'ny' 1 ((PARAMETER UNKNOWN-INTENT UNKNOWN-PROC UNKNOWN
IMPLICIT-SAVE) (INTEGER 4 0 0 INTEGER ()) 0 0 () (CONSTANT (INTEGER 4 0
0 INTEGER ()) 0 '128') () 0 () () () 0 0)
141 'pd' 'lcp_2d' 'pd' 1 ((VARIABLE UNKNOWN-INTENT UNKNOWN-PROC UNKNOWN
EXPLICIT-SAVE) (REAL 4 0 0 REAL ()) 0 0 () () 0 () () () 0 0)
142 'pi' 'lcp_2d' 'pi' 1 ((VARIABLE UNKNOWN-INTENT UNKNOWN-PROC UNKNOWN
UNKNOWN) (REAL 8 0 0 REAL ()) 0 0 () () 0 () () () 0 0)
143 'precondition' 'f_value' 'precondition' 1 ((PROCEDURE UNKNOWN-INTENT
MODULE-PROC DECL UNKNOWN SUBROUTINE ALWAYS_EXPLICIT) (UNKNOWN 0 0 0
UNKNOWN ()) 144 0 (145 146 147) () 0 () () () 0 0)
148 'pressure' 'velocity' 'pressure' 1 ((PROCEDURE UNKNOWN-INTENT
MODULE-PROC DECL UNKNOWN SUBROUTINE) (UNKNOWN 0 0 0 UNKNOWN ()) 149 0 (
150 151 152 153) () 0 () () () 0 0)
154 'pvalues' 'acp' 'pvalues' 1 ((PROCEDURE UNKNOWN-INTENT MODULE-PROC
DECL UNKNOWN SUBROUTINE) (UNKNOWN 0 0 0 UNKNOWN ()) 155 0 (156 157 158
159 160 161 162 163 164 165) () 0 () () () 0 0)
166 're' 'acp' 're' 1 ((PROCEDURE UNKNOWN-INTENT MODULE-PROC DECL
UNKNOWN FUNCTION) (REAL 8 0 0 REAL ()) 167 0 (168 169 170) () 166 () ()
() 0 0)
171 'read_3js' 'acp' 'read_3js' 1 ((PROCEDURE UNKNOWN-INTENT MODULE-PROC
DECL UNKNOWN SUBROUTINE) (UNKNOWN 0 0 0 UNKNOWN ()) 0 0 () () 0 () () ()
0 0)
172 'reshape' '(intrinsic)' 'reshape' 1 ((PROCEDURE UNKNOWN-INTENT
UNKNOWN-PROC UNKNOWN UNKNOWN FUNCTION) (REAL 4 0 0 REAL ()) 0 0 () ()
172 () () () 0 0)
173 'rftrg' 'acp' 'rftrg' 1 ((PROCEDURE UNKNOWN-INTENT MODULE-PROC DECL
UNKNOWN SUBROUTINE) (UNKNOWN 0 0 0 UNKNOWN ()) 174 0 (175 176 177 178) ()
0 () () () 0 0)
179 'set_ns_value' 'velocity' 'set_ns_value' 1 ((PROCEDURE
UNKNOWN-INTENT MODULE-PROC DECL UNKNOWN SUBROUTINE) (UNKNOWN 0 0 0
UNKNOWN ()) 180 0 (181 182) () 0 () () () 0 0)
183 'setanpe' 'lcp_2d' 'setanpe' 1 ((PROCEDURE UNKNOWN-INTENT
MODULE-PROC DECL UNKNOWN SUBROUTINE) (UNKNOWN 0 0 0 UNKNOWN ()) 184 0 (
185 186 187 188 189 190 191 192 193 194) () 0 () () () 0 0)
195 'single_taum' 'lcp_2d' 'single_taum' 1 ((PROCEDURE UNKNOWN-INTENT
MODULE-PROC DECL UNKNOWN SUBROUTINE ALWAYS_EXPLICIT) (UNKNOWN 0 0 0
UNKNOWN ()) 196 0 (197 198 199 200 201 202) () 0 () () () 0 0)
203 'single_tauv' 'lcp_2d' 'single_tauv' 1 ((PROCEDURE UNKNOWN-INTENT
MODULE-PROC DECL UNKNOWN SUBROUTINE ALWAYS_EXPLICIT) (UNKNOWN 0 0 0
UNKNOWN ()) 204 0 (205 206) () 0 () () () 0 0)
207 'smoluchowski' 'lcp_2d' 'smoluchowski' 1 ((PROCEDURE UNKNOWN-INTENT
MODULE-PROC DECL UNKNOWN SUBROUTINE ALWAYS_EXPLICIT) (UNKNOWN 0 0 0
UNKNOWN ()) 208 0 (209 210 211) () 0 () () () 0 0)
212 'taum_value' 'lcp_2d' 'taum_value' 1 ((PROCEDURE UNKNOWN-INTENT
MODULE-PROC DECL UNKNOWN SUBROUTINE ALWAYS_EXPLICIT) (UNKNOWN 0 0 0
UNKNOWN ()) 213 0 (214 215 216) () 0 () () () 0 0)
217 'u3' 'lcp_2d' 'u3' 1 ((VARIABLE UNKNOWN-INTENT UNKNOWN-PROC UNKNOWN
UNKNOWN DIMENSION) (REAL 8 0 0 REAL ()) 0 0 () (2 EXPLICIT (CONSTANT (
INTEGER 4 0 0 INTEGER ()) 0 '1') (CONSTANT (INTEGER 4 0 0 INTEGER ()) 0
'128') (CONSTANT (INTEGER 4 0 0 INTEGER ()) 0 '1') (CONSTANT (INTEGER 4
0 0 INTEGER ()) 0 '121')) 0 () () () 0 0)
218 'uay' 'lcp_2d' 'uay' 1 ((VARIABLE UNKNOWN-INTENT UNKNOWN-PROC
UNKNOWN UNKNOWN DIMENSION) (REAL 8 0 0 REAL ()) 0 0 () (2 EXPLICIT (
CONSTANT (INTEGER 4 0 0 INTEGER ()) 0 '1') (CONSTANT (INTEGER 4 0 0
INTEGER ()) 0 '128') (CONSTANT (INTEGER 4 0 0 INTEGER ()) 0 '1') (
CONSTANT (INTEGER 4 0 0 INTEGER ()) 0 '121')) 0 () () () 0 0)
219 'ubv' 'lcp_2d' 'ubv' 1 ((VARIABLE UNKNOWN-INTENT UNKNOWN-PROC
UNKNOWN UNKNOWN DIMENSION) (REAL 8 0 0 REAL ()) 0 0 () (1 EXPLICIT (
CONSTANT (INTEGER 4 0 0 INTEGER ()) 0 '1') (CONSTANT (INTEGER 4 0 0
INTEGER ()) 0 '121')) 0 () () () 0 0)
220 'v3' 'lcp_2d' 'v3' 1 ((VARIABLE UNKNOWN-INTENT UNKNOWN-PROC UNKNOWN
UNKNOWN DIMENSION) (REAL 8 0 0 REAL ()) 0 0 () (2 EXPLICIT (CONSTANT (
INTEGER 4 0 0 INTEGER ()) 0 '1') (CONSTANT (INTEGER 4 0 0 INTEGER ()) 0
'128') (CONSTANT (INTEGER 4 0 0 INTEGER ()) 0 '1') (CONSTANT (INTEGER 4
0 0 INTEGER ()) 0 '3')) 0 () () () 0 0)
221 'velocity' 'velocity' 'velocity' 1 ((MODULE UNKNOWN-INTENT
UNKNOWN-PROC UNKNOWN UNKNOWN) (UNKNOWN 0 0 0 UNKNOWN ()) 0 0 () () 0 ()
() () 0 0)
222 'ys' 'lcp_2d' 'ys' 1 ((VARIABLE UNKNOWN-INTENT UNKNOWN-PROC UNKNOWN
UNKNOWN DIMENSION) (REAL 8 0 0 REAL ()) 0 0 () (1 EXPLICIT (CONSTANT (
INTEGER 4 0 0 INTEGER ()) 0 '0') (CONSTANT (INTEGER 4 0 0 INTEGER ()) 0
'128')) 0 () () () 0 0)
78 'u' '' 'u' 77 ((VARIABLE IN UNKNOWN-PROC UNKNOWN UNKNOWN DIMENSION
DUMMY) (REAL 8 0 0 REAL ()) 0 0 () (1 ASSUMED_SHAPE (CONSTANT (INTEGER 4
0 0 INTEGER ()) 0 '1') ()) 0 () () () 0 0)
79 't' '' 't' 77 ((VARIABLE UNKNOWN-INTENT UNKNOWN-PROC UNKNOWN UNKNOWN
DUMMY) (REAL 8 0 0 REAL ()) 0 0 () () 0 () () () 0 0)
80 'f' '' 'f' 77 ((VARIABLE OUT UNKNOWN-PROC UNKNOWN UNKNOWN DIMENSION
DUMMY) (REAL 8 0 0 REAL ()) 0 0 () (1 ASSUMED_SHAPE (CONSTANT (INTEGER 4
0 0 INTEGER ()) 0 '1') ()) 0 () () () 0 0)
88 'u' '' 'u' 87 ((VARIABLE UNKNOWN-INTENT UNKNOWN-PROC UNKNOWN UNKNOWN
DIMENSION DUMMY) (REAL 8 0 0 REAL ()) 0 0 () (1 ASSUMED_SHAPE (CONSTANT
(INTEGER 4 0 0 INTEGER ()) 0 '1') ()) 0 () () () 0 0)
89 't' '' 't' 87 ((VARIABLE UNKNOWN-INTENT UNKNOWN-PROC UNKNOWN UNKNOWN
DUMMY) (REAL 8 0 0 REAL ()) 0 0 () () 0 () () () 0 0)
90 'f' '' 'f' 87 ((VARIABLE UNKNOWN-INTENT UNKNOWN-PROC UNKNOWN UNKNOWN
DIMENSION DUMMY) (REAL 8 0 0 REAL ()) 0 0 () (1 ASSUMED_SHAPE (CONSTANT
(INTEGER 4 0 0 INTEGER ()) 0 '1') ()) 0 () () () 0 0)
93 'u' '' 'u' 92 ((VARIABLE UNKNOWN-INTENT UNKNOWN-PROC UNKNOWN UNKNOWN
DIMENSION DUMMY) (REAL 8 0 0 REAL ()) 0 0 () (1 ASSUMED_SHAPE (CONSTANT
(INTEGER 4 0 0 INTEGER ()) 0 '1') ()) 0 () () () 0 0)
94 't' '' 't' 92 ((VARIABLE UNKNOWN-INTENT UNKNOWN-PROC UNKNOWN UNKNOWN
DUMMY) (REAL 8 0 0 REAL ()) 0 0 () () 0 () () () 0 0)
95 'f' '' 'f' 92 ((VARIABLE UNKNOWN-INTENT UNKNOWN-PROC UNKNOWN UNKNOWN
DIMENSION DUMMY) (REAL 8 0 0 REAL ()) 0 0 () (1 ASSUMED_SHAPE (CONSTANT
(INTEGER 4 0 0 INTEGER ()) 0 '1') ()) 0 () () () 0 0)
98 'u' '' 'u' 97 ((VARIABLE UNKNOWN-INTENT UNKNOWN-PROC UNKNOWN UNKNOWN
DIMENSION DUMMY) (REAL 8 0 0 REAL ()) 0 0 () (1 ASSUMED_SHAPE (CONSTANT
(INTEGER 4 0 0 INTEGER ()) 0 '1') ()) 0 () () () 0 0)
99 't' '' 't' 97 ((VARIABLE UNKNOWN-INTENT UNKNOWN-PROC UNKNOWN UNKNOWN
DUMMY) (REAL 8 0 0 REAL ()) 0 0 () () 0 () () () 0 0)
100 'f' '' 'f' 97 ((VARIABLE UNKNOWN-INTENT UNKNOWN-PROC UNKNOWN UNKNOWN
DIMENSION DUMMY) (REAL 8 0 0 REAL ()) 0 0 () (1 ASSUMED_SHAPE (CONSTANT
(INTEGER 4 0 0 INTEGER ()) 0 '1') ()) 0 () () () 0 0)
145 'f' '' 'f' 144 ((VARIABLE IN UNKNOWN-PROC UNKNOWN UNKNOWN DIMENSION
DUMMY) (REAL 8 0 0 REAL ()) 0 0 () (1 ASSUMED_SHAPE (CONSTANT (INTEGER 4
0 0 INTEGER ()) 0 '1') ()) 0 () () () 0 0)
146 'v' '' 'v' 144 ((VARIABLE OUT UNKNOWN-PROC UNKNOWN UNKNOWN DIMENSION
DUMMY) (REAL 8 0 0 REAL ()) 0 0 () (1 ASSUMED_SHAPE (CONSTANT (INTEGER 4
0 0 INTEGER ()) 0 '1') ()) 0 () () () 0 0)
147 'dt' '' 'dt' 144 ((VARIABLE UNKNOWN-INTENT UNKNOWN-PROC UNKNOWN
UNKNOWN DUMMY) (REAL 8 0 0 REAL ()) 0 0 () () 0 () () () 0 0)
112 'f' '' 'f' 111 ((VARIABLE IN UNKNOWN-PROC UNKNOWN UNKNOWN DIMENSION
DUMMY) (REAL 8 0 0 REAL ()) 0 0 () (1 ASSUMED_SHAPE (CONSTANT (INTEGER 4
0 0 INTEGER ()) 0 '1') ()) 0 () () () 0 0)
113 'v' '' 'v' 111 ((VARIABLE OUT UNKNOWN-PROC UNKNOWN UNKNOWN DIMENSION
DUMMY) (REAL 8 0 0 REAL ()) 0 0 () (1 ASSUMED_SHAPE (CONSTANT (INTEGER 4
0 0 INTEGER ()) 0 '1') ()) 0 () () () 0 0)
114 'dt' '' 'dt' 111 ((VARIABLE UNKNOWN-INTENT UNKNOWN-PROC UNKNOWN
UNKNOWN DUMMY) (REAL 8 0 0 REAL ()) 0 0 () () 0 () () () 0 0)
9 'f' '' 'f' 8 ((VARIABLE IN UNKNOWN-PROC UNKNOWN UNKNOWN DIMENSION
DUMMY) (REAL 8 0 0 REAL ()) 0 0 () (1 ASSUMED_SHAPE (CONSTANT (INTEGER 4
0 0 INTEGER ()) 0 '1') ()) 0 () () () 0 0)
10 'v' '' 'v' 8 ((VARIABLE OUT UNKNOWN-PROC UNKNOWN UNKNOWN DIMENSION
DUMMY) (REAL 8 0 0 REAL ()) 0 0 () (1 ASSUMED_SHAPE (CONSTANT (INTEGER 4
0 0 INTEGER ()) 0 '1') ()) 0 () () () 0 0)
11 'ca' '' 'ca' 8 ((VARIABLE UNKNOWN-INTENT UNKNOWN-PROC UNKNOWN UNKNOWN
DUMMY) (REAL 8 0 0 REAL ()) 0 0 () () 0 () () () 0 0)
24 'd2aix' '' 'd2aix' 21 ((VARIABLE UNKNOWN-INTENT UNKNOWN-PROC UNKNOWN
UNKNOWN DIMENSION DUMMY) (REAL 8 0 0 REAL ()) 0 0 () (1 ASSUMED_SHAPE (
CONSTANT (INTEGER 4 0 0 INTEGER ()) 0 '1') ()) 0 () () () 0 0)
23 'd1aix' '' 'd1aix' 21 ((VARIABLE UNKNOWN-INTENT UNKNOWN-PROC UNKNOWN
UNKNOWN DIMENSION DUMMY) (REAL 8 0 0 REAL ()) 0 0 () (1 ASSUMED_SHAPE (
CONSTANT (INTEGER 4 0 0 INTEGER ()) 0 '1') ()) 0 () () () 0 0)
28 'fv' '' 'fv' 21 ((VARIABLE UNKNOWN-INTENT UNKNOWN-PROC UNKNOWN
UNKNOWN DIMENSION DUMMY) (REAL 8 0 0 REAL ()) 0 0 () (1 ASSUMED_SHAPE (
CONSTANT (INTEGER 4 0 0 INTEGER ()) 0 '1') ()) 0 () () () 0 0)
27 'dv' '' 'dv' 21 ((VARIABLE UNKNOWN-INTENT UNKNOWN-PROC UNKNOWN
UNKNOWN DIMENSION DUMMY) (REAL 8 0 0 REAL ()) 0 0 () (2 EXPLICIT (
CONSTANT (INTEGER 4 0 0 INTEGER ()) 0 '1') (CONSTANT (INTEGER 4 0 0
INTEGER ()) 0 '3') (CONSTANT (INTEGER 4 0 0 INTEGER ()) 0 '1') (
CONSTANT (INTEGER 4 0 0 INTEGER ()) 0 '3')) 0 () () () 0 0)
26 'd2aiy' '' 'd2aiy' 21 ((VARIABLE UNKNOWN-INTENT UNKNOWN-PROC UNKNOWN
UNKNOWN DIMENSION DUMMY) (REAL 8 0 0 REAL ()) 0 0 () (1 ASSUMED_SHAPE (
CONSTANT (INTEGER 4 0 0 INTEGER ()) 0 '1') ()) 0 () () () 0 0)
31 'u' '' 'u' 30 ((VARIABLE UNKNOWN-INTENT UNKNOWN-PROC UNKNOWN UNKNOWN
DIMENSION DUMMY) (REAL 8 0 0 REAL ()) 0 0 () (2 EXPLICIT (CONSTANT (
INTEGER 4 0 0 INTEGER ()) 0 '1') (CONSTANT (INTEGER 4 0 0 INTEGER ()) 0
'128') (CONSTANT (INTEGER 4 0 0 INTEGER ()) 0 '1') (CONSTANT (INTEGER 4
0 0 INTEGER ()) 0 '121')) 0 () () () 0 0)
33 'time' '' 'time' 30 ((VARIABLE UNKNOWN-INTENT UNKNOWN-PROC UNKNOWN
UNKNOWN DUMMY) (REAL 8 0 0 REAL ()) 0 0 () () 0 () () () 0 0)
50 'dvds' '' 'dvds' 48 ((VARIABLE UNKNOWN-INTENT UNKNOWN-PROC UNKNOWN
UNKNOWN DIMENSION DUMMY) (REAL 8 0 0 REAL ()) 0 0 () (3 ASSUMED_SHAPE (
CONSTANT (INTEGER 4 0 0 INTEGER ()) 0 '1') () (CONSTANT (INTEGER 4 0 0
INTEGER ()) 0 '1') () (CONSTANT (INTEGER 4 0 0 INTEGER ()) 0 '1') ()) 0
() () () 0 0)
57 'c' '' 'c' 55 ((VARIABLE UNKNOWN-INTENT UNKNOWN-PROC UNKNOWN UNKNOWN
DIMENSION DUMMY) (REAL 8 0 0 REAL ()) 0 0 () (2 EXPLICIT (CONSTANT (
INTEGER 4 0 0 INTEGER ()) 0 '0') (CONSTANT (INTEGER 4 0 0 INTEGER ()) 0
'10') (CONSTANT (INTEGER 4 0 0 INTEGER ()) 0 '-10') (CONSTANT (INTEGER 4
0 0 INTEGER ()) 0 '10')) 0 () () () 0 0)
56 'jm' '' 'jm' 55 ((VARIABLE UNKNOWN-INTENT UNKNOWN-PROC UNKNOWN
UNKNOWN DUMMY) (INTEGER 4 0 0 INTEGER ()) 0 0 () () 0 () () () 0 0)
59 'd' '' 'd' 55 ((VARIABLE UNKNOWN-INTENT UNKNOWN-PROC UNKNOWN UNKNOWN
DIMENSION DUMMY) (REAL 8 0 0 REAL ()) 0 0 () (2 EXPLICIT (CONSTANT (
INTEGER 4 0 0 INTEGER ()) 0 '0') (CONSTANT (INTEGER 4 0 0 INTEGER ()) 0
'10') (CONSTANT (INTEGER 4 0 0 INTEGER ()) 0 '-10') (CONSTANT (INTEGER 4
0 0 INTEGER ()) 0 '10')) 0 () () () 0 0)
65 'fv' '' 'fv' 61 ((VARIABLE UNKNOWN-INTENT UNKNOWN-PROC UNKNOWN
UNKNOWN DIMENSION DUMMY) (REAL 8 0 0 REAL ()) 0 0 () (1 ASSUMED_SHAPE (
CONSTANT (INTEGER 4 0 0 INTEGER ()) 0 '1') ()) 0 () () () 0 0)
64 'ax' '' 'ax' 61 ((VARIABLE UNKNOWN-INTENT UNKNOWN-PROC UNKNOWN
UNKNOWN DIMENSION DUMMY) (REAL 8 0 0 REAL ()) 0 0 () (1 ASSUMED_SHAPE (
CONSTANT (INTEGER 4 0 0 INTEGER ()) 0 '1') ()) 0 () () () 0 0)
63 'a' '' 'a' 61 ((VARIABLE UNKNOWN-INTENT UNKNOWN-PROC UNKNOWN UNKNOWN
DIMENSION DUMMY) (REAL 8 0 0 REAL ()) 0 0 () (1 ASSUMED_SHAPE (CONSTANT
(INTEGER 4 0 0 INTEGER ()) 0 '1') ()) 0 () () () 0 0)
83 'u' '' 'u' 82 ((VARIABLE UNKNOWN-INTENT UNKNOWN-PROC UNKNOWN UNKNOWN
DIMENSION DUMMY) (REAL 8 0 0 REAL ()) 0 0 () (2 ASSUMED_SHAPE (CONSTANT
(INTEGER 4 0 0 INTEGER ()) 0 '1') () (CONSTANT (INTEGER 4 0 0 INTEGER ())
0 '1') ()) 0 () () () 0 0)
85 'f' '' 'f' 82 ((VARIABLE UNKNOWN-INTENT UNKNOWN-PROC UNKNOWN UNKNOWN
DIMENSION DUMMY) (REAL 8 0 0 REAL ()) 0 0 () (2 ASSUMED_SHAPE (CONSTANT
(INTEGER 4 0 0 INTEGER ()) 0 '1') () (CONSTANT (INTEGER 4 0 0 INTEGER ())
0 '1') ()) 0 () () () 0 0)
84 'v' '' 'v' 82 ((VARIABLE UNKNOWN-INTENT UNKNOWN-PROC UNKNOWN UNKNOWN
DIMENSION DUMMY) (REAL 8 0 0 REAL ()) 0 0 () (2 ASSUMED_SHAPE (CONSTANT
(INTEGER 4 0 0 INTEGER ()) 0 '1') () (CONSTANT (INTEGER 4 0 0 INTEGER ())
0 '1') ()) 0 () () () 0 0)
58 'b' '' 'b' 55 ((VARIABLE UNKNOWN-INTENT UNKNOWN-PROC UNKNOWN UNKNOWN
DIMENSION DUMMY) (REAL 8 0 0 REAL ()) 0 0 () (2 EXPLICIT (CONSTANT (
INTEGER 4 0 0 INTEGER ()) 0 '0') (CONSTANT (INTEGER 4 0 0 INTEGER ()) 0
'10') (CONSTANT (INTEGER 4 0 0 INTEGER ()) 0 '-10') (CONSTANT (INTEGER 4
0 0 INTEGER ()) 0 '10')) 0 () () () 0 0)
109 'm' '' 'm' 106 ((VARIABLE UNKNOWN-INTENT UNKNOWN-PROC UNKNOWN
UNKNOWN DUMMY) (INTEGER 4 0 0 INTEGER ()) 0 0 () () 0 () () () 0 0)
108 'l' '' 'l' 106 ((VARIABLE UNKNOWN-INTENT UNKNOWN-PROC UNKNOWN
UNKNOWN DUMMY) (INTEGER 4 0 0 INTEGER ()) 0 0 () () 0 () () () 0 0)
32 'tau' '' 'tau' 30 ((VARIABLE UNKNOWN-INTENT UNKNOWN-PROC UNKNOWN
UNKNOWN DIMENSION DUMMY) (REAL 8 0 0 REAL ()) 0 0 () (3 ASSUMED_SHAPE (
CONSTANT (INTEGER 4 0 0 INTEGER ()) 0 '1') () (CONSTANT (INTEGER 4 0 0
INTEGER ()) 0 '1') () (CONSTANT (INTEGER 4 0 0 INTEGER ()) 0 '1') ()) 0
() () () 0 0)
121 'u' '' 'u' 120 ((VARIABLE UNKNOWN-INTENT UNKNOWN-PROC UNKNOWN
UNKNOWN DIMENSION DUMMY) (REAL 8 0 0 REAL ()) 0 0 () (1 ASSUMED_SHAPE (
CONSTANT (INTEGER 4 0 0 INTEGER ()) 0 '0') ()) 0 () () () 0 0)
126 'f' '' 'f' 123 ((VARIABLE OUT UNKNOWN-PROC UNKNOWN UNKNOWN DIMENSION
DUMMY) (REAL 8 0 0 REAL ()) 0 0 () (1 ASSUMED_SHAPE (CONSTANT (INTEGER 4
0 0 INTEGER ()) 0 '1') ()) 0 () () () 0 0)
130 't' '' 't' 128 ((VARIABLE UNKNOWN-INTENT UNKNOWN-PROC UNKNOWN
UNKNOWN DUMMY) (REAL 8 0 0 REAL ()) 0 0 () () 0 () () () 0 0)
131 'f' '' 'f' 128 ((VARIABLE OUT UNKNOWN-PROC UNKNOWN UNKNOWN DIMENSION
DUMMY) (REAL 8 0 0 REAL ()) 0 0 () (1 ASSUMED_SHAPE (CONSTANT (INTEGER 4
0 0 INTEGER ()) 0 '1') ()) 0 () () () 0 0)
125 't' '' 't' 123 ((VARIABLE UNKNOWN-INTENT UNKNOWN-PROC UNKNOWN
UNKNOWN DUMMY) (REAL 8 0 0 REAL ()) 0 0 () () 0 () () () 0 0)
151 'p' '' 'p' 149 ((VARIABLE UNKNOWN-INTENT UNKNOWN-PROC UNKNOWN
UNKNOWN DIMENSION DUMMY) (REAL 8 0 0 REAL ()) 0 0 () (1 EXPLICIT (
CONSTANT (INTEGER 4 0 0 INTEGER ()) 0 '1') (CONSTANT (INTEGER 4 0 0
INTEGER ()) 0 '128')) 0 () () () 0 0)
152 'tau' '' 'tau' 149 ((VARIABLE UNKNOWN-INTENT UNKNOWN-PROC UNKNOWN
UNKNOWN DIMENSION DUMMY) (REAL 8 0 0 REAL ()) 0 0 () (3 EXPLICIT (
CONSTANT (INTEGER 4 0 0 INTEGER ()) 0 '1') (CONSTANT (INTEGER 4 0 0
INTEGER ()) 0 '3') (CONSTANT (INTEGER 4 0 0 INTEGER ()) 0 '1') (
CONSTANT (INTEGER 4 0 0 INTEGER ()) 0 '3') (CONSTANT (INTEGER 4 0 0
INTEGER ()) 0 '1') (CONSTANT (INTEGER 4 0 0 INTEGER ()) 0 '128')) 0 () ()
() 0 0)
156 'ppn1' '' 'ppn1' 155 ((VARIABLE UNKNOWN-INTENT UNKNOWN-PROC UNKNOWN
UNKNOWN DUMMY) (REAL 8 0 0 REAL ()) 0 0 () () 0 () () () 0 0)
159 'ppu0' '' 'ppu0' 155 ((VARIABLE UNKNOWN-INTENT UNKNOWN-PROC UNKNOWN
UNKNOWN DUMMY) (REAL 8 0 0 REAL ()) 0 0 () () 0 () () () 0 0)
160 'ppds' '' 'ppds' 155 ((VARIABLE UNKNOWN-INTENT UNKNOWN-PROC UNKNOWN
UNKNOWN DUMMY) (REAL 8 0 0 REAL ()) 0 0 () () 0 () () () 0 0)
158 'ppn2' '' 'ppn2' 155 ((VARIABLE UNKNOWN-INTENT UNKNOWN-PROC UNKNOWN
UNKNOWN DUMMY) (REAL 8 0 0 REAL ()) 0 0 () () 0 () () () 0 0)
164 'ct2' '' 'ct2' 155 ((VARIABLE UNKNOWN-INTENT UNKNOWN-PROC UNKNOWN
UNKNOWN DUMMY) (REAL 8 0 0 REAL ()) 0 0 () () 0 () () () 0 0)
163 'co2' '' 'co2' 155 ((VARIABLE UNKNOWN-INTENT UNKNOWN-PROC UNKNOWN
UNKNOWN DUMMY) (REAL 8 0 0 REAL ()) 0 0 () () 0 () () () 0 0)
162 'ppa' '' 'ppa' 155 ((VARIABLE UNKNOWN-INTENT UNKNOWN-PROC UNKNOWN
UNKNOWN DUMMY) (REAL 8 0 0 REAL ()) 0 0 () () 0 () () () 0 0)
161 'ppde' '' 'ppde' 155 ((VARIABLE UNKNOWN-INTENT UNKNOWN-PROC UNKNOWN
UNKNOWN DUMMY) (REAL 8 0 0 REAL ()) 0 0 () () 0 () () () 0 0)
168 'a' '' 'a' 167 ((VARIABLE UNKNOWN-INTENT UNKNOWN-PROC UNKNOWN
UNKNOWN DIMENSION DUMMY) (REAL 8 0 0 REAL ()) 0 0 () (2 EXPLICIT (
CONSTANT (INTEGER 4 0 0 INTEGER ()) 0 '0') (CONSTANT (INTEGER 4 0 0
INTEGER ()) 0 '10') (CONSTANT (INTEGER 4 0 0 INTEGER ()) 0 '-10') (
CONSTANT (INTEGER 4 0 0 INTEGER ()) 0 '10')) 0 () () () 0 0)
165 'pf' '' 'pf' 155 ((VARIABLE UNKNOWN-INTENT UNKNOWN-PROC UNKNOWN
UNKNOWN DUMMY) (REAL 8 0 0 REAL ()) 0 0 () () 0 () () () 0 0)
157 'ppal' '' 'ppal' 155 ((VARIABLE UNKNOWN-INTENT UNKNOWN-PROC UNKNOWN
UNKNOWN DUMMY) (REAL 8 0 0 REAL ()) 0 0 () () 0 () () () 0 0)
153 'time' '' 'time' 149 ((VARIABLE UNKNOWN-INTENT UNKNOWN-PROC UNKNOWN
UNKNOWN DUMMY) (REAL 8 0 0 REAL ()) 0 0 () () 0 () () () 0 0)
169 'l' '' 'l' 167 ((VARIABLE UNKNOWN-INTENT UNKNOWN-PROC UNKNOWN
UNKNOWN DUMMY) (INTEGER 4 0 0 INTEGER ()) 0 0 () () 0 () () () 0 0)
170 'm' '' 'm' 167 ((VARIABLE UNKNOWN-INTENT UNKNOWN-PROC UNKNOWN
UNKNOWN DUMMY) (INTEGER 4 0 0 INTEGER ()) 0 0 () () 0 () () () 0 0)
181 'p3' '' 'p3' 180 ((VARIABLE UNKNOWN-INTENT UNKNOWN-PROC UNKNOWN
UNKNOWN DUMMY) (REAL 8 0 0 REAL ()) 0 0 () () 0 () () () 0 0)
185 'pnn' '' 'pnn' 184 ((VARIABLE UNKNOWN-INTENT UNKNOWN-PROC UNKNOWN
UNKNOWN DUMMY) (REAL 8 0 0 REAL ()) 0 0 () () 0 () () () 0 0)
188 'ppds' '' 'ppds' 184 ((VARIABLE UNKNOWN-INTENT UNKNOWN-PROC UNKNOWN
UNKNOWN DUMMY) (REAL 8 0 0 REAL ()) 0 0 () () 0 () () () 0 0)
187 'pnn1' '' 'pnn1' 184 ((VARIABLE UNKNOWN-INTENT UNKNOWN-PROC UNKNOWN
UNKNOWN DUMMY) (REAL 8 0 0 REAL ()) 0 0 () () 0 () () () 0 0)
186 'ppal' '' 'ppal' 184 ((VARIABLE UNKNOWN-INTENT UNKNOWN-PROC UNKNOWN
UNKNOWN DUMMY) (REAL 8 0 0 REAL ()) 0 0 () () 0 () () () 0 0)
190 'al' '' 'al' 184 ((VARIABLE UNKNOWN-INTENT UNKNOWN-PROC UNKNOWN
UNKNOWN DUMMY) (REAL 8 0 0 REAL ()) 0 0 () () 0 () () () 0 0)
189 'pct' '' 'pct' 184 ((VARIABLE UNKNOWN-INTENT UNKNOWN-PROC UNKNOWN
UNKNOWN DUMMY) (REAL 8 0 0 REAL ()) 0 0 () () 0 () () () 0 0)
192 'p2' '' 'p2' 184 ((VARIABLE UNKNOWN-INTENT UNKNOWN-PROC UNKNOWN
UNKNOWN DUMMY) (REAL 8 0 0 REAL ()) 0 0 () () 0 () () () 0 0)
193 'p3' '' 'p3' 184 ((VARIABLE UNKNOWN-INTENT UNKNOWN-PROC UNKNOWN
UNKNOWN DUMMY) (REAL 8 0 0 REAL ()) 0 0 () () 0 () () () 0 0)
191 'et' '' 'et' 184 ((VARIABLE UNKNOWN-INTENT UNKNOWN-PROC UNKNOWN
UNKNOWN DUMMY) (REAL 8 0 0 REAL ()) 0 0 () () 0 () () () 0 0)
198 'tm' '' 'tm' 196 ((VARIABLE UNKNOWN-INTENT UNKNOWN-PROC UNKNOWN
UNKNOWN DIMENSION DUMMY) (REAL 8 0 0 REAL ()) 0 0 () (1 ASSUMED_SHAPE (
CONSTANT (INTEGER 4 0 0 INTEGER ()) 0 '1') ()) 0 () () () 0 0)
197 'a00' '' 'a00' 196 ((VARIABLE UNKNOWN-INTENT UNKNOWN-PROC UNKNOWN
UNKNOWN DUMMY) (REAL 8 0 0 REAL ()) 0 0 () () 0 () () () 0 0)
194 'gg' '' 'gg' 184 ((VARIABLE UNKNOWN-INTENT UNKNOWN-PROC UNKNOWN
UNKNOWN DUMMY) (REAL 8 0 0 REAL ()) 0 0 () () 0 () () () 0 0)
182 'ppv' '' 'ppv' 180 ((VARIABLE UNKNOWN-INTENT UNKNOWN-PROC UNKNOWN
UNKNOWN DUMMY) (REAL 8 0 0 REAL ()) 0 0 () () 0 () () () 0 0)
202 'tau' '' 'tau' 196 ((VARIABLE UNKNOWN-INTENT UNKNOWN-PROC UNKNOWN
UNKNOWN DIMENSION DUMMY) (REAL 8 0 0 REAL ()) 0 0 () (2 ASSUMED_SHAPE (
CONSTANT (INTEGER 4 0 0 INTEGER ()) 0 '1') () (CONSTANT (INTEGER 4 0 0
INTEGER ()) 0 '1') ()) 0 () () () 0 0)
201 'vd' '' 'vd' 196 ((VARIABLE UNKNOWN-INTENT UNKNOWN-PROC UNKNOWN
UNKNOWN DIMENSION DUMMY) (REAL 8 0 0 REAL ()) 0 0 () (2 EXPLICIT (
CONSTANT (INTEGER 4 0 0 INTEGER ()) 0 '1') (CONSTANT (INTEGER 4 0 0
INTEGER ()) 0 '3') (CONSTANT (INTEGER 4 0 0 INTEGER ()) 0 '1') (
CONSTANT (INTEGER 4 0 0 INTEGER ()) 0 '3')) 0 () () () 0 0)
200 'fm' '' 'fm' 196 ((VARIABLE UNKNOWN-INTENT UNKNOWN-PROC UNKNOWN
UNKNOWN DIMENSION DUMMY) (REAL 8 0 0 REAL ()) 0 0 () (1 ASSUMED_SHAPE (
CONSTANT (INTEGER 4 0 0 INTEGER ()) 0 '1') ()) 0 () () () 0 0)
214 'u' '' 'u' 213 ((VARIABLE UNKNOWN-INTENT UNKNOWN-PROC UNKNOWN
UNKNOWN DIMENSION DUMMY) (REAL 8 0 0 REAL ()) 0 0 () (2 EXPLICIT (
CONSTANT (INTEGER 4 0 0 INTEGER ()) 0 '1') (CONSTANT (INTEGER 4 0 0
INTEGER ()) 0 '128') (CONSTANT (INTEGER 4 0 0 INTEGER ()) 0 '1') (
CONSTANT (INTEGER 4 0 0 INTEGER ()) 0 '121')) 0 () () () 0 0)
216 'time' '' 'time' 213 ((VARIABLE UNKNOWN-INTENT UNKNOWN-PROC UNKNOWN
UNKNOWN DUMMY) (REAL 8 0 0 REAL ()) 0 0 () () 0 () () () 0 0)
215 'tau' '' 'tau' 213 ((VARIABLE UNKNOWN-INTENT UNKNOWN-PROC UNKNOWN
UNKNOWN DIMENSION DUMMY) (REAL 8 0 0 REAL ()) 0 0 () (3 ASSUMED_SHAPE (
CONSTANT (INTEGER 4 0 0 INTEGER ()) 0 '1') () (CONSTANT (INTEGER 4 0 0
INTEGER ()) 0 '1') () (CONSTANT (INTEGER 4 0 0 INTEGER ()) 0 '1') ()) 0
() () () 0 0)
199 'sm' '' 'sm' 196 ((VARIABLE UNKNOWN-INTENT UNKNOWN-PROC UNKNOWN
UNKNOWN DIMENSION DUMMY) (REAL 8 0 0 REAL ()) 0 0 () (2 ASSUMED_SHAPE (
CONSTANT (INTEGER 4 0 0 INTEGER ()) 0 '1') () (CONSTANT (INTEGER 4 0 0
INTEGER ()) 0 '1') ()) 0 () () () 0 0)
150 'v' '' 'v' 149 ((VARIABLE UNKNOWN-INTENT UNKNOWN-PROC UNKNOWN
UNKNOWN DIMENSION DUMMY) (REAL 8 0 0 REAL ()) 0 0 () (2 EXPLICIT (
CONSTANT (INTEGER 4 0 0 INTEGER ()) 0 '1') (CONSTANT (INTEGER 4 0 0
INTEGER ()) 0 '128') (CONSTANT (INTEGER 4 0 0 INTEGER ()) 0 '1') (
CONSTANT (INTEGER 4 0 0 INTEGER ()) 0 '3')) 0 () () () 0 0)
25 'd1aiy' '' 'd1aiy' 21 ((VARIABLE UNKNOWN-INTENT UNKNOWN-PROC UNKNOWN
UNKNOWN DIMENSION DUMMY) (REAL 8 0 0 REAL ()) 0 0 () (1 ASSUMED_SHAPE (
CONSTANT (INTEGER 4 0 0 INTEGER ()) 0 '1') ()) 0 () () () 0 0)
22 'ai' '' 'ai' 21 ((VARIABLE UNKNOWN-INTENT UNKNOWN-PROC UNKNOWN
UNKNOWN DIMENSION DUMMY) (REAL 8 0 0 REAL ()) 0 0 () (1 ASSUMED_SHAPE (
CONSTANT (INTEGER 4 0 0 INTEGER ()) 0 '1') ()) 0 () () () 0 0)
49 'v' '' 'v' 48 ((VARIABLE UNKNOWN-INTENT UNKNOWN-PROC UNKNOWN UNKNOWN
DIMENSION DUMMY) (REAL 8 0 0 REAL ()) 0 0 () (2 ASSUMED_SHAPE (CONSTANT
(INTEGER 4 0 0 INTEGER ()) 0 '1') () (CONSTANT (INTEGER 4 0 0 INTEGER ())
0 '1') ()) 0 () () () 0 0)
62 'jm' '' 'jm' 61 ((VARIABLE UNKNOWN-INTENT UNKNOWN-PROC UNKNOWN
UNKNOWN DUMMY) (INTEGER 4 0 0 INTEGER ()) 0 0 () () 0 () () () 0 0)
75 'f' '' 'f' 71 ((VARIABLE OUT UNKNOWN-PROC UNKNOWN UNKNOWN DIMENSION
DUMMY) (REAL 8 0 0 REAL ()) 0 0 () (1 ASSUMED_SHAPE (CONSTANT (INTEGER 4
0 0 INTEGER ()) 0 '1') ()) 0 () () () 0 0)
74 'da2p' '' 'da2p' 71 ((VARIABLE IN UNKNOWN-PROC UNKNOWN UNKNOWN
DIMENSION DUMMY) (REAL 8 0 0 REAL ()) 0 0 () (2 ASSUMED_SHAPE (CONSTANT
(INTEGER 4 0 0 INTEGER ()) 0 '1') () (CONSTANT (INTEGER 4 0 0 INTEGER ())
0 '1') ()) 0 () () () 0 0)
73 'dv' '' 'dv' 71 ((VARIABLE IN UNKNOWN-PROC UNKNOWN UNKNOWN DIMENSION
DUMMY) (REAL 8 0 0 REAL ()) 0 0 () (2 ASSUMED_SHAPE (CONSTANT (INTEGER 4
0 0 INTEGER ()) 0 '1') () (CONSTANT (INTEGER 4 0 0 INTEGER ()) 0 '1') ())
0 () () () 0 0)
72 'u' '' 'u' 71 ((VARIABLE IN UNKNOWN-PROC UNKNOWN UNKNOWN DIMENSION
DUMMY) (REAL 8 0 0 REAL ()) 0 0 () (1 ASSUMED_SHAPE (CONSTANT (INTEGER 4
0 0 INTEGER ()) 0 '1') ()) 0 () () () 0 0)
103 'p' '' 'p' 102 ((VARIABLE UNKNOWN-INTENT UNKNOWN-PROC UNKNOWN
UNKNOWN DIMENSION DUMMY) (REAL 8 0 0 REAL ()) 0 0 () (1 EXPLICIT (
CONSTANT (INTEGER 4 0 0 INTEGER ()) 0 '1') (CONSTANT (INTEGER 4 0 0
INTEGER ()) 0 '128')) 0 () () () 0 0)
107 'a' '' 'a' 106 ((VARIABLE UNKNOWN-INTENT UNKNOWN-PROC UNKNOWN
UNKNOWN DIMENSION DUMMY) (REAL 8 0 0 REAL ()) 0 0 () (2 EXPLICIT (
CONSTANT (INTEGER 4 0 0 INTEGER ()) 0 '0') (CONSTANT (INTEGER 4 0 0
INTEGER ()) 0 '10') (CONSTANT (INTEGER 4 0 0 INTEGER ()) 0 '-10') (
CONSTANT (INTEGER 4 0 0 INTEGER ()) 0 '10')) 0 () () () 0 0)
124 'u' '' 'u' 123 ((VARIABLE IN UNKNOWN-PROC UNKNOWN UNKNOWN DIMENSION
DUMMY) (REAL 8 0 0 REAL ()) 0 0 () (1 ASSUMED_SHAPE (CONSTANT (INTEGER 4
0 0 INTEGER ()) 0 '1') ()) 0 () () () 0 0)
129 'u' '' 'u' 128 ((VARIABLE IN UNKNOWN-PROC UNKNOWN UNKNOWN DIMENSION
DUMMY) (REAL 8 0 0 REAL ()) 0 0 () (1 ASSUMED_SHAPE (CONSTANT (INTEGER 4
0 0 INTEGER ()) 0 '1') ()) 0 () () () 0 0)
136 'f' '' 'f' 133 ((VARIABLE OUT UNKNOWN-PROC UNKNOWN UNKNOWN DIMENSION
DUMMY) (REAL 8 0 0 REAL ()) 0 0 () (1 ASSUMED_SHAPE (CONSTANT (INTEGER 4
0 0 INTEGER ()) 0 '1') ()) 0 () () () 0 0)
135 't' '' 't' 133 ((VARIABLE UNKNOWN-INTENT UNKNOWN-PROC UNKNOWN
UNKNOWN DUMMY) (REAL 8 0 0 REAL ()) 0 0 () () 0 () () () 0 0)
134 'u' '' 'u' 133 ((VARIABLE IN UNKNOWN-PROC UNKNOWN UNKNOWN DIMENSION
DUMMY) (REAL 8 0 0 REAL ()) 0 0 () (1 ASSUMED_SHAPE (CONSTANT (INTEGER 4
0 0 INTEGER ()) 0 '1') ()) 0 () () () 0 0)
175 'jm' '' 'jm' 174 ((VARIABLE UNKNOWN-INTENT UNKNOWN-PROC UNKNOWN
UNKNOWN DUMMY) (INTEGER 4 0 0 INTEGER ()) 0 0 () () 0 () () () 0 0)
178 'c' '' 'c' 174 ((VARIABLE UNKNOWN-INTENT UNKNOWN-PROC UNKNOWN
UNKNOWN DIMENSION DUMMY) (REAL 8 0 0 REAL ()) 0 0 () (2 EXPLICIT (
CONSTANT (INTEGER 4 0 0 INTEGER ()) 0 '0') (CONSTANT (INTEGER 4 0 0
INTEGER ()) 0 '10') (CONSTANT (INTEGER 4 0 0 INTEGER ()) 0 '-10') (
CONSTANT (INTEGER 4 0 0 INTEGER ()) 0 '10')) 0 () () () 0 0)
177 'd' '' 'd' 174 ((VARIABLE UNKNOWN-INTENT UNKNOWN-PROC UNKNOWN
UNKNOWN DIMENSION DUMMY) (REAL 8 0 0 REAL ()) 0 0 () (2 EXPLICIT (
CONSTANT (INTEGER 4 0 0 INTEGER ()) 0 '0') (CONSTANT (INTEGER 4 0 0
INTEGER ()) 0 '10') (CONSTANT (INTEGER 4 0 0 INTEGER ()) 0 '-10') (
CONSTANT (INTEGER 4 0 0 INTEGER ()) 0 '10')) 0 () () () 0 0)
176 'a' '' 'a' 174 ((VARIABLE UNKNOWN-INTENT UNKNOWN-PROC UNKNOWN
UNKNOWN DIMENSION DUMMY) (REAL 8 0 0 REAL ()) 0 0 () (2 EXPLICIT (
CONSTANT (INTEGER 4 0 0 INTEGER ()) 0 '0') (CONSTANT (INTEGER 4 0 0
INTEGER ()) 0 '10') (CONSTANT (INTEGER 4 0 0 INTEGER ()) 0 '-10') (
CONSTANT (INTEGER 4 0 0 INTEGER ()) 0 '10')) 0 () () () 0 0)
205 'dd' '' 'dd' 204 ((VARIABLE UNKNOWN-INTENT UNKNOWN-PROC UNKNOWN
UNKNOWN DIMENSION DUMMY) (REAL 8 0 0 REAL ()) 0 0 () (2 ASSUMED_SHAPE (
CONSTANT (INTEGER 4 0 0 INTEGER ()) 0 '1') () (CONSTANT (INTEGER 4 0 0
INTEGER ()) 0 '1') ()) 0 () () () 0 0)
206 'tau' '' 'tau' 204 ((VARIABLE UNKNOWN-INTENT UNKNOWN-PROC UNKNOWN
UNKNOWN DIMENSION DUMMY) (REAL 8 0 0 REAL ()) 0 0 () (2 ASSUMED_SHAPE (
CONSTANT (INTEGER 4 0 0 INTEGER ()) 0 '1') () (CONSTANT (INTEGER 4 0 0
INTEGER ()) 0 '1') ()) 0 () () () 0 0)
211 'f' '' 'f' 208 ((VARIABLE OUT UNKNOWN-PROC UNKNOWN UNKNOWN DIMENSION
DUMMY) (REAL 8 0 0 REAL ()) 0 0 () (1 ASSUMED_SHAPE (CONSTANT (INTEGER 4
0 0 INTEGER ()) 0 '1') ()) 0 () () () 0 0)
210 't' '' 't' 208 ((VARIABLE UNKNOWN-INTENT UNKNOWN-PROC UNKNOWN
UNKNOWN DUMMY) (REAL 8 0 0 REAL ()) 0 0 () () 0 () () () 0 0)
209 'u' '' 'u' 208 ((VARIABLE IN UNKNOWN-PROC UNKNOWN UNKNOWN DIMENSION
DUMMY) (REAL 8 0 0 REAL ()) 0 0 () (1 ASSUMED_SHAPE (CONSTANT (INTEGER 4
0 0 INTEGER ()) 0 '1') ()) 0 () () () 0 0)
12 'tf' '' 'tf' 8 ((VARIABLE UNKNOWN-INTENT UNKNOWN-PROC UNKNOWN UNKNOWN
DUMMY) (REAL 8 0 0 REAL ()) 0 0 () () 0 () () () 0 0)
43 'n' '' 'n' 42 ((VARIABLE UNKNOWN-INTENT UNKNOWN-PROC UNKNOWN UNKNOWN
DUMMY) (INTEGER 4 0 0 INTEGER ()) 0 0 () () 0 () () () 0 0)
44 't' '' 't' 42 ((VARIABLE UNKNOWN-INTENT UNKNOWN-PROC UNKNOWN UNKNOWN
DUMMY) (REAL 8 0 0 REAL ()) 0 0 () () 0 () () () 0 0)
38 'u' '' 'u' 37 ((VARIABLE UNKNOWN-INTENT UNKNOWN-PROC UNKNOWN UNKNOWN
DIMENSION DUMMY) (REAL 8 0 0 REAL ()) 0 0 () (1 ASSUMED_SHAPE (CONSTANT
(INTEGER 4 0 0 INTEGER ()) 0 '1') ()) 0 () () () 0 0)
39 't' '' 't' 37 ((VARIABLE UNKNOWN-INTENT UNKNOWN-PROC UNKNOWN UNKNOWN
DUMMY) (REAL 8 0 0 REAL ()) 0 0 () () 0 () () () 0 0)
40 'abse' '' 'abse' 37 ((VARIABLE UNKNOWN-INTENT UNKNOWN-PROC UNKNOWN
UNKNOWN DUMMY) (REAL 8 0 0 REAL ()) 0 0 () () 0 () () () 0 0)
)

('__convert_i4_r4' 0 2 '__convert_i4_r8' 0 3 '__convert_r4_r8' 0 4
'__convert_r8_r4' 0 5 'acp' 0 6 'bdf_solv' 0 7 'd1x' 0 13 'd1y' 0 14 'd2u'
0 15 'd2x' 0 16 'd2y' 0 17 'dagp' 0 18 'dble' 0 19 'dfdt' 0 20 'dtaum' 0
29 'dvds' 0 34 'er' 0 35 'error' 0 36 'exact_value' 0 41 'f_para' 0 45
'f_value' 0 46 'flow_field' 0 47 'fourpin1' 0 51 'fourpio3al' 0 52
'fourpio5n' 0 53 'ftg' 0 54 'ftgo' 0 60 'ftuy' 0 66 'fu3' 0 67 'fv3' 0
68 'fv3a' 0 69 'fv_11' 0 70 'fvalue' 0 76 'fvalue_1' 0 81 'fvalue_ex' 0
86 'fvalue_exc' 0 91 'fvalue_im' 0 96 'gradient_p' 0 101 'hy' 0 104 'im'
0 105 'itersolv' 0 110 'kind' 0 115 'lcp_2d' 0 116 'lmax' 0 117 'lp' 0
118 'moments' 0 119 'momentum' 0 122 'momentum_ex' 0 127 'momentum_o' 0
132 'n' 0 137 'n3' 0 138 'nv' 0 139 'ny' 0 140 'pd' 0 141 'pi' 0 142
'precondition' 0 143 'pressure' 0 148 'pvalues' 0 154 're' 0 166
'read_3js' 0 171 'reshape' 0 172 'rftrg' 0 173 'set_ns_value' 0 179
'setanpe' 0 183 'single_taum' 0 195 'single_tauv' 0 203 'smoluchowski' 0
207 'taum_value' 0 212 'u3' 0 217 'uay' 0 218 'ubv' 0 219 'v3' 0 220
'velocity' 0 221 'ys' 0 222)
