Warning: no access to tty (Bad file descriptor).
Thus no job control in this shell.
gcc(25):ERROR:105: Unable to locate a modulefile for 'gcc/4.8.1'
 Done reading data.  0.30901936161855159        6.2286853941365861     
 ************ Initial setting ***********************
 * N=    6.0000000000000000      * N1=    8.0000000000000000     
 * a=   0.94999999999999996     
 * Initial time step size:   1.00000000000000005E-004
 * Number of Iterations:    2000000.0000000000     
 * Final time:    39.000000000000000     
 * Error tolerance:   1.00000000000000004E-010
 * Order in  time:            3
 ****************************************************
 writing into fort.88
           1   1799999.9523162842      * PERCENTAGE LEFT:    99.999949999999998     
 writing into fort.88
        1001   1799999.9523162842      * PERCENTAGE LEFT:    99.949950000000001     
 writing into fort.88
        2001   1799999.9523162842      * PERCENTAGE LEFT:    99.899950000000004     
 writing into fort.88
        3001   1799999.9523162842      * PERCENTAGE LEFT:    99.849949999999993     
 writing into fort.88
        4001   1799999.9523162842      * PERCENTAGE LEFT:    99.799950000000010     
 writing into fort.88
        5001   1799999.9523162842      * PERCENTAGE LEFT:    99.749949999999998     
 writing into fort.88
        6001   1799999.9523162842      * PERCENTAGE LEFT:    99.699950000000001     
 writing into fort.88
        7001   1799999.9523162842      * PERCENTAGE LEFT:    99.649950000000004     
 writing into fort.88
        8001   1799999.9523162842      * PERCENTAGE LEFT:    99.599950000000007     
 writing into fort.88
        9001   1799999.9523162842      * PERCENTAGE LEFT:    99.549949999999995     
 writing into fort.88
       10001   1799999.9523162842      * PERCENTAGE LEFT:    99.499949999999998     
 writing into fort.88
       11001   1799999.9523162842      * PERCENTAGE LEFT:    99.449950000000001     
 writing into fort.88
       12001   1799999.9523162842      * PERCENTAGE LEFT:    99.399950000000004     
 writing into fort.88
       13001   1799999.9523162842      * PERCENTAGE LEFT:    99.349949999999993     
 writing into fort.88
       14001   1799999.9523162842      * PERCENTAGE LEFT:    99.299950000000010     
 writing into fort.88
       15001   1799999.9523162842      * PERCENTAGE LEFT:    99.249949999999998     
 writing into fort.88
       16001   1799999.9523162842      * PERCENTAGE LEFT:    99.199950000000001     
 writing into fort.88
       17001   1799999.9523162842      * PERCENTAGE LEFT:    99.149950000000004     
 writing into fort.88
       18001   1799999.9523162842      * PERCENTAGE LEFT:    99.099950000000007     
 writing into fort.88
       19001   1799999.9523162842      * PERCENTAGE LEFT:    99.049949999999995     
 writing into fort.88
       20001   1799999.9523162842      * PERCENTAGE LEFT:    98.999949999999998     
 writing into fort.88
       21001   1799999.9523162842      * PERCENTAGE LEFT:    98.949950000000001     
 writing into fort.88
       22001   1799999.9523162842      * PERCENTAGE LEFT:    98.899950000000004     
 writing into fort.88
       23001   1799999.9523162842      * PERCENTAGE LEFT:    98.849949999999993     
 writing into fort.88
       24001   1799999.9523162842      * PERCENTAGE LEFT:    98.799950000000010     
 writing into fort.88
       25001   1799999.9523162842      * PERCENTAGE LEFT:    98.749949999999998     
 writing into fort.88
       26001   1799999.9523162842      * PERCENTAGE LEFT:    98.699950000000001     
 writing into fort.88
       27001   1799999.9523162842      * PERCENTAGE LEFT:    98.649950000000004     
 writing into fort.88
       28001   1799999.9523162842      * PERCENTAGE LEFT:    98.599950000000007     
 writing into fort.88
       29001   1799999.9523162842      * PERCENTAGE LEFT:    98.549949999999995     
 writing into fort.88
       30001   1799999.9523162842      * PERCENTAGE LEFT:    98.499949999999998     
 writing into fort.88
       31001   1799999.9523162842      * PERCENTAGE LEFT:    98.449950000000001     
 writing into fort.88
       32001   1799999.9523162842      * PERCENTAGE LEFT:    98.399950000000004     
 writing into fort.88
       33001   1799999.9523162842      * PERCENTAGE LEFT:    98.349949999999993     
 writing into fort.88
       34001   1799999.9523162842      * PERCENTAGE LEFT:    98.299949999999995     
 writing into fort.88
       35001   1799999.9523162842      * PERCENTAGE LEFT:    98.249949999999998     
 writing into fort.88
       36001   1799999.9523162842      * PERCENTAGE LEFT:    98.199950000000001     
 writing into fort.88
       37001   1799999.9523162842      * PERCENTAGE LEFT:    98.149949999999990     
 writing into fort.88
       38001   1799999.9523162842      * PERCENTAGE LEFT:    98.099950000000007     
 writing into fort.88
       39001   1799999.9523162842      * PERCENTAGE LEFT:    98.049949999999995     
 writing into fort.88
       40001   1799999.9523162842      * PERCENTAGE LEFT:    97.999949999999998     
 writing into fort.88
       41001   1799999.9523162842      * PERCENTAGE LEFT:    97.949950000000001     
 writing into fort.88
       42001   1799999.9523162842      * PERCENTAGE LEFT:    97.899950000000004     
 writing into fort.88
       43001   1799999.9523162842      * PERCENTAGE LEFT:    97.849949999999993     
 writing into fort.88
       44001   1799999.9523162842      * PERCENTAGE LEFT:    97.799949999999995     
 writing into fort.88
       45001   1799999.9523162842      * PERCENTAGE LEFT:    97.749949999999998     
 writing into fort.88
       46001   1799999.9523162842      * PERCENTAGE LEFT:    97.699950000000001     
 writing into fort.88
       47001   1799999.9523162842      * PERCENTAGE LEFT:    97.649949999999990     
 writing into fort.88
       48001   1799999.9523162842      * PERCENTAGE LEFT:    97.599950000000007     
 writing into fort.88
       49001   1799999.9523162842      * PERCENTAGE LEFT:    97.549949999999995     
 writing into fort.88
       50001   1799999.9523162842      * PERCENTAGE LEFT:    97.499949999999998     
 writing into fort.88
       51001   1799999.9523162842      * PERCENTAGE LEFT:    97.449950000000001     
 writing into fort.88
       52001   1799999.9523162842      * PERCENTAGE LEFT:    97.399950000000004     
 writing into fort.88
       53001   1799999.9523162842      * PERCENTAGE LEFT:    97.349949999999993     
 writing into fort.88
       54001   1799999.9523162842      * PERCENTAGE LEFT:    97.299949999999995     
 writing into fort.88
       55001   1799999.9523162842      * PERCENTAGE LEFT:    97.249949999999998     
 writing into fort.88
       56001   1799999.9523162842      * PERCENTAGE LEFT:    97.199950000000001     
 writing into fort.88
       57001   1799999.9523162842      * PERCENTAGE LEFT:    97.149949999999990     
 writing into fort.88
       58001   1799999.9523162842      * PERCENTAGE LEFT:    97.099950000000007     
 writing into fort.88
       59001   1799999.9523162842      * PERCENTAGE LEFT:    97.049949999999995     
 writing into fort.88
       60001   1799999.9523162842      * PERCENTAGE LEFT:    96.999949999999998     
 writing into fort.88
       61001   1799999.9523162842      * PERCENTAGE LEFT:    96.949950000000001     
 writing into fort.88
       62001   1799999.9523162842      * PERCENTAGE LEFT:    96.899950000000004     
 writing into fort.88
       63001   1799999.9523162842      * PERCENTAGE LEFT:    96.849949999999993     
 writing into fort.88
       64001   1799999.9523162842      * PERCENTAGE LEFT:    96.799949999999995     
 writing into fort.88
       65001   1799999.9523162842      * PERCENTAGE LEFT:    96.749949999999998     
 writing into fort.88
       66001   1799999.9523162842      * PERCENTAGE LEFT:    96.699950000000001     
 writing into fort.88
       67001   1799999.9523162842      * PERCENTAGE LEFT:    96.649949999999990     
 writing into fort.88
       68001   1799999.9523162842      * PERCENTAGE LEFT:    96.599950000000007     
 writing into fort.88
       69001   1799999.9523162842      * PERCENTAGE LEFT:    96.549949999999995     
 writing into fort.88
       70001   1799999.9523162842      * PERCENTAGE LEFT:    96.499949999999998     
 writing into fort.88
       71001   1799999.9523162842      * PERCENTAGE LEFT:    96.449950000000001     
 writing into fort.88
       72001   1799999.9523162842      * PERCENTAGE LEFT:    96.399950000000004     
 writing into fort.88
       73001   1799999.9523162842      * PERCENTAGE LEFT:    96.349949999999993     
 writing into fort.88
       74001   1799999.9523162842      * PERCENTAGE LEFT:    96.299949999999995     
 writing into fort.88
       75001   1799999.9523162842      * PERCENTAGE LEFT:    96.249949999999998     
 writing into fort.88
       76001   1799999.9523162842      * PERCENTAGE LEFT:    96.199950000000001     
 writing into fort.88
       77001   1799999.9523162842      * PERCENTAGE LEFT:    96.149949999999990     
 writing into fort.88
       78001   1799999.9523162842      * PERCENTAGE LEFT:    96.099950000000007     
 writing into fort.88
       79001   1799999.9523162842      * PERCENTAGE LEFT:    96.049949999999995     
 writing into fort.88
       80001   1799999.9523162842      * PERCENTAGE LEFT:    95.999949999999998     
 writing into fort.88
       81001   1799999.9523162842      * PERCENTAGE LEFT:    95.949950000000001     
 writing into fort.88
       82001   1799999.9523162842      * PERCENTAGE LEFT:    95.899950000000004     
 writing into fort.88
       83001   1799999.9523162842      * PERCENTAGE LEFT:    95.849949999999993     
 writing into fort.88
       84001   1799999.9523162842      * PERCENTAGE LEFT:    95.799949999999995     
 writing into fort.88
       85001   1799999.9523162842      * PERCENTAGE LEFT:    95.749949999999998     
 writing into fort.88
       86001   1799999.9523162842      * PERCENTAGE LEFT:    95.699950000000001     
 writing into fort.88
       87001   1799999.9523162842      * PERCENTAGE LEFT:    95.649949999999990     
 writing into fort.88
       88001   1799999.9523162842      * PERCENTAGE LEFT:    95.599950000000007     
 writing into fort.88
       89001   1799999.9523162842      * PERCENTAGE LEFT:    95.549949999999995     
 writing into fort.88
       90001   1799999.9523162842      * PERCENTAGE LEFT:    95.499949999999998     
 writing into fort.88
       91001   1799999.9523162842      * PERCENTAGE LEFT:    95.449950000000001     
 writing into fort.88
       92001   1799999.9523162842      * PERCENTAGE LEFT:    95.399950000000004     
 writing into fort.88
       93001   1799999.9523162842      * PERCENTAGE LEFT:    95.349950000000007     
 writing into fort.88
       94001   1799999.9523162842      * PERCENTAGE LEFT:    95.299949999999995     
 writing into fort.88
       95001   1799999.9523162842      * PERCENTAGE LEFT:    95.249950000000013     
 writing into fort.88
       96001   1799999.9523162842      * PERCENTAGE LEFT:    95.199950000000001     
 writing into fort.88
       97001   1799999.9523162842      * PERCENTAGE LEFT:    95.149950000000004     
 writing into fort.88
       98001   1799999.9523162842      * PERCENTAGE LEFT:    95.099950000000007     
 writing into fort.88
       99001   1799999.9523162842      * PERCENTAGE LEFT:    95.049950000000010     
 writing into fort.88
      100001   1799999.9523162842      * PERCENTAGE LEFT:    94.999949999999998     
 writing into fort.88
      101001   1799999.9523162842      * PERCENTAGE LEFT:    94.949950000000001     
 writing into fort.88
      102001   1799999.9523162842      * PERCENTAGE LEFT:    94.899950000000004     
 writing into fort.88
      103001   1799999.9523162842      * PERCENTAGE LEFT:    94.849950000000007     
 writing into fort.88
      104001   1799999.9523162842      * PERCENTAGE LEFT:    94.799949999999995     
 writing into fort.88
      105001   1799999.9523162842      * PERCENTAGE LEFT:    94.749949999999998     
 writing into fort.88
      106001   1799999.9523162842      * PERCENTAGE LEFT:    94.699950000000001     
 writing into fort.88
      107001   1799999.9523162842      * PERCENTAGE LEFT:    94.649950000000004     
 writing into fort.88
      108001   1799999.9523162842      * PERCENTAGE LEFT:    94.599949999999993     
 writing into fort.88
      109001   1799999.9523162842      * PERCENTAGE LEFT:    94.549950000000010     
 writing into fort.88
      110001   1799999.9523162842      * PERCENTAGE LEFT:    94.499949999999998     
 writing into fort.88
      111001   1799999.9523162842      * PERCENTAGE LEFT:    94.449950000000001     
 writing into fort.88
      112001   1799999.9523162842      * PERCENTAGE LEFT:    94.399950000000004     
 writing into fort.88
      113001   1799999.9523162842      * PERCENTAGE LEFT:    94.349950000000007     
 writing into fort.88
      114001   1799999.9523162842      * PERCENTAGE LEFT:    94.299949999999995     
 writing into fort.88
      115001   1799999.9523162842      * PERCENTAGE LEFT:    94.249949999999998     
 writing into fort.88
      116001   1799999.9523162842      * PERCENTAGE LEFT:    94.199950000000001     
 writing into fort.88
      117001   1799999.9523162842      * PERCENTAGE LEFT:    94.149950000000004     
 writing into fort.88
      118001   1799999.9523162842      * PERCENTAGE LEFT:    94.099949999999993     
 writing into fort.88
      119001   1799999.9523162842      * PERCENTAGE LEFT:    94.049950000000010     
 writing into fort.88
      120001   1799999.9523162842      * PERCENTAGE LEFT:    93.999949999999998     
 writing into fort.88
      121001   1799999.9523162842      * PERCENTAGE LEFT:    93.949950000000001     
 writing into fort.88
      122001   1799999.9523162842      * PERCENTAGE LEFT:    93.899950000000004     
 writing into fort.88
      123001   1799999.9523162842      * PERCENTAGE LEFT:    93.849950000000007     
 writing into fort.88
      124001   1799999.9523162842      * PERCENTAGE LEFT:    93.799949999999995     
 writing into fort.88
      125001   1799999.9523162842      * PERCENTAGE LEFT:    93.749949999999998     
 writing into fort.88
      126001   1799999.9523162842      * PERCENTAGE LEFT:    93.699950000000001     
 writing into fort.88
      127001   1799999.9523162842      * PERCENTAGE LEFT:    93.649950000000004     
 writing into fort.88
      128001   1799999.9523162842      * PERCENTAGE LEFT:    93.599949999999993     
 writing into fort.88
      129001   1799999.9523162842      * PERCENTAGE LEFT:    93.549950000000010     
 writing into fort.88
      130001   1799999.9523162842      * PERCENTAGE LEFT:    93.499949999999998     
 writing into fort.88
      131001   1799999.9523162842      * PERCENTAGE LEFT:    93.449950000000001     
 writing into fort.88
      132001   1799999.9523162842      * PERCENTAGE LEFT:    93.399950000000004     
 writing into fort.88
      133001   1799999.9523162842      * PERCENTAGE LEFT:    93.349950000000007     
 writing into fort.88
      134001   1799999.9523162842      * PERCENTAGE LEFT:    93.299949999999995     
 writing into fort.88
      135001   1799999.9523162842      * PERCENTAGE LEFT:    93.249949999999998     
 writing into fort.88
      136001   1799999.9523162842      * PERCENTAGE LEFT:    93.199950000000001     
 writing into fort.88
      137001   1799999.9523162842      * PERCENTAGE LEFT:    93.149950000000004     
 writing into fort.88
      138001   1799999.9523162842      * PERCENTAGE LEFT:    93.099949999999993     
 writing into fort.88
      139001   1799999.9523162842      * PERCENTAGE LEFT:    93.049950000000010     
 writing into fort.88
      140001   1799999.9523162842      * PERCENTAGE LEFT:    92.999949999999998     
 writing into fort.88
      141001   1799999.9523162842      * PERCENTAGE LEFT:    92.949950000000001     
 writing into fort.88
      142001   1799999.9523162842      * PERCENTAGE LEFT:    92.899950000000004     
 writing into fort.88
      143001   1799999.9523162842      * PERCENTAGE LEFT:    92.849950000000007     
 writing into fort.88
      144001   1799999.9523162842      * PERCENTAGE LEFT:    92.799949999999995     
 writing into fort.88
      145001   1799999.9523162842      * PERCENTAGE LEFT:    92.749949999999998     
 writing into fort.88
      146001   1799999.9523162842      * PERCENTAGE LEFT:    92.699950000000001     
 writing into fort.88
      147001   1799999.9523162842      * PERCENTAGE LEFT:    92.649950000000004     
 writing into fort.88
      148001   1799999.9523162842      * PERCENTAGE LEFT:    92.599949999999993     
 writing into fort.88
      149001   1799999.9523162842      * PERCENTAGE LEFT:    92.549950000000010     
 writing into fort.88
      150001   1799999.9523162842      * PERCENTAGE LEFT:    92.499949999999998     
 writing into fort.88
      151001   1799999.9523162842      * PERCENTAGE LEFT:    92.449950000000001     
 writing into fort.88
      152001   1799999.9523162842      * PERCENTAGE LEFT:    92.399950000000004     
 writing into fort.88
      153001   1799999.9523162842      * PERCENTAGE LEFT:    92.349950000000007     
 writing into fort.88
      154001   1799999.9523162842      * PERCENTAGE LEFT:    92.299949999999995     
 writing into fort.88
      155001   1799999.9523162842      * PERCENTAGE LEFT:    92.249949999999998     
 writing into fort.88
      156001   1799999.9523162842      * PERCENTAGE LEFT:    92.199950000000001     
 writing into fort.88
      157001   1799999.9523162842      * PERCENTAGE LEFT:    92.149950000000004     
 writing into fort.88
      158001   1799999.9523162842      * PERCENTAGE LEFT:    92.099949999999993     
 writing into fort.88
      159001   1799999.9523162842      * PERCENTAGE LEFT:    92.049949999999995     
 writing into fort.88
      160001   1799999.9523162842      * PERCENTAGE LEFT:    91.999949999999998     
 writing into fort.88
      161001   1799999.9523162842      * PERCENTAGE LEFT:    91.949950000000001     
 writing into fort.88
      162001   1799999.9523162842      * PERCENTAGE LEFT:    91.899949999999990     
 writing into fort.88
      163001   1799999.9523162842      * PERCENTAGE LEFT:    91.849950000000007     
 writing into fort.88
      164001   1799999.9523162842      * PERCENTAGE LEFT:    91.799949999999995     
 writing into fort.88
      165001   1799999.9523162842      * PERCENTAGE LEFT:    91.749949999999998     
 writing into fort.88
      166001   1799999.9523162842      * PERCENTAGE LEFT:    91.699950000000001     
 writing into fort.88
      167001   1799999.9523162842      * PERCENTAGE LEFT:    91.649950000000004     
 writing into fort.88
      168001   1799999.9523162842      * PERCENTAGE LEFT:    91.599949999999993     
 writing into fort.88
      169001   1799999.9523162842      * PERCENTAGE LEFT:    91.549949999999995     
 writing into fort.88
      170001   1799999.9523162842      * PERCENTAGE LEFT:    91.499949999999998     
 writing into fort.88
      171001   1799999.9523162842      * PERCENTAGE LEFT:    91.449950000000001     
 writing into fort.88
      172001   1799999.9523162842      * PERCENTAGE LEFT:    91.399949999999990     
 writing into fort.88
      173001   1799999.9523162842      * PERCENTAGE LEFT:    91.349950000000007     
 writing into fort.88
      174001   1799999.9523162842      * PERCENTAGE LEFT:    91.299949999999995     
 writing into fort.88
      175001   1799999.9523162842      * PERCENTAGE LEFT:    91.249949999999998     
 writing into fort.88
      176001   1799999.9523162842      * PERCENTAGE LEFT:    91.199950000000001     
 writing into fort.88
      177001   1799999.9523162842      * PERCENTAGE LEFT:    91.149950000000004     
 writing into fort.88
      178001   1799999.9523162842      * PERCENTAGE LEFT:    91.099949999999993     
 writing into fort.88
      179001   1799999.9523162842      * PERCENTAGE LEFT:    91.049949999999995     
 writing into fort.88
      180001   1799999.9523162842      * PERCENTAGE LEFT:    90.999949999999998     
 writing into fort.88
      181001   1799999.9523162842      * PERCENTAGE LEFT:    90.949950000000001     
 writing into fort.88
      182001   1799999.9523162842      * PERCENTAGE LEFT:    90.899949999999990     
 writing into fort.88
      183001   1799999.9523162842      * PERCENTAGE LEFT:    90.849950000000007     
 writing into fort.88
      184001   1799999.9523162842      * PERCENTAGE LEFT:    90.799949999999995     
 writing into fort.88
      185001   1799999.9523162842      * PERCENTAGE LEFT:    90.749949999999998     
 writing into fort.88
      186001   1799999.9523162842      * PERCENTAGE LEFT:    90.699950000000001     
 writing into fort.88
      187001   1799999.9523162842      * PERCENTAGE LEFT:    90.649950000000004     
 writing into fort.88
      188001   1799999.9523162842      * PERCENTAGE LEFT:    90.599949999999993     
 writing into fort.88
      189001   1799999.9523162842      * PERCENTAGE LEFT:    90.549949999999995     
 writing into fort.88
      190001   1799999.9523162842      * PERCENTAGE LEFT:    90.499949999999998     
 writing into fort.88
      191001   1799999.9523162842      * PERCENTAGE LEFT:    90.449950000000001     
 writing into fort.88
      192001   1799999.9523162842      * PERCENTAGE LEFT:    90.399949999999990     
 writing into fort.88
      193001   1799999.9523162842      * PERCENTAGE LEFT:    90.349950000000007     
 writing into fort.88
      194001   1799999.9523162842      * PERCENTAGE LEFT:    90.299949999999995     
 writing into fort.88
      195001   1799999.9523162842      * PERCENTAGE LEFT:    90.249949999999998     
 writing into fort.88
      196001   1799999.9523162842      * PERCENTAGE LEFT:    90.199950000000001     
 writing into fort.88
      197001   1799999.9523162842      * PERCENTAGE LEFT:    90.149950000000004     
 writing into fort.88
      198001   1799999.9523162842      * PERCENTAGE LEFT:    90.099949999999993     
 writing into fort.88
      199001   1799999.9523162842      * PERCENTAGE LEFT:    90.049949999999995     
 writing into fort.88
      200001   1799999.9523162842      * PERCENTAGE LEFT:    89.999949999999998     
 writing into fort.88
      201001   1799999.9523162842      * PERCENTAGE LEFT:    89.949950000000001     
 writing into fort.88
      202001   1799999.9523162842      * PERCENTAGE LEFT:    89.899949999999990     
 writing into fort.88
      203001   1799999.9523162842      * PERCENTAGE LEFT:    89.849950000000007     
 writing into fort.88
      204001   1799999.9523162842      * PERCENTAGE LEFT:    89.799949999999995     
 writing into fort.88
      205001   1799999.9523162842      * PERCENTAGE LEFT:    89.749949999999998     
 writing into fort.88
      206001   1799999.9523162842      * PERCENTAGE LEFT:    89.699950000000001     
 writing into fort.88
      207001   1799999.9523162842      * PERCENTAGE LEFT:    89.649950000000004     
 writing into fort.88
      208001   1799999.9523162842      * PERCENTAGE LEFT:    89.599949999999993     
 writing into fort.88
      209001   1799999.9523162842      * PERCENTAGE LEFT:    89.549949999999995     
 writing into fort.88
      210001   1799999.9523162842      * PERCENTAGE LEFT:    89.499949999999998     
 writing into fort.88
      211001   1799999.9523162842      * PERCENTAGE LEFT:    89.449950000000001     
 writing into fort.88
      212001   1799999.9523162842      * PERCENTAGE LEFT:    89.399949999999990     
 writing into fort.88
      213001   1799999.9523162842      * PERCENTAGE LEFT:    89.349950000000007     
 writing into fort.88
      214001   1799999.9523162842      * PERCENTAGE LEFT:    89.299949999999995     
 writing into fort.88
      215001   1799999.9523162842      * PERCENTAGE LEFT:    89.249949999999998     
 writing into fort.88
      216001   1799999.9523162842      * PERCENTAGE LEFT:    89.199950000000001     
 writing into fort.88
      217001   1799999.9523162842      * PERCENTAGE LEFT:    89.149950000000004     
 writing into fort.88
      218001   1799999.9523162842      * PERCENTAGE LEFT:    89.099950000000007     
 writing into fort.88
      219001   1799999.9523162842      * PERCENTAGE LEFT:    89.049949999999995     
 writing into fort.88
      220001   1799999.9523162842      * PERCENTAGE LEFT:    88.999950000000013     
 writing into fort.88
      221001   1799999.9523162842      * PERCENTAGE LEFT:    88.949950000000001     
 writing into fort.88
      222001   1799999.9523162842      * PERCENTAGE LEFT:    88.899950000000004     
 writing into fort.88
      223001   1799999.9523162842      * PERCENTAGE LEFT:    88.849950000000007     
 writing into fort.88
      224001   1799999.9523162842      * PERCENTAGE LEFT:    88.799950000000010     
 writing into fort.88
      225001   1799999.9523162842      * PERCENTAGE LEFT:    88.749949999999998     
 writing into fort.88
      226001   1799999.9523162842      * PERCENTAGE LEFT:    88.699950000000001     
 writing into fort.88
      227001   1799999.9523162842      * PERCENTAGE LEFT:    88.649950000000004     
 writing into fort.88
      228001   1799999.9523162842      * PERCENTAGE LEFT:    88.599950000000007     
 writing into fort.88
      229001   1799999.9523162842      * PERCENTAGE LEFT:    88.549949999999995     
 writing into fort.88
      230001   1799999.9523162842      * PERCENTAGE LEFT:    88.499949999999998     
 writing into fort.88
      231001   1799999.9523162842      * PERCENTAGE LEFT:    88.449950000000001     
 writing into fort.88
      232001   1799999.9523162842      * PERCENTAGE LEFT:    88.399950000000004     
 writing into fort.88
      233001   1799999.9523162842      * PERCENTAGE LEFT:    88.349949999999993     
 writing into fort.88
      234001   1799999.9523162842      * PERCENTAGE LEFT:    88.299950000000010     
 writing into fort.88
      235001   1799999.9523162842      * PERCENTAGE LEFT:    88.249949999999998     
 writing into fort.88
      236001   1799999.9523162842      * PERCENTAGE LEFT:    88.199950000000001     
 writing into fort.88
      237001   1799999.9523162842      * PERCENTAGE LEFT:    88.149950000000004     
 writing into fort.88
      238001   1799999.9523162842      * PERCENTAGE LEFT:    88.099950000000007     
 writing into fort.88
      239001   1799999.9523162842      * PERCENTAGE LEFT:    88.049949999999995     
 writing into fort.88
      240001   1799999.9523162842      * PERCENTAGE LEFT:    87.999949999999998     
 writing into fort.88
      241001   1799999.9523162842      * PERCENTAGE LEFT:    87.949950000000001     
 writing into fort.88
      242001   1799999.9523162842      * PERCENTAGE LEFT:    87.899950000000004     
 writing into fort.88
      243001   1799999.9523162842      * PERCENTAGE LEFT:    87.849949999999993     
 writing into fort.88
      244001   1799999.9523162842      * PERCENTAGE LEFT:    87.799950000000010     
 writing into fort.88
      245001   1799999.9523162842      * PERCENTAGE LEFT:    87.749949999999998     
 writing into fort.88
      246001   1799999.9523162842      * PERCENTAGE LEFT:    87.699950000000001     
 writing into fort.88
      247001   1799999.9523162842      * PERCENTAGE LEFT:    87.649950000000004     
 writing into fort.88
      248001   1799999.9523162842      * PERCENTAGE LEFT:    87.599950000000007     
 writing into fort.88
      249001   1799999.9523162842      * PERCENTAGE LEFT:    87.549949999999995     
 writing into fort.88
      250001   1799999.9523162842      * PERCENTAGE LEFT:    87.499949999999998     
 writing into fort.88
      251001   1799999.9523162842      * PERCENTAGE LEFT:    87.449950000000001     
 writing into fort.88
      252001   1799999.9523162842      * PERCENTAGE LEFT:    87.399950000000004     
 writing into fort.88
      253001   1799999.9523162842      * PERCENTAGE LEFT:    87.349949999999993     
 writing into fort.88
      254001   1799999.9523162842      * PERCENTAGE LEFT:    87.299950000000010     
 writing into fort.88
      255001   1799999.9523162842      * PERCENTAGE LEFT:    87.249949999999998     
 writing into fort.88
      256001   1799999.9523162842      * PERCENTAGE LEFT:    87.199950000000001     
 writing into fort.88
      257001   1799999.9523162842      * PERCENTAGE LEFT:    87.149950000000004     
 writing into fort.88
      258001   1799999.9523162842      * PERCENTAGE LEFT:    87.099950000000007     
 writing into fort.88
      259001   1799999.9523162842      * PERCENTAGE LEFT:    87.049949999999995     
 writing into fort.88
      260001   1799999.9523162842      * PERCENTAGE LEFT:    86.999949999999998     
 writing into fort.88
      261001   1799999.9523162842      * PERCENTAGE LEFT:    86.949950000000001     
 writing into fort.88
      262001   1799999.9523162842      * PERCENTAGE LEFT:    86.899950000000004     
 writing into fort.88
      263001   1799999.9523162842      * PERCENTAGE LEFT:    86.849949999999993     
 writing into fort.88
      264001   1799999.9523162842      * PERCENTAGE LEFT:    86.799950000000010     
 writing into fort.88
      265001   1799999.9523162842      * PERCENTAGE LEFT:    86.749949999999998     
 writing into fort.88
      266001   1799999.9523162842      * PERCENTAGE LEFT:    86.699950000000001     
 writing into fort.88
      267001   1799999.9523162842      * PERCENTAGE LEFT:    86.649950000000004     
 writing into fort.88
      268001   1799999.9523162842      * PERCENTAGE LEFT:    86.599950000000007     
 writing into fort.88
      269001   1799999.9523162842      * PERCENTAGE LEFT:    86.549949999999995     
 writing into fort.88
      270001   1799999.9523162842      * PERCENTAGE LEFT:    86.499949999999998     
 writing into fort.88
      271001   1799999.9523162842      * PERCENTAGE LEFT:    86.449950000000001     
 writing into fort.88
      272001   1799999.9523162842      * PERCENTAGE LEFT:    86.399950000000004     
 writing into fort.88
      273001   1799999.9523162842      * PERCENTAGE LEFT:    86.349949999999993     
 writing into fort.88
      274001   1799999.9523162842      * PERCENTAGE LEFT:    86.299950000000010     
 writing into fort.88
      275001   1799999.9523162842      * PERCENTAGE LEFT:    86.249949999999998     
 writing into fort.88
      276001   1799999.9523162842      * PERCENTAGE LEFT:    86.199950000000001     
 writing into fort.88
      277001   1799999.9523162842      * PERCENTAGE LEFT:    86.149950000000004     
 writing into fort.88
      278001   1799999.9523162842      * PERCENTAGE LEFT:    86.099950000000007     
 writing into fort.88
      279001   1799999.9523162842      * PERCENTAGE LEFT:    86.049949999999995     
 writing into fort.88
      280001   1799999.9523162842      * PERCENTAGE LEFT:    85.999949999999998     
 writing into fort.88
      281001   1799999.9523162842      * PERCENTAGE LEFT:    85.949950000000001     
 writing into fort.88
      282001   1799999.9523162842      * PERCENTAGE LEFT:    85.899950000000004     
 writing into fort.88
      283001   1799999.9523162842      * PERCENTAGE LEFT:    85.849949999999993     
 writing into fort.88
      284001   1799999.9523162842      * PERCENTAGE LEFT:    85.799949999999995     
 writing into fort.88
      285001   1799999.9523162842      * PERCENTAGE LEFT:    85.749949999999998     
 writing into fort.88
      286001   1799999.9523162842      * PERCENTAGE LEFT:    85.699950000000001     
 writing into fort.88
      287001   1799999.9523162842      * PERCENTAGE LEFT:    85.649949999999990     
 writing into fort.88
      288001   1799999.9523162842      * PERCENTAGE LEFT:    85.599950000000007     
 writing into fort.88
      289001   1799999.9523162842      * PERCENTAGE LEFT:    85.549949999999995     
 writing into fort.88
      290001   1799999.9523162842      * PERCENTAGE LEFT:    85.499949999999998     
 writing into fort.88
      291001   1799999.9523162842      * PERCENTAGE LEFT:    85.449950000000001     
 writing into fort.88
      292001   1799999.9523162842      * PERCENTAGE LEFT:    85.399950000000004     
 writing into fort.88
      293001   1799999.9523162842      * PERCENTAGE LEFT:    85.349949999999993     
 writing into fort.88
      294001   1799999.9523162842      * PERCENTAGE LEFT:    85.299949999999995     
 writing into fort.88
      295001   1799999.9523162842      * PERCENTAGE LEFT:    85.249949999999998     
 writing into fort.88
      296001   1799999.9523162842      * PERCENTAGE LEFT:    85.199950000000001     
 writing into fort.88
      297001   1799999.9523162842      * PERCENTAGE LEFT:    85.149949999999990     
 writing into fort.88
      298001   1799999.9523162842      * PERCENTAGE LEFT:    85.099950000000007     
 writing into fort.88
      299001   1799999.9523162842      * PERCENTAGE LEFT:    85.049949999999995     
 writing into fort.88
      300001   1799999.9523162842      * PERCENTAGE LEFT:    84.999949999999998     
 writing into fort.88
      301001   1799999.9523162842      * PERCENTAGE LEFT:    84.949950000000001     
 writing into fort.88
      302001   1799999.9523162842      * PERCENTAGE LEFT:    84.899950000000004     
 writing into fort.88
      303001   1799999.9523162842      * PERCENTAGE LEFT:    84.849949999999993     
 writing into fort.88
      304001   1799999.9523162842      * PERCENTAGE LEFT:    84.799949999999995     
 writing into fort.88
      305001   1799999.9523162842      * PERCENTAGE LEFT:    84.749949999999998     
 writing into fort.88
      306001   1799999.9523162842      * PERCENTAGE LEFT:    84.699950000000001     
 writing into fort.88
      307001   1799999.9523162842      * PERCENTAGE LEFT:    84.649949999999990     
 writing into fort.88
      308001   1799999.9523162842      * PERCENTAGE LEFT:    84.599950000000007     
 writing into fort.88
      309001   1799999.9523162842      * PERCENTAGE LEFT:    84.549949999999995     
 writing into fort.88
      310001   1799999.9523162842      * PERCENTAGE LEFT:    84.499949999999998     
 writing into fort.88
      311001   1799999.9523162842      * PERCENTAGE LEFT:    84.449950000000001     
 writing into fort.88
      312001   1799999.9523162842      * PERCENTAGE LEFT:    84.399950000000004     
 writing into fort.88
      313001   1799999.9523162842      * PERCENTAGE LEFT:    84.349949999999993     
 writing into fort.88
      314001   1799999.9523162842      * PERCENTAGE LEFT:    84.299949999999995     
 writing into fort.88
      315001   1799999.9523162842      * PERCENTAGE LEFT:    84.249949999999998     
 writing into fort.88
      316001   1799999.9523162842      * PERCENTAGE LEFT:    84.199950000000001     
 writing into fort.88
      317001   1799999.9523162842      * PERCENTAGE LEFT:    84.149949999999990     
 writing into fort.88
      318001   1799999.9523162842      * PERCENTAGE LEFT:    84.099950000000007     
 writing into fort.88
      319001   1799999.9523162842      * PERCENTAGE LEFT:    84.049949999999995     
 writing into fort.88
      320001   1799999.9523162842      * PERCENTAGE LEFT:    83.999949999999998     
 writing into fort.88
      321001   1799999.9523162842      * PERCENTAGE LEFT:    83.949950000000001     
 writing into fort.88
      322001   1799999.9523162842      * PERCENTAGE LEFT:    83.899950000000004     
 writing into fort.88
      323001   1799999.9523162842      * PERCENTAGE LEFT:    83.849949999999993     
 writing into fort.88
      324001   1799999.9523162842      * PERCENTAGE LEFT:    83.799949999999995     
 writing into fort.88
      325001   1799999.9523162842      * PERCENTAGE LEFT:    83.749949999999998     
 writing into fort.88
      326001   1799999.9523162842      * PERCENTAGE LEFT:    83.699950000000001     
 writing into fort.88
      327001   1799999.9523162842      * PERCENTAGE LEFT:    83.649949999999990     
 writing into fort.88
      328001   1799999.9523162842      * PERCENTAGE LEFT:    83.599950000000007     
 writing into fort.88
      329001   1799999.9523162842      * PERCENTAGE LEFT:    83.549949999999995     
 writing into fort.88
      330001   1799999.9523162842      * PERCENTAGE LEFT:    83.499949999999998     
 writing into fort.88
      331001   1799999.9523162842      * PERCENTAGE LEFT:    83.449950000000001     
 writing into fort.88
      332001   1799999.9523162842      * PERCENTAGE LEFT:    83.399950000000004     
 writing into fort.88
      333001   1799999.9523162842      * PERCENTAGE LEFT:    83.349949999999993     
 writing into fort.88
      334001   1799999.9523162842      * PERCENTAGE LEFT:    83.299949999999995     
 writing into fort.88
      335001   1799999.9523162842      * PERCENTAGE LEFT:    83.249949999999998     
 writing into fort.88
      336001   1799999.9523162842      * PERCENTAGE LEFT:    83.199950000000001     
 writing into fort.88
      337001   1799999.9523162842      * PERCENTAGE LEFT:    83.149949999999990     
 writing into fort.88
      338001   1799999.9523162842      * PERCENTAGE LEFT:    83.099950000000007     
 writing into fort.88
      339001   1799999.9523162842      * PERCENTAGE LEFT:    83.049949999999995     
 writing into fort.88
      340001   1799999.9523162842      * PERCENTAGE LEFT:    82.999949999999998     
 writing into fort.88
      341001   1799999.9523162842      * PERCENTAGE LEFT:    82.949950000000001     
 writing into fort.88
      342001   1799999.9523162842      * PERCENTAGE LEFT:    82.899950000000004     
 writing into fort.88
      343001   1799999.9523162842      * PERCENTAGE LEFT:    82.849950000000007     
 writing into fort.88
      344001   1799999.9523162842      * PERCENTAGE LEFT:    82.799949999999995     
 writing into fort.88
      345001   1799999.9523162842      * PERCENTAGE LEFT:    82.749950000000013     
 writing into fort.88
      346001   1799999.9523162842      * PERCENTAGE LEFT:    82.699950000000001     
 writing into fort.88
      347001   1799999.9523162842      * PERCENTAGE LEFT:    82.649950000000004     
 writing into fort.88
      348001   1799999.9523162842      * PERCENTAGE LEFT:    82.599950000000007     
 writing into fort.88
      349001   1799999.9523162842      * PERCENTAGE LEFT:    82.549950000000010     
 writing into fort.88
      350001   1799999.9523162842      * PERCENTAGE LEFT:    82.499949999999998     
 writing into fort.88
      351001   1799999.9523162842      * PERCENTAGE LEFT:    82.449950000000001     
 writing into fort.97, fort.98
 writing into fort.97, fort.98
 writing into fort.97, fort.98
 writing into fort.97, fort.98
 writing into fort.97, fort.98
 writing into fort.88
      352001   1799999.9523162842      * PERCENTAGE LEFT:    82.399950000000004     
 writing into fort.97, fort.98
 writing into fort.97, fort.98
 writing into fort.97, fort.98
 writing into fort.97, fort.98
 writing into fort.97, fort.98
 writing into fort.88
      353001   1799999.9523162842      * PERCENTAGE LEFT:    82.349950000000007     
 writing into fort.97, fort.98
 writing into fort.97, fort.98
 writing into fort.97, fort.98
 writing into fort.97, fort.98
 writing into fort.97, fort.98
 writing into fort.88
      354001   1799999.9523162842      * PERCENTAGE LEFT:    82.299949999999995     
 writing into fort.97, fort.98
 writing into fort.97, fort.98
 writing into fort.97, fort.98
 writing into fort.97, fort.98
 writing into fort.97, fort.98
 writing into fort.88
      355001   1799999.9523162842      * PERCENTAGE LEFT:    82.249949999999998     
 writing into fort.97, fort.98
 writing into fort.97, fort.98
 writing into fort.97, fort.98
 writing into fort.97, fort.98
 writing into fort.97, fort.98
 writing into fort.88
      356001   1799999.9523162842      * PERCENTAGE LEFT:    82.199950000000001     
 writing into fort.97, fort.98
 writing into fort.97, fort.98
 writing into fort.97, fort.98
 writing into fort.97, fort.98
 writing into fort.97, fort.98
 writing into fort.88
      357001   1799999.9523162842      * PERCENTAGE LEFT:    82.149950000000004     
 writing into fort.97, fort.98
 writing into fort.97, fort.98
 writing into fort.97, fort.98
 writing into fort.97, fort.98
 writing into fort.97, fort.98
 writing into fort.88
      358001   1799999.9523162842      * PERCENTAGE LEFT:    82.099949999999993     
 writing into fort.97, fort.98
 writing into fort.97, fort.98
 writing into fort.97, fort.98
 writing into fort.97, fort.98
 writing into fort.97, fort.98
 writing into fort.88
      359001   1799999.9523162842      * PERCENTAGE LEFT:    82.049950000000010     
 writing into fort.97, fort.98
 writing into fort.97, fort.98
 writing into fort.97, fort.98
 writing into fort.97, fort.98
 writing into fort.97, fort.98
 writing into fort.88
      360001   1799999.9523162842      * PERCENTAGE LEFT:    81.999949999999998     
 writing into fort.97, fort.98
 writing into fort.97, fort.98
 writing into fort.97, fort.98
 writing into fort.97, fort.98
 writing into fort.97, fort.98
 writing into fort.88
      361001   1799999.9523162842      * PERCENTAGE LEFT:    81.949950000000001     
 writing into fort.97, fort.98
 writing into fort.97, fort.98
 writing into fort.97, fort.98
 writing into fort.97, fort.98
 writing into fort.97, fort.98
 writing into fort.88
      362001   1799999.9523162842      * PERCENTAGE LEFT:    81.899950000000004     
 writing into fort.97, fort.98
 writing into fort.97, fort.98
 writing into fort.97, fort.98
 writing into fort.97, fort.98
 writing into fort.97, fort.98
 writing into fort.88
      363001   1799999.9523162842      * PERCENTAGE LEFT:    81.849950000000007     
 writing into fort.97, fort.98
 writing into fort.97, fort.98
 writing into fort.97, fort.98
 writing into fort.97, fort.98
 writing into fort.97, fort.98
 writing into fort.88
      364001   1799999.9523162842      * PERCENTAGE LEFT:    81.799949999999995     
 writing into fort.97, fort.98
 writing into fort.97, fort.98
 writing into fort.97, fort.98
 writing into fort.97, fort.98
 writing into fort.97, fort.98
 writing into fort.88
      365001   1799999.9523162842      * PERCENTAGE LEFT:    81.749949999999998     
 writing into fort.97, fort.98
 writing into fort.97, fort.98
 writing into fort.97, fort.98
 writing into fort.97, fort.98
 writing into fort.97, fort.98
 writing into fort.88
      366001   1799999.9523162842      * PERCENTAGE LEFT:    81.699950000000001     
 writing into fort.97, fort.98
 writing into fort.97, fort.98
 writing into fort.97, fort.98
 writing into fort.97, fort.98
 writing into fort.97, fort.98
 writing into fort.88
      367001   1799999.9523162842      * PERCENTAGE LEFT:    81.649950000000004     
 writing into fort.97, fort.98
 writing into fort.97, fort.98
 writing into fort.97, fort.98
 writing into fort.97, fort.98
 writing into fort.97, fort.98
 writing into fort.88
      368001   1799999.9523162842      * PERCENTAGE LEFT:    81.599949999999993     
 writing into fort.97, fort.98
 writing into fort.97, fort.98
 writing into fort.97, fort.98
 writing into fort.97, fort.98
 writing into fort.97, fort.98
 writing into fort.88
      369001   1799999.9523162842      * PERCENTAGE LEFT:    81.549950000000010     
 writing into fort.97, fort.98
 writing into fort.97, fort.98
 writing into fort.97, fort.98
 writing into fort.97, fort.98
 writing into fort.97, fort.98
 writing into fort.88
      370001   1799999.9523162842      * PERCENTAGE LEFT:    81.499949999999998     
 writing into fort.97, fort.98
 writing into fort.97, fort.98
 writing into fort.97, fort.98
 writing into fort.97, fort.98
 writing into fort.97, fort.98
 writing into fort.88
      371001   1799999.9523162842      * PERCENTAGE LEFT:    81.449950000000001     
 writing into fort.97, fort.98
 writing into fort.97, fort.98
 writing into fort.97, fort.98
 writing into fort.97, fort.98
 writing into fort.97, fort.98
 writing into fort.88
      372001   1799999.9523162842      * PERCENTAGE LEFT:    81.399950000000004     
 writing into fort.97, fort.98
 writing into fort.97, fort.98
 writing into fort.97, fort.98
 writing into fort.97, fort.98
 writing into fort.97, fort.98
 writing into fort.88
      373001   1799999.9523162842      * PERCENTAGE LEFT:    81.349950000000007     
 writing into fort.97, fort.98
 writing into fort.97, fort.98
 writing into fort.97, fort.98
 writing into fort.97, fort.98
 writing into fort.97, fort.98
 writing into fort.88
      374001   1799999.9523162842      * PERCENTAGE LEFT:    81.299949999999995     
 writing into fort.97, fort.98
 writing into fort.97, fort.98
 writing into fort.97, fort.98
 writing into fort.97, fort.98
 writing into fort.97, fort.98
 writing into fort.88
      375001   1799999.9523162842      * PERCENTAGE LEFT:    81.249949999999998     
 writing into fort.97, fort.98
 writing into fort.97, fort.98
 writing into fort.97, fort.98
 writing into fort.97, fort.98
 writing into fort.97, fort.98
 writing into fort.88
      376001   1799999.9523162842      * PERCENTAGE LEFT:    81.199950000000001     
 writing into fort.97, fort.98
 writing into fort.97, fort.98
 writing into fort.97, fort.98
 writing into fort.97, fort.98
 writing into fort.97, fort.98
 writing into fort.88
      377001   1799999.9523162842      * PERCENTAGE LEFT:    81.149950000000004     
 writing into fort.97, fort.98
 writing into fort.97, fort.98
 writing into fort.97, fort.98
 writing into fort.97, fort.98
 writing into fort.97, fort.98
 writing into fort.88
      378001   1799999.9523162842      * PERCENTAGE LEFT:    81.099949999999993     
 writing into fort.97, fort.98
 writing into fort.97, fort.98
 writing into fort.97, fort.98
 writing into fort.97, fort.98
 writing into fort.97, fort.98
 writing into fort.88
      379001   1799999.9523162842      * PERCENTAGE LEFT:    81.049950000000010     
 writing into fort.97, fort.98
 writing into fort.97, fort.98
 writing into fort.97, fort.98
 writing into fort.97, fort.98
 writing into fort.97, fort.98
 writing into fort.88
      380001   1799999.9523162842      * PERCENTAGE LEFT:    80.999949999999998     
 writing into fort.97, fort.98
 writing into fort.97, fort.98
 writing into fort.97, fort.98
 writing into fort.97, fort.98
 writing into fort.97, fort.98
 writing into fort.88
      381001   1799999.9523162842      * PERCENTAGE LEFT:    80.949950000000001     
 writing into fort.97, fort.98
 writing into fort.97, fort.98
 writing into fort.97, fort.98
 writing into fort.97, fort.98
 writing into fort.97, fort.98
 writing into fort.88
      382001   1799999.9523162842      * PERCENTAGE LEFT:    80.899950000000004     
 writing into fort.97, fort.98
 writing into fort.97, fort.98
 writing into fort.97, fort.98
 writing into fort.97, fort.98
 writing into fort.97, fort.98
 writing into fort.88
      383001   1799999.9523162842      * PERCENTAGE LEFT:    80.849950000000007     
 writing into fort.97, fort.98
 writing into fort.97, fort.98
 writing into fort.97, fort.98
 writing into fort.97, fort.98
 writing into fort.97, fort.98
 writing into fort.88
      384001   1799999.9523162842      * PERCENTAGE LEFT:    80.799949999999995     
 writing into fort.97, fort.98
 writing into fort.97, fort.98
 writing into fort.97, fort.98
 writing into fort.97, fort.98
 writing into fort.97, fort.98
 writing into fort.88
      385001   1799999.9523162842      * PERCENTAGE LEFT:    80.749949999999998     
 writing into fort.97, fort.98
 writing into fort.97, fort.98
 writing into fort.97, fort.98
 writing into fort.97, fort.98
 writing into fort.97, fort.98
 writing into fort.88
      386001   1799999.9523162842      * PERCENTAGE LEFT:    80.699950000000001     
 writing into fort.97, fort.98
 writing into fort.97, fort.98
 writing into fort.97, fort.98
 writing into fort.97, fort.98
 writing into fort.97, fort.98
 writing into fort.88
      387001   1799999.9523162842      * PERCENTAGE LEFT:    80.649950000000004     
 writing into fort.97, fort.98
 writing into fort.97, fort.98
 writing into fort.97, fort.98
 writing into fort.97, fort.98
 writing into fort.97, fort.98
 writing into fort.88
      388001   1799999.9523162842      * PERCENTAGE LEFT:    80.599949999999993     
 writing into fort.97, fort.98
 writing into fort.97, fort.98
 writing into fort.97, fort.98
 writing into fort.97, fort.98
 writing into fort.97, fort.98
 writing into fort.88
      389001   1799999.9523162842      * PERCENTAGE LEFT:    80.549950000000010     
 writing into fort.97, fort.98
 writing into fort.97, fort.98
 writing into fort.97, fort.98
 writing into fort.97, fort.98
 writing into fort.97, fort.98
 writing into fort.88
      390001   1799999.9523162842      * PERCENTAGE LEFT:    80.499949999999998     
 writing into fort.97, fort.98
 TIME=    39.000000000171134       FTIME=    39.000000000000000      TIME>FTIME, STOP            1
 rejected steps:            0
 Successful steps:            1
 writing into fort.81, 82, 83
Warning: no access to tty (Bad file descriptor).
Thus no job control in this shell.
gcc(25):ERROR:105: Unable to locate a modulefile for 'gcc/4.8.1'
