GFORTRAN module version '0' created from sf.f90 on Sat May  7 21:17:12 2016
MD5:d363818ac70718d2b794bbde6ed9c913 -- If you edit this, you'll get what you deserve.

(() () () () () () () () () ()
() () () () () () () () () () () () () () () () ())

()

()

()

()

(2 '__convert_i4_r4' '(intrinsic)' '__convert_i4_r4' 1 ((PROCEDURE
UNKNOWN-INTENT UNKNOWN-PROC UNKNOWN UNKNOWN FUNCTION ELEMENTAL PURE) (
REAL 4 0 0 REAL ()) 0 0 () () 0 () () () 0 0)
3 '__convert_i4_r8' '(intrinsic)' '__convert_i4_r8' 1 ((PROCEDURE
UNKNOWN-INTENT UNKNOWN-PROC UNKNOWN UNKNOWN FUNCTION ELEMENTAL PURE) (
REAL 8 0 0 REAL ()) 0 0 () () 0 () () () 0 0)
4 '__convert_r4_r8' '(intrinsic)' '__convert_r4_r8' 1 ((PROCEDURE
UNKNOWN-INTENT UNKNOWN-PROC UNKNOWN UNKNOWN FUNCTION ELEMENTAL PURE) (
REAL 8 0 0 REAL ()) 0 0 () () 0 () () () 0 0)
5 '__convert_r8_r4' '(intrinsic)' '__convert_r8_r4' 1 ((PROCEDURE
UNKNOWN-INTENT UNKNOWN-PROC UNKNOWN UNKNOWN FUNCTION ELEMENTAL PURE) (
REAL 4 0 0 REAL ()) 0 0 () () 0 () () () 0 0)
6 'acp' 'acp' 'acp' 1 ((MODULE UNKNOWN-INTENT UNKNOWN-PROC UNKNOWN
UNKNOWN) (UNKNOWN 0 0 0 UNKNOWN ()) 0 0 () () 0 () () () 0 0)
7 'd1x' 'lcp_2d' 'd1x' 1 ((VARIABLE UNKNOWN-INTENT UNKNOWN-PROC UNKNOWN
UNKNOWN DIMENSION) (REAL 8 0 0 REAL ()) 0 0 () (2 EXPLICIT (CONSTANT (
INTEGER 4 0 0 INTEGER ()) 0 '1') (CONSTANT (INTEGER 4 0 0 INTEGER ()) 0
'128') (CONSTANT (INTEGER 4 0 0 INTEGER ()) 0 '1') (CONSTANT (INTEGER 4
0 0 INTEGER ()) 0 '121')) 0 () () () 0 0)
8 'd1y' 'lcp_2d' 'd1y' 1 ((VARIABLE UNKNOWN-INTENT UNKNOWN-PROC UNKNOWN
UNKNOWN DIMENSION) (REAL 8 0 0 REAL ()) 0 0 () (2 EXPLICIT (CONSTANT (
INTEGER 4 0 0 INTEGER ()) 0 '1') (CONSTANT (INTEGER 4 0 0 INTEGER ()) 0
'128') (CONSTANT (INTEGER 4 0 0 INTEGER ()) 0 '1') (CONSTANT (INTEGER 4
0 0 INTEGER ()) 0 '121')) 0 () () () 0 0)
9 'd2u' 'lcp_2d' 'd2u' 1 ((VARIABLE UNKNOWN-INTENT UNKNOWN-PROC UNKNOWN
UNKNOWN DIMENSION) (REAL 8 0 0 REAL ()) 0 0 () (2 EXPLICIT (CONSTANT (
INTEGER 4 0 0 INTEGER ()) 0 '1') (CONSTANT (INTEGER 4 0 0 INTEGER ()) 0
'128') (CONSTANT (INTEGER 4 0 0 INTEGER ()) 0 '1') (CONSTANT (INTEGER 4
0 0 INTEGER ()) 0 '121')) 0 () () () 0 0)
10 'd2x' 'lcp_2d' 'd2x' 1 ((VARIABLE UNKNOWN-INTENT UNKNOWN-PROC UNKNOWN
UNKNOWN DIMENSION) (REAL 8 0 0 REAL ()) 0 0 () (2 EXPLICIT (CONSTANT (
INTEGER 4 0 0 INTEGER ()) 0 '1') (CONSTANT (INTEGER 4 0 0 INTEGER ()) 0
'128') (CONSTANT (INTEGER 4 0 0 INTEGER ()) 0 '1') (CONSTANT (INTEGER 4
0 0 INTEGER ()) 0 '121')) 0 () () () 0 0)
11 'd2y' 'lcp_2d' 'd2y' 1 ((VARIABLE UNKNOWN-INTENT UNKNOWN-PROC UNKNOWN
UNKNOWN DIMENSION) (REAL 8 0 0 REAL ()) 0 0 () (2 EXPLICIT (CONSTANT (
INTEGER 4 0 0 INTEGER ()) 0 '1') (CONSTANT (INTEGER 4 0 0 INTEGER ()) 0
'128') (CONSTANT (INTEGER 4 0 0 INTEGER ()) 0 '1') (CONSTANT (INTEGER 4
0 0 INTEGER ()) 0 '121')) 0 () () () 0 0)
12 'dagp' 'lcp_2d' 'dagp' 1 ((VARIABLE UNKNOWN-INTENT UNKNOWN-PROC
UNKNOWN UNKNOWN DIMENSION) (REAL 8 0 0 REAL ()) 0 0 () (2 EXPLICIT (
CONSTANT (INTEGER 4 0 0 INTEGER ()) 0 '1') (CONSTANT (INTEGER 4 0 0
INTEGER ()) 0 '128') (CONSTANT (INTEGER 4 0 0 INTEGER ()) 0 '1') (
CONSTANT (INTEGER 4 0 0 INTEGER ()) 0 '121')) 0 () () () 0 0)
13 'dble' '(intrinsic)' 'dble' 1 ((PROCEDURE UNKNOWN-INTENT UNKNOWN-PROC
UNKNOWN UNKNOWN FUNCTION) (REAL 4 0 0 REAL ()) 0 0 () () 13 () () () 0 0)
14 'dfdt' 'acp' 'dfdt' 1 ((PROCEDURE UNKNOWN-INTENT MODULE-PROC DECL
UNKNOWN SUBROUTINE ALWAYS_EXPLICIT) (UNKNOWN 0 0 0 UNKNOWN ()) 15 0 (16
17 18 19 20 21 22) () 0 () () () 0 0)
23 'dtaum' 'lcp_2d' 'dtaum' 1 ((PROCEDURE UNKNOWN-INTENT MODULE-PROC
DECL UNKNOWN SUBROUTINE ALWAYS_EXPLICIT) (UNKNOWN 0 0 0 UNKNOWN ()) 24 0
(25 26 27) () 0 () () () 0 0)
28 'dvds' 'lcp_2d' 'dvds' 1 ((VARIABLE UNKNOWN-INTENT UNKNOWN-PROC
UNKNOWN EXPLICIT-SAVE DIMENSION) (REAL 8 0 0 REAL ()) 0 0 () (3 EXPLICIT
(CONSTANT (INTEGER 4 0 0 INTEGER ()) 0 '1') (CONSTANT (INTEGER 4 0 0
INTEGER ()) 0 '128') (CONSTANT (INTEGER 4 0 0 INTEGER ()) 0 '1') (
CONSTANT (INTEGER 4 0 0 INTEGER ()) 0 '3') (CONSTANT (INTEGER 4 0 0
INTEGER ()) 0 '1') (CONSTANT (INTEGER 4 0 0 INTEGER ()) 0 '3')) 0 () ()
() 0 0)
29 'er' 'lcp_2d' 'er' 1 ((VARIABLE UNKNOWN-INTENT UNKNOWN-PROC UNKNOWN
EXPLICIT-SAVE) (REAL 4 0 0 REAL ()) 0 0 () () 0 () () () 0 0)
30 'f_para' 'lcp_2d' 'f_para' 1 ((VARIABLE UNKNOWN-INTENT UNKNOWN-PROC
UNKNOWN UNKNOWN) (INTEGER 4 0 0 INTEGER ()) 0 0 () () 0 () () () 0 0)
31 'flow_field' 'velocity' 'flow_field' 1 ((PROCEDURE UNKNOWN-INTENT
MODULE-PROC DECL UNKNOWN SUBROUTINE ALWAYS_EXPLICIT) (UNKNOWN 0 0 0
UNKNOWN ()) 32 0 (33 34) () 0 () () () 0 0)
35 'fourpin1' 'lcp_2d' 'fourpin1' 1 ((VARIABLE UNKNOWN-INTENT
UNKNOWN-PROC UNKNOWN UNKNOWN) (REAL 8 0 0 REAL ()) 0 0 () () 0 () () ()
0 0)
36 'fourpio3al' 'lcp_2d' 'fourpio3al' 1 ((VARIABLE UNKNOWN-INTENT
UNKNOWN-PROC UNKNOWN UNKNOWN) (REAL 8 0 0 REAL ()) 0 0 () () 0 () () ()
0 0)
37 'fourpio5n' 'lcp_2d' 'fourpio5n' 1 ((VARIABLE UNKNOWN-INTENT
UNKNOWN-PROC UNKNOWN UNKNOWN) (REAL 8 0 0 REAL ()) 0 0 () () 0 () () ()
0 0)
38 'ftg' 'acp' 'ftg' 1 ((PROCEDURE UNKNOWN-INTENT MODULE-PROC DECL
UNKNOWN SUBROUTINE) (UNKNOWN 0 0 0 UNKNOWN ()) 39 0 (40 41 42 43) () 0 ()
() () 0 0)
44 'ftgo' 'acp' 'ftgo' 1 ((PROCEDURE UNKNOWN-INTENT MODULE-PROC DECL
UNKNOWN SUBROUTINE ALWAYS_EXPLICIT) (UNKNOWN 0 0 0 UNKNOWN ()) 45 0 (46
47 48 49) () 0 () () () 0 0)
50 'ftuy' 'lcp_2d' 'ftuy' 1 ((VARIABLE UNKNOWN-INTENT UNKNOWN-PROC
UNKNOWN UNKNOWN DIMENSION) (REAL 8 0 0 REAL ()) 0 0 () (2 EXPLICIT (
CONSTANT (INTEGER 4 0 0 INTEGER ()) 0 '1') (CONSTANT (INTEGER 4 0 0
INTEGER ()) 0 '128') (CONSTANT (INTEGER 4 0 0 INTEGER ()) 0 '1') (
CONSTANT (INTEGER 4 0 0 INTEGER ()) 0 '121')) 0 () () () 0 0)
51 'fu3' 'lcp_2d' 'fu3' 1 ((VARIABLE UNKNOWN-INTENT UNKNOWN-PROC UNKNOWN
UNKNOWN DIMENSION) (REAL 8 0 0 REAL ()) 0 0 () (2 EXPLICIT (CONSTANT (
INTEGER 4 0 0 INTEGER ()) 0 '1') (CONSTANT (INTEGER 4 0 0 INTEGER ()) 0
'128') (CONSTANT (INTEGER 4 0 0 INTEGER ()) 0 '1') (CONSTANT (INTEGER 4
0 0 INTEGER ()) 0 '121')) 0 () () () 0 0)
52 'fv3' 'velocity' 'fv3' 1 ((VARIABLE UNKNOWN-INTENT UNKNOWN-PROC
UNKNOWN EXPLICIT-SAVE DIMENSION) (REAL 8 0 0 REAL ()) 0 0 () (2 EXPLICIT
(CONSTANT (INTEGER 4 0 0 INTEGER ()) 0 '1') (CONSTANT (INTEGER 4 0 0
INTEGER ()) 0 '128') (CONSTANT (INTEGER 4 0 0 INTEGER ()) 0 '1') (
CONSTANT (INTEGER 4 0 0 INTEGER ()) 0 '3')) 0 () () () 0 0)
53 'fv3a' 'velocity' 'fv3a' 1 ((VARIABLE UNKNOWN-INTENT UNKNOWN-PROC
UNKNOWN EXPLICIT-SAVE DIMENSION) (REAL 8 0 0 REAL ()) 0 0 () (2 EXPLICIT
(CONSTANT (INTEGER 4 0 0 INTEGER ()) 0 '1') (CONSTANT (INTEGER 4 0 0
INTEGER ()) 0 '128') (CONSTANT (INTEGER 4 0 0 INTEGER ()) 0 '1') (
CONSTANT (INTEGER 4 0 0 INTEGER ()) 0 '3')) 0 () () () 0 0)
54 'fv_11' 'lcp_2d' 'fv_11' 1 ((PROCEDURE UNKNOWN-INTENT MODULE-PROC
DECL UNKNOWN SUBROUTINE ALWAYS_EXPLICIT) (UNKNOWN 0 0 0 UNKNOWN ()) 55 0
(56 57 58 59) () 0 () () () 0 0)
60 'fvalue_1' 'lcp_2d' 'fvalue_1' 1 ((PROCEDURE UNKNOWN-INTENT
MODULE-PROC DECL UNKNOWN SUBROUTINE ALWAYS_EXPLICIT) (UNKNOWN 0 0 0
UNKNOWN ()) 61 0 (62 63 64) () 0 () () () 0 0)
65 'gradient_p' 'velocity' 'gradient_p' 1 ((PROCEDURE UNKNOWN-INTENT
MODULE-PROC DECL UNKNOWN SUBROUTINE) (UNKNOWN 0 0 0 UNKNOWN ()) 66 0 (
67) () 0 () () () 0 0)
68 'hy' 'lcp_2d' 'hy' 1 ((PARAMETER UNKNOWN-INTENT UNKNOWN-PROC UNKNOWN
IMPLICIT-SAVE) (REAL 8 0 0 REAL ()) 0 0 () (CONSTANT (REAL 8 0 0 REAL ())
0 '0.20000000000000@-1') () 0 () () () 0 0)
69 'im' 'acp' 'im' 1 ((PROCEDURE UNKNOWN-INTENT MODULE-PROC DECL UNKNOWN
FUNCTION) (REAL 8 0 0 REAL ()) 70 0 (71 72 73) () 69 () () () 0 0)
74 'kind' '(intrinsic)' 'kind' 1 ((PROCEDURE UNKNOWN-INTENT UNKNOWN-PROC
UNKNOWN UNKNOWN FUNCTION) (INTEGER 4 0 0 INTEGER ()) 0 0 () () 74 () ()
() 0 0)
75 'lcp_2d' 'lcp_2d' 'lcp_2d' 1 ((MODULE UNKNOWN-INTENT UNKNOWN-PROC
UNKNOWN UNKNOWN) (UNKNOWN 0 0 0 UNKNOWN ()) 0 0 () () 0 () () () 0 0)
76 'lmax' 'acp' 'lmax' 1 ((PARAMETER UNKNOWN-INTENT UNKNOWN-PROC UNKNOWN
IMPLICIT-SAVE) (INTEGER 4 0 0 INTEGER ()) 0 0 () (CONSTANT (INTEGER 4 0
0 INTEGER ()) 0 '10') () 0 () () () 0 0)
77 'lp' 'acp' 'lp' 1 ((PARAMETER UNKNOWN-INTENT UNKNOWN-PROC UNKNOWN
IMPLICIT-SAVE) (INTEGER 4 0 0 INTEGER ()) 0 0 () (CONSTANT (INTEGER 4 0
0 INTEGER ()) 0 '121') () 0 () () () 0 0)
78 'moments' 'lcp_2d' 'moments' 1 ((PROCEDURE UNKNOWN-INTENT MODULE-PROC
DECL UNKNOWN SUBROUTINE ALWAYS_EXPLICIT) (UNKNOWN 0 0 0 UNKNOWN ()) 79 0
(80) () 0 () () () 0 0)
81 'momentum' 'velocity' 'momentum' 1 ((PROCEDURE UNKNOWN-INTENT
MODULE-PROC DECL UNKNOWN SUBROUTINE ALWAYS_EXPLICIT) (UNKNOWN 0 0 0
UNKNOWN ()) 82 0 (83 84 85) () 0 () () () 0 0)
86 'momentum_ex' 'velocity' 'momentum_ex' 1 ((PROCEDURE UNKNOWN-INTENT
MODULE-PROC DECL UNKNOWN SUBROUTINE ALWAYS_EXPLICIT) (UNKNOWN 0 0 0
UNKNOWN ()) 87 0 (88 89 90) () 0 () () () 0 0)
91 'momentum_o' 'velocity' 'momentum_o' 1 ((PROCEDURE UNKNOWN-INTENT
MODULE-PROC DECL UNKNOWN SUBROUTINE ALWAYS_EXPLICIT) (UNKNOWN 0 0 0
UNKNOWN ()) 92 0 (93 94 95) () 0 () () () 0 0)
96 'n' 'lcp_2d' 'n' 1 ((PARAMETER UNKNOWN-INTENT UNKNOWN-PROC UNKNOWN
IMPLICIT-SAVE) (INTEGER 4 0 0 INTEGER ()) 0 0 () (CONSTANT (INTEGER 4 0
0 INTEGER ()) 0 '15488') () 0 () () () 0 0)
97 'n3' 'lcp_2d' 'n3' 1 ((PARAMETER UNKNOWN-INTENT UNKNOWN-PROC UNKNOWN
IMPLICIT-SAVE) (INTEGER 4 0 0 INTEGER ()) 0 0 () (CONSTANT (INTEGER 4 0
0 INTEGER ()) 0 '384') () 0 () () () 0 0)
98 'nv' 'lcp_2d' 'nv' 1 ((PARAMETER UNKNOWN-INTENT UNKNOWN-PROC UNKNOWN
IMPLICIT-SAVE) (INTEGER 4 0 0 INTEGER ()) 0 0 () (CONSTANT (INTEGER 4 0
0 INTEGER ()) 0 '121') () 0 () () () 0 0)
99 'ny' 'lcp_2d' 'ny' 1 ((PARAMETER UNKNOWN-INTENT UNKNOWN-PROC UNKNOWN
IMPLICIT-SAVE) (INTEGER 4 0 0 INTEGER ()) 0 0 () (CONSTANT (INTEGER 4 0
0 INTEGER ()) 0 '128') () 0 () () () 0 0)
100 'pd' 'lcp_2d' 'pd' 1 ((VARIABLE UNKNOWN-INTENT UNKNOWN-PROC UNKNOWN
EXPLICIT-SAVE) (REAL 4 0 0 REAL ()) 0 0 () () 0 () () () 0 0)
101 'pi' 'lcp_2d' 'pi' 1 ((VARIABLE UNKNOWN-INTENT UNKNOWN-PROC UNKNOWN
UNKNOWN) (REAL 8 0 0 REAL ()) 0 0 () () 0 () () () 0 0)
102 'pressure' 'velocity' 'pressure' 1 ((PROCEDURE UNKNOWN-INTENT
MODULE-PROC DECL UNKNOWN SUBROUTINE) (UNKNOWN 0 0 0 UNKNOWN ()) 103 0 (
104 105 106 107) () 0 () () () 0 0)
108 'pvalues' 'acp' 'pvalues' 1 ((PROCEDURE UNKNOWN-INTENT MODULE-PROC
DECL UNKNOWN SUBROUTINE) (UNKNOWN 0 0 0 UNKNOWN ()) 109 0 (110 111 112
113 114 115 116 117 118 119) () 0 () () () 0 0)
120 're' 'acp' 're' 1 ((PROCEDURE UNKNOWN-INTENT MODULE-PROC DECL
UNKNOWN FUNCTION) (REAL 8 0 0 REAL ()) 121 0 (122 123 124) () 120 () ()
() 0 0)
125 'read_3js' 'acp' 'read_3js' 1 ((PROCEDURE UNKNOWN-INTENT MODULE-PROC
DECL UNKNOWN SUBROUTINE) (UNKNOWN 0 0 0 UNKNOWN ()) 0 0 () () 0 () () ()
0 0)
126 'reshape' '(intrinsic)' 'reshape' 1 ((PROCEDURE UNKNOWN-INTENT
UNKNOWN-PROC UNKNOWN UNKNOWN FUNCTION) (REAL 4 0 0 REAL ()) 0 0 () ()
126 () () () 0 0)
127 'rftrg' 'acp' 'rftrg' 1 ((PROCEDURE UNKNOWN-INTENT MODULE-PROC DECL
UNKNOWN SUBROUTINE) (UNKNOWN 0 0 0 UNKNOWN ()) 128 0 (129 130 131 132) ()
0 () () () 0 0)
133 'set_ns_value' 'velocity' 'set_ns_value' 1 ((PROCEDURE
UNKNOWN-INTENT MODULE-PROC DECL UNKNOWN SUBROUTINE) (UNKNOWN 0 0 0
UNKNOWN ()) 134 0 (135 136) () 0 () () () 0 0)
137 'setanpe' 'lcp_2d' 'setanpe' 1 ((PROCEDURE UNKNOWN-INTENT
MODULE-PROC DECL UNKNOWN SUBROUTINE) (UNKNOWN 0 0 0 UNKNOWN ()) 138 0 (
139 140 141 142 143 144 145 146 147 148) () 0 () () () 0 0)
149 'single_taum' 'lcp_2d' 'single_taum' 1 ((PROCEDURE UNKNOWN-INTENT
MODULE-PROC DECL UNKNOWN SUBROUTINE ALWAYS_EXPLICIT) (UNKNOWN 0 0 0
UNKNOWN ()) 150 0 (151 152 153 154 155 156) () 0 () () () 0 0)
157 'single_tauv' 'lcp_2d' 'single_tauv' 1 ((PROCEDURE UNKNOWN-INTENT
MODULE-PROC DECL UNKNOWN SUBROUTINE ALWAYS_EXPLICIT) (UNKNOWN 0 0 0
UNKNOWN ()) 158 0 (159 160) () 0 () () () 0 0)
161 'smoluchowski' 'lcp_2d' 'smoluchowski' 1 ((PROCEDURE UNKNOWN-INTENT
MODULE-PROC DECL UNKNOWN SUBROUTINE ALWAYS_EXPLICIT) (UNKNOWN 0 0 0
UNKNOWN ()) 162 0 (163 164 165) () 0 () () () 0 0)
166 'taum_value' 'lcp_2d' 'taum_value' 1 ((PROCEDURE UNKNOWN-INTENT
MODULE-PROC DECL UNKNOWN SUBROUTINE ALWAYS_EXPLICIT) (UNKNOWN 0 0 0
UNKNOWN ()) 167 0 (168 169 170) () 0 () () () 0 0)
171 'u3' 'lcp_2d' 'u3' 1 ((VARIABLE UNKNOWN-INTENT UNKNOWN-PROC UNKNOWN
UNKNOWN DIMENSION) (REAL 8 0 0 REAL ()) 0 0 () (2 EXPLICIT (CONSTANT (
INTEGER 4 0 0 INTEGER ()) 0 '1') (CONSTANT (INTEGER 4 0 0 INTEGER ()) 0
'128') (CONSTANT (INTEGER 4 0 0 INTEGER ()) 0 '1') (CONSTANT (INTEGER 4
0 0 INTEGER ()) 0 '121')) 0 () () () 0 0)
172 'uay' 'lcp_2d' 'uay' 1 ((VARIABLE UNKNOWN-INTENT UNKNOWN-PROC
UNKNOWN UNKNOWN DIMENSION) (REAL 8 0 0 REAL ()) 0 0 () (2 EXPLICIT (
CONSTANT (INTEGER 4 0 0 INTEGER ()) 0 '1') (CONSTANT (INTEGER 4 0 0
INTEGER ()) 0 '128') (CONSTANT (INTEGER 4 0 0 INTEGER ()) 0 '1') (
CONSTANT (INTEGER 4 0 0 INTEGER ()) 0 '121')) 0 () () () 0 0)
173 'ubv' 'lcp_2d' 'ubv' 1 ((VARIABLE UNKNOWN-INTENT UNKNOWN-PROC
UNKNOWN UNKNOWN DIMENSION) (REAL 8 0 0 REAL ()) 0 0 () (1 EXPLICIT (
CONSTANT (INTEGER 4 0 0 INTEGER ()) 0 '1') (CONSTANT (INTEGER 4 0 0
INTEGER ()) 0 '121')) 0 () () () 0 0)
174 'v3' 'lcp_2d' 'v3' 1 ((VARIABLE UNKNOWN-INTENT UNKNOWN-PROC UNKNOWN
UNKNOWN DIMENSION) (REAL 8 0 0 REAL ()) 0 0 () (2 EXPLICIT (CONSTANT (
INTEGER 4 0 0 INTEGER ()) 0 '1') (CONSTANT (INTEGER 4 0 0 INTEGER ()) 0
'128') (CONSTANT (INTEGER 4 0 0 INTEGER ()) 0 '1') (CONSTANT (INTEGER 4
0 0 INTEGER ()) 0 '3')) 0 () () () 0 0)
175 'velocity' 'velocity' 'velocity' 1 ((MODULE UNKNOWN-INTENT
UNKNOWN-PROC UNKNOWN UNKNOWN) (UNKNOWN 0 0 0 UNKNOWN ()) 0 0 () () 0 ()
() () 0 0)
176 'ys' 'lcp_2d' 'ys' 1 ((VARIABLE UNKNOWN-INTENT UNKNOWN-PROC UNKNOWN
UNKNOWN DIMENSION) (REAL 8 0 0 REAL ()) 0 0 () (1 EXPLICIT (CONSTANT (
INTEGER 4 0 0 INTEGER ()) 0 '0') (CONSTANT (INTEGER 4 0 0 INTEGER ()) 0
'128')) 0 () () () 0 0)
17 'd1aix' '' 'd1aix' 15 ((VARIABLE UNKNOWN-INTENT UNKNOWN-PROC UNKNOWN
UNKNOWN DIMENSION DUMMY) (REAL 8 0 0 REAL ()) 0 0 () (1 ASSUMED_SHAPE (
CONSTANT (INTEGER 4 0 0 INTEGER ()) 0 '1') ()) 0 () () () 0 0)
16 'ai' '' 'ai' 15 ((VARIABLE UNKNOWN-INTENT UNKNOWN-PROC UNKNOWN
UNKNOWN DIMENSION DUMMY) (REAL 8 0 0 REAL ()) 0 0 () (1 ASSUMED_SHAPE (
CONSTANT (INTEGER 4 0 0 INTEGER ()) 0 '1') ()) 0 () () () 0 0)
19 'd1aiy' '' 'd1aiy' 15 ((VARIABLE UNKNOWN-INTENT UNKNOWN-PROC UNKNOWN
UNKNOWN DIMENSION DUMMY) (REAL 8 0 0 REAL ()) 0 0 () (1 ASSUMED_SHAPE (
CONSTANT (INTEGER 4 0 0 INTEGER ()) 0 '1') ()) 0 () () () 0 0)
20 'd2aiy' '' 'd2aiy' 15 ((VARIABLE UNKNOWN-INTENT UNKNOWN-PROC UNKNOWN
UNKNOWN DIMENSION DUMMY) (REAL 8 0 0 REAL ()) 0 0 () (1 ASSUMED_SHAPE (
CONSTANT (INTEGER 4 0 0 INTEGER ()) 0 '1') ()) 0 () () () 0 0)
18 'd2aix' '' 'd2aix' 15 ((VARIABLE UNKNOWN-INTENT UNKNOWN-PROC UNKNOWN
UNKNOWN DIMENSION DUMMY) (REAL 8 0 0 REAL ()) 0 0 () (1 ASSUMED_SHAPE (
CONSTANT (INTEGER 4 0 0 INTEGER ()) 0 '1') ()) 0 () () () 0 0)
22 'fv' '' 'fv' 15 ((VARIABLE UNKNOWN-INTENT UNKNOWN-PROC UNKNOWN
UNKNOWN DIMENSION DUMMY) (REAL 8 0 0 REAL ()) 0 0 () (1 ASSUMED_SHAPE (
CONSTANT (INTEGER 4 0 0 INTEGER ()) 0 '1') ()) 0 () () () 0 0)
21 'dv' '' 'dv' 15 ((VARIABLE UNKNOWN-INTENT UNKNOWN-PROC UNKNOWN
UNKNOWN DIMENSION DUMMY) (REAL 8 0 0 REAL ()) 0 0 () (2 EXPLICIT (
CONSTANT (INTEGER 4 0 0 INTEGER ()) 0 '1') (CONSTANT (INTEGER 4 0 0
INTEGER ()) 0 '3') (CONSTANT (INTEGER 4 0 0 INTEGER ()) 0 '1') (
CONSTANT (INTEGER 4 0 0 INTEGER ()) 0 '3')) 0 () () () 0 0)
43 'd' '' 'd' 39 ((VARIABLE UNKNOWN-INTENT UNKNOWN-PROC UNKNOWN UNKNOWN
DIMENSION DUMMY) (REAL 8 0 0 REAL ()) 0 0 () (2 EXPLICIT (CONSTANT (
INTEGER 4 0 0 INTEGER ()) 0 '0') (CONSTANT (INTEGER 4 0 0 INTEGER ()) 0
'10') (CONSTANT (INTEGER 4 0 0 INTEGER ()) 0 '-10') (CONSTANT (INTEGER 4
0 0 INTEGER ()) 0 '10')) 0 () () () 0 0)
47 'a' '' 'a' 45 ((VARIABLE UNKNOWN-INTENT UNKNOWN-PROC UNKNOWN UNKNOWN
DIMENSION DUMMY) (REAL 8 0 0 REAL ()) 0 0 () (1 ASSUMED_SHAPE (CONSTANT
(INTEGER 4 0 0 INTEGER ()) 0 '1') ()) 0 () () () 0 0)
48 'ax' '' 'ax' 45 ((VARIABLE UNKNOWN-INTENT UNKNOWN-PROC UNKNOWN
UNKNOWN DIMENSION DUMMY) (REAL 8 0 0 REAL ()) 0 0 () (1 ASSUMED_SHAPE (
CONSTANT (INTEGER 4 0 0 INTEGER ()) 0 '1') ()) 0 () () () 0 0)
73 'm' '' 'm' 70 ((VARIABLE UNKNOWN-INTENT UNKNOWN-PROC UNKNOWN UNKNOWN
DUMMY) (INTEGER 4 0 0 INTEGER ()) 0 0 () () 0 () () () 0 0)
110 'ppn1' '' 'ppn1' 109 ((VARIABLE UNKNOWN-INTENT UNKNOWN-PROC UNKNOWN
UNKNOWN DUMMY) (REAL 8 0 0 REAL ()) 0 0 () () 0 () () () 0 0)
72 'l' '' 'l' 70 ((VARIABLE UNKNOWN-INTENT UNKNOWN-PROC UNKNOWN UNKNOWN
DUMMY) (INTEGER 4 0 0 INTEGER ()) 0 0 () () 0 () () () 0 0)
49 'fv' '' 'fv' 45 ((VARIABLE UNKNOWN-INTENT UNKNOWN-PROC UNKNOWN
UNKNOWN DIMENSION DUMMY) (REAL 8 0 0 REAL ()) 0 0 () (1 ASSUMED_SHAPE (
CONSTANT (INTEGER 4 0 0 INTEGER ()) 0 '1') ()) 0 () () () 0 0)
112 'ppn2' '' 'ppn2' 109 ((VARIABLE UNKNOWN-INTENT UNKNOWN-PROC UNKNOWN
UNKNOWN DUMMY) (REAL 8 0 0 REAL ()) 0 0 () () 0 () () () 0 0)
114 'ppds' '' 'ppds' 109 ((VARIABLE UNKNOWN-INTENT UNKNOWN-PROC UNKNOWN
UNKNOWN DUMMY) (REAL 8 0 0 REAL ()) 0 0 () () 0 () () () 0 0)
115 'ppde' '' 'ppde' 109 ((VARIABLE UNKNOWN-INTENT UNKNOWN-PROC UNKNOWN
UNKNOWN DUMMY) (REAL 8 0 0 REAL ()) 0 0 () () 0 () () () 0 0)
113 'ppu0' '' 'ppu0' 109 ((VARIABLE UNKNOWN-INTENT UNKNOWN-PROC UNKNOWN
UNKNOWN DUMMY) (REAL 8 0 0 REAL ()) 0 0 () () 0 () () () 0 0)
116 'ppa' '' 'ppa' 109 ((VARIABLE UNKNOWN-INTENT UNKNOWN-PROC UNKNOWN
UNKNOWN DUMMY) (REAL 8 0 0 REAL ()) 0 0 () () 0 () () () 0 0)
111 'ppal' '' 'ppal' 109 ((VARIABLE UNKNOWN-INTENT UNKNOWN-PROC UNKNOWN
UNKNOWN DUMMY) (REAL 8 0 0 REAL ()) 0 0 () () 0 () () () 0 0)
119 'pf' '' 'pf' 109 ((VARIABLE UNKNOWN-INTENT UNKNOWN-PROC UNKNOWN
UNKNOWN DUMMY) (REAL 8 0 0 REAL ()) 0 0 () () 0 () () () 0 0)
118 'ct2' '' 'ct2' 109 ((VARIABLE UNKNOWN-INTENT UNKNOWN-PROC UNKNOWN
UNKNOWN DUMMY) (REAL 8 0 0 REAL ()) 0 0 () () 0 () () () 0 0)
124 'm' '' 'm' 121 ((VARIABLE UNKNOWN-INTENT UNKNOWN-PROC UNKNOWN
UNKNOWN DUMMY) (INTEGER 4 0 0 INTEGER ()) 0 0 () () 0 () () () 0 0)
123 'l' '' 'l' 121 ((VARIABLE UNKNOWN-INTENT UNKNOWN-PROC UNKNOWN
UNKNOWN DUMMY) (INTEGER 4 0 0 INTEGER ()) 0 0 () () 0 () () () 0 0)
117 'co2' '' 'co2' 109 ((VARIABLE UNKNOWN-INTENT UNKNOWN-PROC UNKNOWN
UNKNOWN DUMMY) (REAL 8 0 0 REAL ()) 0 0 () () 0 () () () 0 0)
132 'c' '' 'c' 128 ((VARIABLE UNKNOWN-INTENT UNKNOWN-PROC UNKNOWN
UNKNOWN DIMENSION DUMMY) (REAL 8 0 0 REAL ()) 0 0 () (2 EXPLICIT (
CONSTANT (INTEGER 4 0 0 INTEGER ()) 0 '0') (CONSTANT (INTEGER 4 0 0
INTEGER ()) 0 '10') (CONSTANT (INTEGER 4 0 0 INTEGER ()) 0 '-10') (
CONSTANT (INTEGER 4 0 0 INTEGER ()) 0 '10')) 0 () () () 0 0)
131 'd' '' 'd' 128 ((VARIABLE UNKNOWN-INTENT UNKNOWN-PROC UNKNOWN
UNKNOWN DIMENSION DUMMY) (REAL 8 0 0 REAL ()) 0 0 () (2 EXPLICIT (
CONSTANT (INTEGER 4 0 0 INTEGER ()) 0 '0') (CONSTANT (INTEGER 4 0 0
INTEGER ()) 0 '10') (CONSTANT (INTEGER 4 0 0 INTEGER ()) 0 '-10') (
CONSTANT (INTEGER 4 0 0 INTEGER ()) 0 '10')) 0 () () () 0 0)
46 'jm' '' 'jm' 45 ((VARIABLE UNKNOWN-INTENT UNKNOWN-PROC UNKNOWN
UNKNOWN DUMMY) (INTEGER 4 0 0 INTEGER ()) 0 0 () () 0 () () () 0 0)
41 'c' '' 'c' 39 ((VARIABLE UNKNOWN-INTENT UNKNOWN-PROC UNKNOWN UNKNOWN
DIMENSION DUMMY) (REAL 8 0 0 REAL ()) 0 0 () (2 EXPLICIT (CONSTANT (
INTEGER 4 0 0 INTEGER ()) 0 '0') (CONSTANT (INTEGER 4 0 0 INTEGER ()) 0
'10') (CONSTANT (INTEGER 4 0 0 INTEGER ()) 0 '-10') (CONSTANT (INTEGER 4
0 0 INTEGER ()) 0 '10')) 0 () () () 0 0)
42 'b' '' 'b' 39 ((VARIABLE UNKNOWN-INTENT UNKNOWN-PROC UNKNOWN UNKNOWN
DIMENSION DUMMY) (REAL 8 0 0 REAL ()) 0 0 () (2 EXPLICIT (CONSTANT (
INTEGER 4 0 0 INTEGER ()) 0 '0') (CONSTANT (INTEGER 4 0 0 INTEGER ()) 0
'10') (CONSTANT (INTEGER 4 0 0 INTEGER ()) 0 '-10') (CONSTANT (INTEGER 4
0 0 INTEGER ()) 0 '10')) 0 () () () 0 0)
40 'jm' '' 'jm' 39 ((VARIABLE UNKNOWN-INTENT UNKNOWN-PROC UNKNOWN
UNKNOWN DUMMY) (INTEGER 4 0 0 INTEGER ()) 0 0 () () 0 () () () 0 0)
71 'a' '' 'a' 70 ((VARIABLE UNKNOWN-INTENT UNKNOWN-PROC UNKNOWN UNKNOWN
DIMENSION DUMMY) (REAL 8 0 0 REAL ()) 0 0 () (2 EXPLICIT (CONSTANT (
INTEGER 4 0 0 INTEGER ()) 0 '0') (CONSTANT (INTEGER 4 0 0 INTEGER ()) 0
'10') (CONSTANT (INTEGER 4 0 0 INTEGER ()) 0 '-10') (CONSTANT (INTEGER 4
0 0 INTEGER ()) 0 '10')) 0 () () () 0 0)
122 'a' '' 'a' 121 ((VARIABLE UNKNOWN-INTENT UNKNOWN-PROC UNKNOWN
UNKNOWN DIMENSION DUMMY) (REAL 8 0 0 REAL ()) 0 0 () (2 EXPLICIT (
CONSTANT (INTEGER 4 0 0 INTEGER ()) 0 '0') (CONSTANT (INTEGER 4 0 0
INTEGER ()) 0 '10') (CONSTANT (INTEGER 4 0 0 INTEGER ()) 0 '-10') (
CONSTANT (INTEGER 4 0 0 INTEGER ()) 0 '10')) 0 () () () 0 0)
130 'a' '' 'a' 128 ((VARIABLE UNKNOWN-INTENT UNKNOWN-PROC UNKNOWN
UNKNOWN DIMENSION DUMMY) (REAL 8 0 0 REAL ()) 0 0 () (2 EXPLICIT (
CONSTANT (INTEGER 4 0 0 INTEGER ()) 0 '0') (CONSTANT (INTEGER 4 0 0
INTEGER ()) 0 '10') (CONSTANT (INTEGER 4 0 0 INTEGER ()) 0 '-10') (
CONSTANT (INTEGER 4 0 0 INTEGER ()) 0 '10')) 0 () () () 0 0)
129 'jm' '' 'jm' 128 ((VARIABLE UNKNOWN-INTENT UNKNOWN-PROC UNKNOWN
UNKNOWN DUMMY) (INTEGER 4 0 0 INTEGER ()) 0 0 () () 0 () () () 0 0)
34 'dvds' '' 'dvds' 32 ((VARIABLE UNKNOWN-INTENT UNKNOWN-PROC UNKNOWN
UNKNOWN DIMENSION DUMMY) (REAL 8 0 0 REAL ()) 0 0 () (3 ASSUMED_SHAPE (
CONSTANT (INTEGER 4 0 0 INTEGER ()) 0 '1') () (CONSTANT (INTEGER 4 0 0
INTEGER ()) 0 '1') () (CONSTANT (INTEGER 4 0 0 INTEGER ()) 0 '1') ()) 0
() () () 0 0)
67 'p' '' 'p' 66 ((VARIABLE UNKNOWN-INTENT UNKNOWN-PROC UNKNOWN UNKNOWN
DIMENSION DUMMY) (REAL 8 0 0 REAL ()) 0 0 () (1 EXPLICIT (CONSTANT (
INTEGER 4 0 0 INTEGER ()) 0 '1') (CONSTANT (INTEGER 4 0 0 INTEGER ()) 0
'128')) 0 () () () 0 0)
89 't' '' 't' 87 ((VARIABLE UNKNOWN-INTENT UNKNOWN-PROC UNKNOWN UNKNOWN
DUMMY) (REAL 8 0 0 REAL ()) 0 0 () () 0 () () () 0 0)
88 'u' '' 'u' 87 ((VARIABLE IN UNKNOWN-PROC UNKNOWN UNKNOWN DIMENSION
DUMMY) (REAL 8 0 0 REAL ()) 0 0 () (1 ASSUMED_SHAPE (CONSTANT (INTEGER 4
0 0 INTEGER ()) 0 '1') ()) 0 () () () 0 0)
90 'f' '' 'f' 87 ((VARIABLE OUT UNKNOWN-PROC UNKNOWN UNKNOWN DIMENSION
DUMMY) (REAL 8 0 0 REAL ()) 0 0 () (1 ASSUMED_SHAPE (CONSTANT (INTEGER 4
0 0 INTEGER ()) 0 '1') ()) 0 () () () 0 0)
85 'f' '' 'f' 82 ((VARIABLE OUT UNKNOWN-PROC UNKNOWN UNKNOWN DIMENSION
DUMMY) (REAL 8 0 0 REAL ()) 0 0 () (1 ASSUMED_SHAPE (CONSTANT (INTEGER 4
0 0 INTEGER ()) 0 '1') ()) 0 () () () 0 0)
95 'f' '' 'f' 92 ((VARIABLE OUT UNKNOWN-PROC UNKNOWN UNKNOWN DIMENSION
DUMMY) (REAL 8 0 0 REAL ()) 0 0 () (1 ASSUMED_SHAPE (CONSTANT (INTEGER 4
0 0 INTEGER ()) 0 '1') ()) 0 () () () 0 0)
94 't' '' 't' 92 ((VARIABLE UNKNOWN-INTENT UNKNOWN-PROC UNKNOWN UNKNOWN
DUMMY) (REAL 8 0 0 REAL ()) 0 0 () () 0 () () () 0 0)
107 'time' '' 'time' 103 ((VARIABLE UNKNOWN-INTENT UNKNOWN-PROC UNKNOWN
UNKNOWN DUMMY) (REAL 8 0 0 REAL ()) 0 0 () () 0 () () () 0 0)
106 'tau' '' 'tau' 103 ((VARIABLE UNKNOWN-INTENT UNKNOWN-PROC UNKNOWN
UNKNOWN DIMENSION DUMMY) (REAL 8 0 0 REAL ()) 0 0 () (3 EXPLICIT (
CONSTANT (INTEGER 4 0 0 INTEGER ()) 0 '1') (CONSTANT (INTEGER 4 0 0
INTEGER ()) 0 '3') (CONSTANT (INTEGER 4 0 0 INTEGER ()) 0 '1') (
CONSTANT (INTEGER 4 0 0 INTEGER ()) 0 '3') (CONSTANT (INTEGER 4 0 0
INTEGER ()) 0 '1') (CONSTANT (INTEGER 4 0 0 INTEGER ()) 0 '128')) 0 () ()
() 0 0)
105 'p' '' 'p' 103 ((VARIABLE UNKNOWN-INTENT UNKNOWN-PROC UNKNOWN
UNKNOWN DIMENSION DUMMY) (REAL 8 0 0 REAL ()) 0 0 () (1 EXPLICIT (
CONSTANT (INTEGER 4 0 0 INTEGER ()) 0 '1') (CONSTANT (INTEGER 4 0 0
INTEGER ()) 0 '128')) 0 () () () 0 0)
104 'v' '' 'v' 103 ((VARIABLE UNKNOWN-INTENT UNKNOWN-PROC UNKNOWN
UNKNOWN DIMENSION DUMMY) (REAL 8 0 0 REAL ()) 0 0 () (2 EXPLICIT (
CONSTANT (INTEGER 4 0 0 INTEGER ()) 0 '1') (CONSTANT (INTEGER 4 0 0
INTEGER ()) 0 '128') (CONSTANT (INTEGER 4 0 0 INTEGER ()) 0 '1') (
CONSTANT (INTEGER 4 0 0 INTEGER ()) 0 '3')) 0 () () () 0 0)
136 'ppv' '' 'ppv' 134 ((VARIABLE UNKNOWN-INTENT UNKNOWN-PROC UNKNOWN
UNKNOWN DUMMY) (REAL 8 0 0 REAL ()) 0 0 () () 0 () () () 0 0)
135 'p3' '' 'p3' 134 ((VARIABLE UNKNOWN-INTENT UNKNOWN-PROC UNKNOWN
UNKNOWN DUMMY) (REAL 8 0 0 REAL ()) 0 0 () () 0 () () () 0 0)
93 'u' '' 'u' 92 ((VARIABLE IN UNKNOWN-PROC UNKNOWN UNKNOWN DIMENSION
DUMMY) (REAL 8 0 0 REAL ()) 0 0 () (1 ASSUMED_SHAPE (CONSTANT (INTEGER 4
0 0 INTEGER ()) 0 '1') ()) 0 () () () 0 0)
33 'v' '' 'v' 32 ((VARIABLE UNKNOWN-INTENT UNKNOWN-PROC UNKNOWN UNKNOWN
DIMENSION DUMMY) (REAL 8 0 0 REAL ()) 0 0 () (2 ASSUMED_SHAPE (CONSTANT
(INTEGER 4 0 0 INTEGER ()) 0 '1') () (CONSTANT (INTEGER 4 0 0 INTEGER ())
0 '1') ()) 0 () () () 0 0)
84 't' '' 't' 82 ((VARIABLE UNKNOWN-INTENT UNKNOWN-PROC UNKNOWN UNKNOWN
DUMMY) (REAL 8 0 0 REAL ()) 0 0 () () 0 () () () 0 0)
83 'u' '' 'u' 82 ((VARIABLE IN UNKNOWN-PROC UNKNOWN UNKNOWN DIMENSION
DUMMY) (REAL 8 0 0 REAL ()) 0 0 () (1 ASSUMED_SHAPE (CONSTANT (INTEGER 4
0 0 INTEGER ()) 0 '1') ()) 0 () () () 0 0)
139 'pnn' '' 'pnn' 138 ((VARIABLE UNKNOWN-INTENT UNKNOWN-PROC UNKNOWN
UNKNOWN DUMMY) (REAL 8 0 0 REAL ()) 0 0 () () 0 () () () 0 0)
140 'ppal' '' 'ppal' 138 ((VARIABLE UNKNOWN-INTENT UNKNOWN-PROC UNKNOWN
UNKNOWN DUMMY) (REAL 8 0 0 REAL ()) 0 0 () () 0 () () () 0 0)
141 'pnn1' '' 'pnn1' 138 ((VARIABLE UNKNOWN-INTENT UNKNOWN-PROC UNKNOWN
UNKNOWN DUMMY) (REAL 8 0 0 REAL ()) 0 0 () () 0 () () () 0 0)
142 'ppds' '' 'ppds' 138 ((VARIABLE UNKNOWN-INTENT UNKNOWN-PROC UNKNOWN
UNKNOWN DUMMY) (REAL 8 0 0 REAL ()) 0 0 () () 0 () () () 0 0)
143 'pct' '' 'pct' 138 ((VARIABLE UNKNOWN-INTENT UNKNOWN-PROC UNKNOWN
UNKNOWN DUMMY) (REAL 8 0 0 REAL ()) 0 0 () () 0 () () () 0 0)
144 'al' '' 'al' 138 ((VARIABLE UNKNOWN-INTENT UNKNOWN-PROC UNKNOWN
UNKNOWN DUMMY) (REAL 8 0 0 REAL ()) 0 0 () () 0 () () () 0 0)
145 'et' '' 'et' 138 ((VARIABLE UNKNOWN-INTENT UNKNOWN-PROC UNKNOWN
UNKNOWN DUMMY) (REAL 8 0 0 REAL ()) 0 0 () () 0 () () () 0 0)
146 'p2' '' 'p2' 138 ((VARIABLE UNKNOWN-INTENT UNKNOWN-PROC UNKNOWN
UNKNOWN DUMMY) (REAL 8 0 0 REAL ()) 0 0 () () 0 () () () 0 0)
147 'p3' '' 'p3' 138 ((VARIABLE UNKNOWN-INTENT UNKNOWN-PROC UNKNOWN
UNKNOWN DUMMY) (REAL 8 0 0 REAL ()) 0 0 () () 0 () () () 0 0)
148 'gg' '' 'gg' 138 ((VARIABLE UNKNOWN-INTENT UNKNOWN-PROC UNKNOWN
UNKNOWN DUMMY) (REAL 8 0 0 REAL ()) 0 0 () () 0 () () () 0 0)
163 'u' '' 'u' 162 ((VARIABLE IN UNKNOWN-PROC UNKNOWN UNKNOWN DIMENSION
DUMMY) (REAL 8 0 0 REAL ()) 0 0 () (1 ASSUMED_SHAPE (CONSTANT (INTEGER 4
0 0 INTEGER ()) 0 '1') ()) 0 () () () 0 0)
164 't' '' 't' 162 ((VARIABLE UNKNOWN-INTENT UNKNOWN-PROC UNKNOWN
UNKNOWN DUMMY) (REAL 8 0 0 REAL ()) 0 0 () () 0 () () () 0 0)
165 'f' '' 'f' 162 ((VARIABLE OUT UNKNOWN-PROC UNKNOWN UNKNOWN DIMENSION
DUMMY) (REAL 8 0 0 REAL ()) 0 0 () (1 ASSUMED_SHAPE (CONSTANT (INTEGER 4
0 0 INTEGER ()) 0 '1') ()) 0 () () () 0 0)
62 'u' '' 'u' 61 ((VARIABLE UNKNOWN-INTENT UNKNOWN-PROC UNKNOWN UNKNOWN
DIMENSION DUMMY) (REAL 8 0 0 REAL ()) 0 0 () (2 ASSUMED_SHAPE (CONSTANT
(INTEGER 4 0 0 INTEGER ()) 0 '1') () (CONSTANT (INTEGER 4 0 0 INTEGER ())
0 '1') ()) 0 () () () 0 0)
63 'v' '' 'v' 61 ((VARIABLE UNKNOWN-INTENT UNKNOWN-PROC UNKNOWN UNKNOWN
DIMENSION DUMMY) (REAL 8 0 0 REAL ()) 0 0 () (2 ASSUMED_SHAPE (CONSTANT
(INTEGER 4 0 0 INTEGER ()) 0 '1') () (CONSTANT (INTEGER 4 0 0 INTEGER ())
0 '1') ()) 0 () () () 0 0)
64 'f' '' 'f' 61 ((VARIABLE UNKNOWN-INTENT UNKNOWN-PROC UNKNOWN UNKNOWN
DIMENSION DUMMY) (REAL 8 0 0 REAL ()) 0 0 () (2 ASSUMED_SHAPE (CONSTANT
(INTEGER 4 0 0 INTEGER ()) 0 '1') () (CONSTANT (INTEGER 4 0 0 INTEGER ())
0 '1') ()) 0 () () () 0 0)
56 'u' '' 'u' 55 ((VARIABLE IN UNKNOWN-PROC UNKNOWN UNKNOWN DIMENSION
DUMMY) (REAL 8 0 0 REAL ()) 0 0 () (1 ASSUMED_SHAPE (CONSTANT (INTEGER 4
0 0 INTEGER ()) 0 '1') ()) 0 () () () 0 0)
57 'dv' '' 'dv' 55 ((VARIABLE IN UNKNOWN-PROC UNKNOWN UNKNOWN DIMENSION
DUMMY) (REAL 8 0 0 REAL ()) 0 0 () (2 ASSUMED_SHAPE (CONSTANT (INTEGER 4
0 0 INTEGER ()) 0 '1') () (CONSTANT (INTEGER 4 0 0 INTEGER ()) 0 '1') ())
0 () () () 0 0)
58 'da2p' '' 'da2p' 55 ((VARIABLE IN UNKNOWN-PROC UNKNOWN UNKNOWN
DIMENSION DUMMY) (REAL 8 0 0 REAL ()) 0 0 () (2 ASSUMED_SHAPE (CONSTANT
(INTEGER 4 0 0 INTEGER ()) 0 '1') () (CONSTANT (INTEGER 4 0 0 INTEGER ())
0 '1') ()) 0 () () () 0 0)
59 'f' '' 'f' 55 ((VARIABLE OUT UNKNOWN-PROC UNKNOWN UNKNOWN DIMENSION
DUMMY) (REAL 8 0 0 REAL ()) 0 0 () (1 ASSUMED_SHAPE (CONSTANT (INTEGER 4
0 0 INTEGER ()) 0 '1') ()) 0 () () () 0 0)
25 'u' '' 'u' 24 ((VARIABLE UNKNOWN-INTENT UNKNOWN-PROC UNKNOWN UNKNOWN
DIMENSION DUMMY) (REAL 8 0 0 REAL ()) 0 0 () (2 EXPLICIT (CONSTANT (
INTEGER 4 0 0 INTEGER ()) 0 '1') (CONSTANT (INTEGER 4 0 0 INTEGER ()) 0
'128') (CONSTANT (INTEGER 4 0 0 INTEGER ()) 0 '1') (CONSTANT (INTEGER 4
0 0 INTEGER ()) 0 '121')) 0 () () () 0 0)
26 'tau' '' 'tau' 24 ((VARIABLE UNKNOWN-INTENT UNKNOWN-PROC UNKNOWN
UNKNOWN DIMENSION DUMMY) (REAL 8 0 0 REAL ()) 0 0 () (3 ASSUMED_SHAPE (
CONSTANT (INTEGER 4 0 0 INTEGER ()) 0 '1') () (CONSTANT (INTEGER 4 0 0
INTEGER ()) 0 '1') () (CONSTANT (INTEGER 4 0 0 INTEGER ()) 0 '1') ()) 0
() () () 0 0)
27 'time' '' 'time' 24 ((VARIABLE UNKNOWN-INTENT UNKNOWN-PROC UNKNOWN
UNKNOWN DUMMY) (REAL 8 0 0 REAL ()) 0 0 () () 0 () () () 0 0)
168 'u' '' 'u' 167 ((VARIABLE UNKNOWN-INTENT UNKNOWN-PROC UNKNOWN
UNKNOWN DIMENSION DUMMY) (REAL 8 0 0 REAL ()) 0 0 () (2 EXPLICIT (
CONSTANT (INTEGER 4 0 0 INTEGER ()) 0 '1') (CONSTANT (INTEGER 4 0 0
INTEGER ()) 0 '128') (CONSTANT (INTEGER 4 0 0 INTEGER ()) 0 '1') (
CONSTANT (INTEGER 4 0 0 INTEGER ()) 0 '121')) 0 () () () 0 0)
169 'tau' '' 'tau' 167 ((VARIABLE UNKNOWN-INTENT UNKNOWN-PROC UNKNOWN
UNKNOWN DIMENSION DUMMY) (REAL 8 0 0 REAL ()) 0 0 () (3 ASSUMED_SHAPE (
CONSTANT (INTEGER 4 0 0 INTEGER ()) 0 '1') () (CONSTANT (INTEGER 4 0 0
INTEGER ()) 0 '1') () (CONSTANT (INTEGER 4 0 0 INTEGER ()) 0 '1') ()) 0
() () () 0 0)
170 'time' '' 'time' 167 ((VARIABLE UNKNOWN-INTENT UNKNOWN-PROC UNKNOWN
UNKNOWN DUMMY) (REAL 8 0 0 REAL ()) 0 0 () () 0 () () () 0 0)
160 'tau' '' 'tau' 158 ((VARIABLE UNKNOWN-INTENT UNKNOWN-PROC UNKNOWN
UNKNOWN DIMENSION DUMMY) (REAL 8 0 0 REAL ()) 0 0 () (2 ASSUMED_SHAPE (
CONSTANT (INTEGER 4 0 0 INTEGER ()) 0 '1') () (CONSTANT (INTEGER 4 0 0
INTEGER ()) 0 '1') ()) 0 () () () 0 0)
153 'sm' '' 'sm' 150 ((VARIABLE UNKNOWN-INTENT UNKNOWN-PROC UNKNOWN
UNKNOWN DIMENSION DUMMY) (REAL 8 0 0 REAL ()) 0 0 () (2 ASSUMED_SHAPE (
CONSTANT (INTEGER 4 0 0 INTEGER ()) 0 '1') () (CONSTANT (INTEGER 4 0 0
INTEGER ()) 0 '1') ()) 0 () () () 0 0)
152 'tm' '' 'tm' 150 ((VARIABLE UNKNOWN-INTENT UNKNOWN-PROC UNKNOWN
UNKNOWN DIMENSION DUMMY) (REAL 8 0 0 REAL ()) 0 0 () (1 ASSUMED_SHAPE (
CONSTANT (INTEGER 4 0 0 INTEGER ()) 0 '1') ()) 0 () () () 0 0)
151 'a00' '' 'a00' 150 ((VARIABLE UNKNOWN-INTENT UNKNOWN-PROC UNKNOWN
UNKNOWN DUMMY) (REAL 8 0 0 REAL ()) 0 0 () () 0 () () () 0 0)
154 'fm' '' 'fm' 150 ((VARIABLE UNKNOWN-INTENT UNKNOWN-PROC UNKNOWN
UNKNOWN DIMENSION DUMMY) (REAL 8 0 0 REAL ()) 0 0 () (1 ASSUMED_SHAPE (
CONSTANT (INTEGER 4 0 0 INTEGER ()) 0 '1') ()) 0 () () () 0 0)
155 'vd' '' 'vd' 150 ((VARIABLE UNKNOWN-INTENT UNKNOWN-PROC UNKNOWN
UNKNOWN DIMENSION DUMMY) (REAL 8 0 0 REAL ()) 0 0 () (2 EXPLICIT (
CONSTANT (INTEGER 4 0 0 INTEGER ()) 0 '1') (CONSTANT (INTEGER 4 0 0
INTEGER ()) 0 '3') (CONSTANT (INTEGER 4 0 0 INTEGER ()) 0 '1') (
CONSTANT (INTEGER 4 0 0 INTEGER ()) 0 '3')) 0 () () () 0 0)
156 'tau' '' 'tau' 150 ((VARIABLE UNKNOWN-INTENT UNKNOWN-PROC UNKNOWN
UNKNOWN DIMENSION DUMMY) (REAL 8 0 0 REAL ()) 0 0 () (2 ASSUMED_SHAPE (
CONSTANT (INTEGER 4 0 0 INTEGER ()) 0 '1') () (CONSTANT (INTEGER 4 0 0
INTEGER ()) 0 '1') ()) 0 () () () 0 0)
159 'dd' '' 'dd' 158 ((VARIABLE UNKNOWN-INTENT UNKNOWN-PROC UNKNOWN
UNKNOWN DIMENSION DUMMY) (REAL 8 0 0 REAL ()) 0 0 () (2 ASSUMED_SHAPE (
CONSTANT (INTEGER 4 0 0 INTEGER ()) 0 '1') () (CONSTANT (INTEGER 4 0 0
INTEGER ()) 0 '1') ()) 0 () () () 0 0)
80 'u' '' 'u' 79 ((VARIABLE UNKNOWN-INTENT UNKNOWN-PROC UNKNOWN UNKNOWN
DIMENSION DUMMY) (REAL 8 0 0 REAL ()) 0 0 () (1 ASSUMED_SHAPE (CONSTANT
(INTEGER 4 0 0 INTEGER ()) 0 '0') ()) 0 () () () 0 0)
)

('__convert_i4_r4' 0 2 '__convert_i4_r8' 0 3 '__convert_r4_r8' 0 4
'__convert_r8_r4' 0 5 'acp' 0 6 'd1x' 0 7 'd1y' 0 8 'd2u' 0 9 'd2x' 0 10
'd2y' 0 11 'dagp' 0 12 'dble' 0 13 'dfdt' 0 14 'dtaum' 0 23 'dvds' 0 28
'er' 0 29 'f_para' 0 30 'flow_field' 0 31 'fourpin1' 0 35 'fourpio3al' 0
36 'fourpio5n' 0 37 'ftg' 0 38 'ftgo' 0 44 'ftuy' 0 50 'fu3' 0 51 'fv3'
0 52 'fv3a' 0 53 'fv_11' 0 54 'fvalue_1' 0 60 'gradient_p' 0 65 'hy' 0
68 'im' 0 69 'kind' 0 74 'lcp_2d' 0 75 'lmax' 0 76 'lp' 0 77 'moments' 0
78 'momentum' 0 81 'momentum_ex' 0 86 'momentum_o' 0 91 'n' 0 96 'n3' 0
97 'nv' 0 98 'ny' 0 99 'pd' 0 100 'pi' 0 101 'pressure' 0 102 'pvalues'
0 108 're' 0 120 'read_3js' 0 125 'reshape' 0 126 'rftrg' 0 127
'set_ns_value' 0 133 'setanpe' 0 137 'single_taum' 0 149 'single_tauv' 0
157 'smoluchowski' 0 161 'taum_value' 0 166 'u3' 0 171 'uay' 0 172 'ubv'
0 173 'v3' 0 174 'velocity' 0 175 'ys' 0 176)
