GFORTRAN module version '0' created from method.f90 on Sat May  7 21:17:13 2016
MD5:d7bf66c751ebd521743896cbfaef9e3e -- If you edit this, you'll get what you deserve.

(() () () ()
() () () () () () () () () () () () () () () () () () () () () () ())

()

()

()

()

(2 '__convert_i4_r4' '(intrinsic)' '__convert_i4_r4' 1 ((PROCEDURE
UNKNOWN-INTENT UNKNOWN-PROC UNKNOWN UNKNOWN FUNCTION ELEMENTAL PURE) (
REAL 4 0 0 REAL ()) 0 0 () () 0 () () () 0 0)
3 '__convert_i4_r8' '(intrinsic)' '__convert_i4_r8' 1 ((PROCEDURE
UNKNOWN-INTENT UNKNOWN-PROC UNKNOWN UNKNOWN FUNCTION ELEMENTAL PURE) (
REAL 8 0 0 REAL ()) 0 0 () () 0 () () () 0 0)
4 '__convert_r4_r8' '(intrinsic)' '__convert_r4_r8' 1 ((PROCEDURE
UNKNOWN-INTENT UNKNOWN-PROC UNKNOWN UNKNOWN FUNCTION ELEMENTAL PURE) (
REAL 8 0 0 REAL ()) 0 0 () () 0 () () () 0 0)
5 '__convert_r8_r4' '(intrinsic)' '__convert_r8_r4' 1 ((PROCEDURE
UNKNOWN-INTENT UNKNOWN-PROC UNKNOWN UNKNOWN FUNCTION ELEMENTAL PURE) (
REAL 4 0 0 REAL ()) 0 0 () () 0 () () () 0 0)
6 'acp' 'acp' 'acp' 1 ((MODULE UNKNOWN-INTENT UNKNOWN-PROC UNKNOWN
UNKNOWN) (UNKNOWN 0 0 0 UNKNOWN ()) 0 0 () () 0 () () () 0 0)
7 'assignspace' 'sdc' 'assignspace' 1 ((PROCEDURE UNKNOWN-INTENT
MODULE-PROC DECL UNKNOWN SUBROUTINE) (UNKNOWN 0 0 0 UNKNOWN ()) 8 0 (9
10 11 12 13 14) () 0 () () () 0 0)
15 'bdf_solv' 'f_value' 'bdf_solv' 1 ((PROCEDURE UNKNOWN-INTENT
MODULE-PROC DECL UNKNOWN SUBROUTINE ALWAYS_EXPLICIT) (UNKNOWN 0 0 0
UNKNOWN ()) 16 0 (17 18 19 20) () 0 () () () 0 0)
21 'correction' 'sdc' 'correction' 1 ((PROCEDURE UNKNOWN-INTENT
MODULE-PROC DECL UNKNOWN SUBROUTINE ALWAYS_EXPLICIT) (UNKNOWN 0 0 0
UNKNOWN ()) 22 0 (23 24 25 26 27 28) () 0 () () () 0 0)
29 'd1x' 'lcp_2d' 'd1x' 1 ((VARIABLE UNKNOWN-INTENT UNKNOWN-PROC UNKNOWN
UNKNOWN DIMENSION) (REAL 8 0 0 REAL ()) 0 0 () (2 EXPLICIT (CONSTANT (
INTEGER 4 0 0 INTEGER ()) 0 '1') (CONSTANT (INTEGER 4 0 0 INTEGER ()) 0
'128') (CONSTANT (INTEGER 4 0 0 INTEGER ()) 0 '1') (CONSTANT (INTEGER 4
0 0 INTEGER ()) 0 '121')) 0 () () () 0 0)
30 'd1y' 'lcp_2d' 'd1y' 1 ((VARIABLE UNKNOWN-INTENT UNKNOWN-PROC UNKNOWN
UNKNOWN DIMENSION) (REAL 8 0 0 REAL ()) 0 0 () (2 EXPLICIT (CONSTANT (
INTEGER 4 0 0 INTEGER ()) 0 '1') (CONSTANT (INTEGER 4 0 0 INTEGER ()) 0
'128') (CONSTANT (INTEGER 4 0 0 INTEGER ()) 0 '1') (CONSTANT (INTEGER 4
0 0 INTEGER ()) 0 '121')) 0 () () () 0 0)
31 'd2u' 'lcp_2d' 'd2u' 1 ((VARIABLE UNKNOWN-INTENT UNKNOWN-PROC UNKNOWN
UNKNOWN DIMENSION) (REAL 8 0 0 REAL ()) 0 0 () (2 EXPLICIT (CONSTANT (
INTEGER 4 0 0 INTEGER ()) 0 '1') (CONSTANT (INTEGER 4 0 0 INTEGER ()) 0
'128') (CONSTANT (INTEGER 4 0 0 INTEGER ()) 0 '1') (CONSTANT (INTEGER 4
0 0 INTEGER ()) 0 '121')) 0 () () () 0 0)
32 'd2x' 'lcp_2d' 'd2x' 1 ((VARIABLE UNKNOWN-INTENT UNKNOWN-PROC UNKNOWN
UNKNOWN DIMENSION) (REAL 8 0 0 REAL ()) 0 0 () (2 EXPLICIT (CONSTANT (
INTEGER 4 0 0 INTEGER ()) 0 '1') (CONSTANT (INTEGER 4 0 0 INTEGER ()) 0
'128') (CONSTANT (INTEGER 4 0 0 INTEGER ()) 0 '1') (CONSTANT (INTEGER 4
0 0 INTEGER ()) 0 '121')) 0 () () () 0 0)
33 'd2y' 'lcp_2d' 'd2y' 1 ((VARIABLE UNKNOWN-INTENT UNKNOWN-PROC UNKNOWN
UNKNOWN DIMENSION) (REAL 8 0 0 REAL ()) 0 0 () (2 EXPLICIT (CONSTANT (
INTEGER 4 0 0 INTEGER ()) 0 '1') (CONSTANT (INTEGER 4 0 0 INTEGER ()) 0
'128') (CONSTANT (INTEGER 4 0 0 INTEGER ()) 0 '1') (CONSTANT (INTEGER 4
0 0 INTEGER ()) 0 '121')) 0 () () () 0 0)
34 'dagp' 'lcp_2d' 'dagp' 1 ((VARIABLE UNKNOWN-INTENT UNKNOWN-PROC
UNKNOWN UNKNOWN DIMENSION) (REAL 8 0 0 REAL ()) 0 0 () (2 EXPLICIT (
CONSTANT (INTEGER 4 0 0 INTEGER ()) 0 '1') (CONSTANT (INTEGER 4 0 0
INTEGER ()) 0 '128') (CONSTANT (INTEGER 4 0 0 INTEGER ()) 0 '1') (
CONSTANT (INTEGER 4 0 0 INTEGER ()) 0 '121')) 0 () () () 0 0)
35 'dble' '(intrinsic)' 'dble' 1 ((PROCEDURE UNKNOWN-INTENT UNKNOWN-PROC
UNKNOWN UNKNOWN FUNCTION) (REAL 4 0 0 REAL ()) 0 0 () () 35 () () () 0 0)
36 'dfdt' 'acp' 'dfdt' 1 ((PROCEDURE UNKNOWN-INTENT MODULE-PROC DECL
UNKNOWN SUBROUTINE ALWAYS_EXPLICIT) (UNKNOWN 0 0 0 UNKNOWN ()) 37 0 (38
39 40 41 42 43 44) () 0 () () () 0 0)
45 'dtaum' 'lcp_2d' 'dtaum' 1 ((PROCEDURE UNKNOWN-INTENT MODULE-PROC
DECL UNKNOWN SUBROUTINE ALWAYS_EXPLICIT) (UNKNOWN 0 0 0 UNKNOWN ()) 46 0
(47 48 49) () 0 () () () 0 0)
50 'dvds' 'lcp_2d' 'dvds' 1 ((VARIABLE UNKNOWN-INTENT UNKNOWN-PROC
UNKNOWN EXPLICIT-SAVE DIMENSION) (REAL 8 0 0 REAL ()) 0 0 () (3 EXPLICIT
(CONSTANT (INTEGER 4 0 0 INTEGER ()) 0 '1') (CONSTANT (INTEGER 4 0 0
INTEGER ()) 0 '128') (CONSTANT (INTEGER 4 0 0 INTEGER ()) 0 '1') (
CONSTANT (INTEGER 4 0 0 INTEGER ()) 0 '3') (CONSTANT (INTEGER 4 0 0
INTEGER ()) 0 '1') (CONSTANT (INTEGER 4 0 0 INTEGER ()) 0 '3')) 0 () ()
() 0 0)
51 'er' 'lcp_2d' 'er' 1 ((VARIABLE UNKNOWN-INTENT UNKNOWN-PROC UNKNOWN
EXPLICIT-SAVE) (REAL 4 0 0 REAL ()) 0 0 () () 0 () () () 0 0)
52 'error' 'f_value' 'error' 1 ((PROCEDURE UNKNOWN-INTENT MODULE-PROC
DECL UNKNOWN SUBROUTINE ALWAYS_EXPLICIT) (UNKNOWN 0 0 0 UNKNOWN ()) 53 0
(54 55 56) () 0 () () () 0 0)
57 'exact_value' 'f_value' 'exact_value' 1 ((PROCEDURE UNKNOWN-INTENT
MODULE-PROC DECL UNKNOWN DIMENSION FUNCTION ALWAYS_EXPLICIT) (REAL 8 0 0
REAL ()) 58 0 (59 60) (1 EXPLICIT (CONSTANT (INTEGER 4 0 0 INTEGER ()) 0
'1') (VARIABLE (INTEGER 4 0 0 INTEGER ()) 0 59 ())) 57 () () () 0 0)
61 'extrap' 'spec_defe_corr' 'extrap' 1 ((PROCEDURE UNKNOWN-INTENT
MODULE-PROC DECL UNKNOWN SUBROUTINE ALWAYS_EXPLICIT) (UNKNOWN 0 0 0
UNKNOWN ()) 62 0 (63 64) () 0 () () () 0 0)
65 'f' 'spec_defe_corr' 'f' 1 ((PROCEDURE UNKNOWN-INTENT MODULE-PROC
DECL UNKNOWN DIMENSION FUNCTION ALWAYS_EXPLICIT) (REAL 8 0 0 REAL ()) 66
0 (67 68 69) (1 EXPLICIT (CONSTANT (INTEGER 4 0 0 INTEGER ()) 0 '1') (
FUNCTION (INTEGER 4 0 0 INTEGER ()) 0 70 (('' (VARIABLE (REAL 8 0 0 REAL
()) 1 67 ((ARRAY (FULL 0))))) ('' ()) ('' ())) '' 0 'size')) 65 () () ()
0 0)
71 'f1' 'spec_defe_corr' 'f1' 1 ((PROCEDURE UNKNOWN-INTENT MODULE-PROC
DECL UNKNOWN FUNCTION ALWAYS_EXPLICIT) (REAL 8 0 0 REAL ()) 72 0 (73 74
75) () 71 () () () 0 0)
76 'f_para' 'lcp_2d' 'f_para' 1 ((VARIABLE UNKNOWN-INTENT UNKNOWN-PROC
UNKNOWN UNKNOWN) (INTEGER 4 0 0 INTEGER ()) 0 0 () () 0 () () () 0 0)
77 'f_value' 'f_value' 'f_value' 1 ((MODULE UNKNOWN-INTENT UNKNOWN-PROC
UNKNOWN UNKNOWN) (UNKNOWN 0 0 0 UNKNOWN ()) 0 0 () () 0 () () () 0 0)
78 'flow_field' 'velocity' 'flow_field' 1 ((PROCEDURE UNKNOWN-INTENT
MODULE-PROC DECL UNKNOWN SUBROUTINE ALWAYS_EXPLICIT) (UNKNOWN 0 0 0
UNKNOWN ()) 79 0 (80 81) () 0 () () () 0 0)
82 'fourpin1' 'lcp_2d' 'fourpin1' 1 ((VARIABLE UNKNOWN-INTENT
UNKNOWN-PROC UNKNOWN UNKNOWN) (REAL 8 0 0 REAL ()) 0 0 () () 0 () () ()
0 0)
83 'fourpio3al' 'lcp_2d' 'fourpio3al' 1 ((VARIABLE UNKNOWN-INTENT
UNKNOWN-PROC UNKNOWN UNKNOWN) (REAL 8 0 0 REAL ()) 0 0 () () 0 () () ()
0 0)
84 'fourpio5n' 'lcp_2d' 'fourpio5n' 1 ((VARIABLE UNKNOWN-INTENT
UNKNOWN-PROC UNKNOWN UNKNOWN) (REAL 8 0 0 REAL ()) 0 0 () () 0 () () ()
0 0)
85 'freespace' 'sdc' 'freespace' 1 ((PROCEDURE UNKNOWN-INTENT
MODULE-PROC DECL UNKNOWN SUBROUTINE) (UNKNOWN 0 0 0 UNKNOWN ()) 0 0 () ()
0 () () () 0 0)
86 'ftg' 'acp' 'ftg' 1 ((PROCEDURE UNKNOWN-INTENT MODULE-PROC DECL
UNKNOWN SUBROUTINE) (UNKNOWN 0 0 0 UNKNOWN ()) 87 0 (88 89 90 91) () 0 ()
() () 0 0)
92 'ftgo' 'acp' 'ftgo' 1 ((PROCEDURE UNKNOWN-INTENT MODULE-PROC DECL
UNKNOWN SUBROUTINE ALWAYS_EXPLICIT) (UNKNOWN 0 0 0 UNKNOWN ()) 93 0 (94
95 96 97) () 0 () () () 0 0)
98 'ftuy' 'lcp_2d' 'ftuy' 1 ((VARIABLE UNKNOWN-INTENT UNKNOWN-PROC
UNKNOWN UNKNOWN DIMENSION) (REAL 8 0 0 REAL ()) 0 0 () (2 EXPLICIT (
CONSTANT (INTEGER 4 0 0 INTEGER ()) 0 '1') (CONSTANT (INTEGER 4 0 0
INTEGER ()) 0 '128') (CONSTANT (INTEGER 4 0 0 INTEGER ()) 0 '1') (
CONSTANT (INTEGER 4 0 0 INTEGER ()) 0 '121')) 0 () () () 0 0)
99 'fu3' 'lcp_2d' 'fu3' 1 ((VARIABLE UNKNOWN-INTENT UNKNOWN-PROC UNKNOWN
UNKNOWN DIMENSION) (REAL 8 0 0 REAL ()) 0 0 () (2 EXPLICIT (CONSTANT (
INTEGER 4 0 0 INTEGER ()) 0 '1') (CONSTANT (INTEGER 4 0 0 INTEGER ()) 0
'128') (CONSTANT (INTEGER 4 0 0 INTEGER ()) 0 '1') (CONSTANT (INTEGER 4
0 0 INTEGER ()) 0 '121')) 0 () () () 0 0)
100 'fv3' 'velocity' 'fv3' 1 ((VARIABLE UNKNOWN-INTENT UNKNOWN-PROC
UNKNOWN EXPLICIT-SAVE DIMENSION) (REAL 8 0 0 REAL ()) 0 0 () (2 EXPLICIT
(CONSTANT (INTEGER 4 0 0 INTEGER ()) 0 '1') (CONSTANT (INTEGER 4 0 0
INTEGER ()) 0 '128') (CONSTANT (INTEGER 4 0 0 INTEGER ()) 0 '1') (
CONSTANT (INTEGER 4 0 0 INTEGER ()) 0 '3')) 0 () () () 0 0)
101 'fv3a' 'velocity' 'fv3a' 1 ((VARIABLE UNKNOWN-INTENT UNKNOWN-PROC
UNKNOWN EXPLICIT-SAVE DIMENSION) (REAL 8 0 0 REAL ()) 0 0 () (2 EXPLICIT
(CONSTANT (INTEGER 4 0 0 INTEGER ()) 0 '1') (CONSTANT (INTEGER 4 0 0
INTEGER ()) 0 '128') (CONSTANT (INTEGER 4 0 0 INTEGER ()) 0 '1') (
CONSTANT (INTEGER 4 0 0 INTEGER ()) 0 '3')) 0 () () () 0 0)
102 'fv_11' 'lcp_2d' 'fv_11' 1 ((PROCEDURE UNKNOWN-INTENT MODULE-PROC
DECL UNKNOWN SUBROUTINE ALWAYS_EXPLICIT) (UNKNOWN 0 0 0 UNKNOWN ()) 103
0 (104 105 106 107) () 0 () () () 0 0)
108 'fvalue' 'f_value' 'fvalue' 1 ((PROCEDURE UNKNOWN-INTENT MODULE-PROC
DECL UNKNOWN SUBROUTINE ALWAYS_EXPLICIT) (UNKNOWN 0 0 0 UNKNOWN ()) 109
0 (110 111 112) () 0 () () () 0 0)
113 'fvalue_1' 'lcp_2d' 'fvalue_1' 1 ((PROCEDURE UNKNOWN-INTENT
MODULE-PROC DECL UNKNOWN SUBROUTINE ALWAYS_EXPLICIT) (UNKNOWN 0 0 0
UNKNOWN ()) 114 0 (115 116 117) () 0 () () () 0 0)
118 'fvalue_ex' 'f_value' 'fvalue_ex' 1 ((PROCEDURE UNKNOWN-INTENT
MODULE-PROC DECL UNKNOWN SUBROUTINE ALWAYS_EXPLICIT) (UNKNOWN 0 0 0
UNKNOWN ()) 119 0 (120 121 122) () 0 () () () 0 0)
123 'fvalue_exc' 'f_value' 'fvalue_exc' 1 ((PROCEDURE UNKNOWN-INTENT
MODULE-PROC DECL UNKNOWN SUBROUTINE ALWAYS_EXPLICIT) (UNKNOWN 0 0 0
UNKNOWN ()) 124 0 (125 126 127) () 0 () () () 0 0)
128 'fvalue_im' 'f_value' 'fvalue_im' 1 ((PROCEDURE UNKNOWN-INTENT
MODULE-PROC DECL UNKNOWN SUBROUTINE ALWAYS_EXPLICIT) (UNKNOWN 0 0 0
UNKNOWN ()) 129 0 (130 131 132) () 0 () () () 0 0)
133 'gradient_p' 'velocity' 'gradient_p' 1 ((PROCEDURE UNKNOWN-INTENT
MODULE-PROC DECL UNKNOWN SUBROUTINE) (UNKNOWN 0 0 0 UNKNOWN ()) 134 0 (
135) () 0 () () () 0 0)
136 'hy' 'lcp_2d' 'hy' 1 ((PARAMETER UNKNOWN-INTENT UNKNOWN-PROC UNKNOWN
IMPLICIT-SAVE) (REAL 8 0 0 REAL ()) 0 0 () (CONSTANT (REAL 8 0 0 REAL ())
0 '0.20000000000000@-1') () 0 () () () 0 0)
137 'im' 'acp' 'im' 1 ((PROCEDURE UNKNOWN-INTENT MODULE-PROC DECL
UNKNOWN FUNCTION) (REAL 8 0 0 REAL ()) 138 0 (139 140 141) () 137 () ()
() 0 0)
142 'initial_value' 'sdc' 'initial_value' 1 ((PROCEDURE UNKNOWN-INTENT
MODULE-PROC DECL UNKNOWN SUBROUTINE) (UNKNOWN 0 0 0 UNKNOWN ()) 143 0 (
144 145) () 0 () () () 0 0)
146 'initial_value_0' 'sdc' 'initial_value_0' 1 ((PROCEDURE
UNKNOWN-INTENT MODULE-PROC DECL UNKNOWN SUBROUTINE) (UNKNOWN 0 0 0
UNKNOWN ()) 147 0 (148 149) () 0 () () () 0 0)
150 'integrate' 'spec_defe_corr' 'integrate' 1 ((PROCEDURE
UNKNOWN-INTENT MODULE-PROC DECL UNKNOWN SUBROUTINE) (UNKNOWN 0 0 0
UNKNOWN ()) 151 0 (152 153 154) () 0 () () () 0 0)
155 'intematx' 'spec_defe_corr' 'intematx' 1 ((PROCEDURE UNKNOWN-INTENT
MODULE-PROC DECL UNKNOWN SUBROUTINE) (UNKNOWN 0 0 0 UNKNOWN ()) 156 0 (
157 158) () 0 () () () 0 0)
159 'itersolv' 'f_value' 'itersolv' 1 ((PROCEDURE UNKNOWN-INTENT
MODULE-PROC DECL UNKNOWN SUBROUTINE ALWAYS_EXPLICIT) (UNKNOWN 0 0 0
UNKNOWN ()) 160 0 (161 162 163) () 0 () () () 0 0)
164 'kind' '(intrinsic)' 'kind' 1 ((PROCEDURE UNKNOWN-INTENT
UNKNOWN-PROC UNKNOWN UNKNOWN FUNCTION) (INTEGER 4 0 0 INTEGER ()) 0 0 ()
() 164 () () () 0 0)
165 'lcp_2d' 'lcp_2d' 'lcp_2d' 1 ((MODULE UNKNOWN-INTENT UNKNOWN-PROC
UNKNOWN UNKNOWN) (UNKNOWN 0 0 0 UNKNOWN ()) 0 0 () () 0 () () () 0 0)
166 'legendre' 'spec_defe_corr' 'legendre' 1 ((PROCEDURE UNKNOWN-INTENT
MODULE-PROC DECL UNKNOWN SUBROUTINE) (UNKNOWN 0 0 0 UNKNOWN ()) 167 0 (
168) () 0 () () () 0 0)
169 'lmax' 'acp' 'lmax' 1 ((PARAMETER UNKNOWN-INTENT UNKNOWN-PROC
UNKNOWN IMPLICIT-SAVE) (INTEGER 4 0 0 INTEGER ()) 0 0 () (CONSTANT (
INTEGER 4 0 0 INTEGER ()) 0 '10') () 0 () () () 0 0)
170 'lobatto' 'spec_defe_corr' 'lobatto' 1 ((PROCEDURE UNKNOWN-INTENT
MODULE-PROC DECL UNKNOWN SUBROUTINE) (UNKNOWN 0 0 0 UNKNOWN ()) 171 0 (
172) () 0 () () () 0 0)
173 'lp' 'acp' 'lp' 1 ((PARAMETER UNKNOWN-INTENT UNKNOWN-PROC UNKNOWN
IMPLICIT-SAVE) (INTEGER 4 0 0 INTEGER ()) 0 0 () (CONSTANT (INTEGER 4 0
0 INTEGER ()) 0 '121') () 0 () () () 0 0)
174 'm' 'spec_defe_corr' 'm' 1 ((VARIABLE UNKNOWN-INTENT UNKNOWN-PROC
UNKNOWN EXPLICIT-SAVE) (INTEGER 4 0 0 INTEGER ()) 0 0 () () 0 () () () 0
0)
175 'md_one_step' 'sdc' 'md_one_step' 1 ((PROCEDURE UNKNOWN-INTENT
MODULE-PROC DECL UNKNOWN SUBROUTINE ALWAYS_EXPLICIT) (UNKNOWN 0 0 0
UNKNOWN ()) 176 0 (177 178 179 180 181) () 0 () () () 0 0)
182 'method' 'sdc' 'method' 1 ((PROCEDURE UNKNOWN-INTENT MODULE-PROC
DECL UNKNOWN SUBROUTINE ALWAYS_EXPLICIT) (UNKNOWN 0 0 0 UNKNOWN ()) 183
0 (184 185 186 187 188 189) () 0 () () () 0 0)
190 'mi' 'spec_defe_corr' 'mi' 1 ((VARIABLE UNKNOWN-INTENT UNKNOWN-PROC
UNKNOWN EXPLICIT-SAVE) (INTEGER 4 0 0 INTEGER ()) 0 0 () () 0 () () () 0
0)
191 'moments' 'lcp_2d' 'moments' 1 ((PROCEDURE UNKNOWN-INTENT
MODULE-PROC DECL UNKNOWN SUBROUTINE ALWAYS_EXPLICIT) (UNKNOWN 0 0 0
UNKNOWN ()) 192 0 (193) () 0 () () () 0 0)
194 'momentum' 'velocity' 'momentum' 1 ((PROCEDURE UNKNOWN-INTENT
MODULE-PROC DECL UNKNOWN SUBROUTINE ALWAYS_EXPLICIT) (UNKNOWN 0 0 0
UNKNOWN ()) 195 0 (196 197 198) () 0 () () () 0 0)
199 'momentum_ex' 'velocity' 'momentum_ex' 1 ((PROCEDURE UNKNOWN-INTENT
MODULE-PROC DECL UNKNOWN SUBROUTINE ALWAYS_EXPLICIT) (UNKNOWN 0 0 0
UNKNOWN ()) 200 0 (201 202 203) () 0 () () () 0 0)
204 'momentum_o' 'velocity' 'momentum_o' 1 ((PROCEDURE UNKNOWN-INTENT
MODULE-PROC DECL UNKNOWN SUBROUTINE ALWAYS_EXPLICIT) (UNKNOWN 0 0 0
UNKNOWN ()) 205 0 (206 207 208) () 0 () () () 0 0)
209 'n' 'lcp_2d' 'n' 1 ((PARAMETER UNKNOWN-INTENT UNKNOWN-PROC UNKNOWN
IMPLICIT-SAVE) (INTEGER 4 0 0 INTEGER ()) 0 0 () (CONSTANT (INTEGER 4 0
0 INTEGER ()) 0 '15488') () 0 () () () 0 0)
210 'n3' 'lcp_2d' 'n3' 1 ((PARAMETER UNKNOWN-INTENT UNKNOWN-PROC UNKNOWN
IMPLICIT-SAVE) (INTEGER 4 0 0 INTEGER ()) 0 0 () (CONSTANT (INTEGER 4 0
0 INTEGER ()) 0 '384') () 0 () () () 0 0)
211 'neighbor_solu' 'sdc' 'neighbor_solu' 1 ((PROCEDURE UNKNOWN-INTENT
MODULE-PROC DECL UNKNOWN SUBROUTINE ALWAYS_EXPLICIT) (UNKNOWN 0 0 0
UNKNOWN ()) 212 0 (213 214 215 216 217) () 0 () () () 0 0)
218 'no' 'spec_defe_corr' 'no' 1 ((VARIABLE UNKNOWN-INTENT UNKNOWN-PROC
UNKNOWN EXPLICIT-SAVE) (INTEGER 4 0 0 INTEGER ()) 0 0 () () 0 () () () 0
0)
219 'np' 'spec_defe_corr' 'np' 1 ((VARIABLE UNKNOWN-INTENT UNKNOWN-PROC
UNKNOWN EXPLICIT-SAVE) (INTEGER 4 0 0 INTEGER ()) 0 0 () () 0 () () () 0
0)
220 'nv' 'lcp_2d' 'nv' 1 ((PARAMETER UNKNOWN-INTENT UNKNOWN-PROC UNKNOWN
IMPLICIT-SAVE) (INTEGER 4 0 0 INTEGER ()) 0 0 () (CONSTANT (INTEGER 4 0
0 INTEGER ()) 0 '121') () 0 () () () 0 0)
221 'ny' 'lcp_2d' 'ny' 1 ((PARAMETER UNKNOWN-INTENT UNKNOWN-PROC UNKNOWN
IMPLICIT-SAVE) (INTEGER 4 0 0 INTEGER ()) 0 0 () (CONSTANT (INTEGER 4 0
0 INTEGER ()) 0 '128') () 0 () () () 0 0)
222 'pd' 'lcp_2d' 'pd' 1 ((VARIABLE UNKNOWN-INTENT UNKNOWN-PROC UNKNOWN
EXPLICIT-SAVE) (REAL 4 0 0 REAL ()) 0 0 () () 0 () () () 0 0)
223 'pi' 'lcp_2d' 'pi' 1 ((VARIABLE UNKNOWN-INTENT UNKNOWN-PROC UNKNOWN
UNKNOWN) (REAL 8 0 0 REAL ()) 0 0 () () 0 () () () 0 0)
224 'precondition' 'f_value' 'precondition' 1 ((PROCEDURE UNKNOWN-INTENT
MODULE-PROC DECL UNKNOWN SUBROUTINE ALWAYS_EXPLICIT) (UNKNOWN 0 0 0
UNKNOWN ()) 225 0 (226 227 228) () 0 () () () 0 0)
229 'pressure' 'velocity' 'pressure' 1 ((PROCEDURE UNKNOWN-INTENT
MODULE-PROC DECL UNKNOWN SUBROUTINE) (UNKNOWN 0 0 0 UNKNOWN ()) 230 0 (
231 232 233 234) () 0 () () () 0 0)
235 'pvalues' 'acp' 'pvalues' 1 ((PROCEDURE UNKNOWN-INTENT MODULE-PROC
DECL UNKNOWN SUBROUTINE) (UNKNOWN 0 0 0 UNKNOWN ()) 236 0 (237 238 239
240 241 242 243 244 245 246) () 0 () () () 0 0)
247 'radau' 'spec_defe_corr' 'radau' 1 ((PROCEDURE UNKNOWN-INTENT
MODULE-PROC DECL UNKNOWN SUBROUTINE) (UNKNOWN 0 0 0 UNKNOWN ()) 248 0 (
249) () 0 () () () 0 0)
250 're' 'acp' 're' 1 ((PROCEDURE UNKNOWN-INTENT MODULE-PROC DECL
UNKNOWN FUNCTION) (REAL 8 0 0 REAL ()) 251 0 (252 253 254) () 250 () ()
() 0 0)
255 'read_3js' 'acp' 'read_3js' 1 ((PROCEDURE UNKNOWN-INTENT MODULE-PROC
DECL UNKNOWN SUBROUTINE) (UNKNOWN 0 0 0 UNKNOWN ()) 0 0 () () 0 () () ()
0 0)
256 'reshape' '(intrinsic)' 'reshape' 1 ((PROCEDURE UNKNOWN-INTENT
UNKNOWN-PROC UNKNOWN UNKNOWN FUNCTION) (REAL 4 0 0 REAL ()) 0 0 () ()
256 () () () 0 0)
257 'rftrg' 'acp' 'rftrg' 1 ((PROCEDURE UNKNOWN-INTENT MODULE-PROC DECL
UNKNOWN SUBROUTINE) (UNKNOWN 0 0 0 UNKNOWN ()) 258 0 (259 260 261 262) ()
0 () () () 0 0)
263 'rough_solu' 'sdc' 'rough_solu' 1 ((PROCEDURE UNKNOWN-INTENT
MODULE-PROC DECL UNKNOWN SUBROUTINE ALWAYS_EXPLICIT) (UNKNOWN 0 0 0
UNKNOWN ()) 264 0 (265 266 267) () 0 () () () 0 0)
268 'sbdf' 'sdc' 'sbdf' 1 ((PROCEDURE UNKNOWN-INTENT MODULE-PROC DECL
UNKNOWN SUBROUTINE ALWAYS_EXPLICIT) (UNKNOWN 0 0 0 UNKNOWN ()) 269 0 (
270 271 272 273) () 0 () () () 0 0)
274 'sdc' 'sdc' 'sdc' 1 ((MODULE UNKNOWN-INTENT UNKNOWN-PROC UNKNOWN
UNKNOWN) (UNKNOWN 0 0 0 UNKNOWN ()) 0 0 () () 0 () () () 0 0)
275 'set_ns_value' 'velocity' 'set_ns_value' 1 ((PROCEDURE
UNKNOWN-INTENT MODULE-PROC DECL UNKNOWN SUBROUTINE) (UNKNOWN 0 0 0
UNKNOWN ()) 276 0 (277 278) () 0 () () () 0 0)
279 'setanpe' 'lcp_2d' 'setanpe' 1 ((PROCEDURE UNKNOWN-INTENT
MODULE-PROC DECL UNKNOWN SUBROUTINE) (UNKNOWN 0 0 0 UNKNOWN ()) 280 0 (
281 282 283 284 285 286 287 288 289 290) () 0 () () () 0 0)
291 'sigl' 'spec_defe_corr' 'sigl' 1 ((PROCEDURE UNKNOWN-INTENT
MODULE-PROC DECL UNKNOWN SUBROUTINE ALWAYS_EXPLICIT) (UNKNOWN 0 0 0
UNKNOWN ()) 292 0 (293 294 295 296) () 0 () () () 0 0)
297 'single_taum' 'lcp_2d' 'single_taum' 1 ((PROCEDURE UNKNOWN-INTENT
MODULE-PROC DECL UNKNOWN SUBROUTINE ALWAYS_EXPLICIT) (UNKNOWN 0 0 0
UNKNOWN ()) 298 0 (299 300 301 302 303 304) () 0 () () () 0 0)
305 'single_tauv' 'lcp_2d' 'single_tauv' 1 ((PROCEDURE UNKNOWN-INTENT
MODULE-PROC DECL UNKNOWN SUBROUTINE ALWAYS_EXPLICIT) (UNKNOWN 0 0 0
UNKNOWN ()) 306 0 (307 308) () 0 () () () 0 0)
309 'smoluchowski' 'lcp_2d' 'smoluchowski' 1 ((PROCEDURE UNKNOWN-INTENT
MODULE-PROC DECL UNKNOWN SUBROUTINE ALWAYS_EXPLICIT) (UNKNOWN 0 0 0
UNKNOWN ()) 310 0 (311 312 313) () 0 () () () 0 0)
314 'spec_defe_corr' 'spec_defe_corr' 'spec_defe_corr' 1 ((MODULE
UNKNOWN-INTENT UNKNOWN-PROC UNKNOWN UNKNOWN) (UNKNOWN 0 0 0 UNKNOWN ())
0 0 () () 0 () () () 0 0)
315 'specint' 'spec_defe_corr' 'specint' 1 ((PROCEDURE UNKNOWN-INTENT
MODULE-PROC DECL UNKNOWN SUBROUTINE ALWAYS_EXPLICIT) (UNKNOWN 0 0 0
UNKNOWN ()) 316 0 (317 318 319) () 0 () () () 0 0)
320 'start_method' 'sdc' 'start_method' 1 ((PROCEDURE UNKNOWN-INTENT
MODULE-PROC DECL UNKNOWN SUBROUTINE ALWAYS_EXPLICIT) (UNKNOWN 0 0 0
UNKNOWN ()) 321 0 (322 323 324 325 326) () 0 () () () 0 0)
327 'stepsize' 'sdc' 'stepsize' 1 ((PROCEDURE UNKNOWN-INTENT MODULE-PROC
DECL UNKNOWN SUBROUTINE ALWAYS_EXPLICIT) (UNKNOWN 0 0 0 UNKNOWN ()) 328
0 (329 330 331 332 333 334 335) () 0 () () () 0 0)
336 'subinterval' 'spec_defe_corr' 'subinterval' 1 ((PROCEDURE
UNKNOWN-INTENT MODULE-PROC DECL UNKNOWN SUBROUTINE ALWAYS_EXPLICIT) (
UNKNOWN 0 0 0 UNKNOWN ()) 337 0 (338 339) () 0 () () () 0 0)
340 'taum_value' 'lcp_2d' 'taum_value' 1 ((PROCEDURE UNKNOWN-INTENT
MODULE-PROC DECL UNKNOWN SUBROUTINE ALWAYS_EXPLICIT) (UNKNOWN 0 0 0
UNKNOWN ()) 341 0 (342 343 344) () 0 () () () 0 0)
345 'u3' 'lcp_2d' 'u3' 1 ((VARIABLE UNKNOWN-INTENT UNKNOWN-PROC UNKNOWN
UNKNOWN DIMENSION) (REAL 8 0 0 REAL ()) 0 0 () (2 EXPLICIT (CONSTANT (
INTEGER 4 0 0 INTEGER ()) 0 '1') (CONSTANT (INTEGER 4 0 0 INTEGER ()) 0
'128') (CONSTANT (INTEGER 4 0 0 INTEGER ()) 0 '1') (CONSTANT (INTEGER 4
0 0 INTEGER ()) 0 '121')) 0 () () () 0 0)
346 'uay' 'lcp_2d' 'uay' 1 ((VARIABLE UNKNOWN-INTENT UNKNOWN-PROC
UNKNOWN UNKNOWN DIMENSION) (REAL 8 0 0 REAL ()) 0 0 () (2 EXPLICIT (
CONSTANT (INTEGER 4 0 0 INTEGER ()) 0 '1') (CONSTANT (INTEGER 4 0 0
INTEGER ()) 0 '128') (CONSTANT (INTEGER 4 0 0 INTEGER ()) 0 '1') (
CONSTANT (INTEGER 4 0 0 INTEGER ()) 0 '121')) 0 () () () 0 0)
347 'ubv' 'lcp_2d' 'ubv' 1 ((VARIABLE UNKNOWN-INTENT UNKNOWN-PROC
UNKNOWN UNKNOWN DIMENSION) (REAL 8 0 0 REAL ()) 0 0 () (1 EXPLICIT (
CONSTANT (INTEGER 4 0 0 INTEGER ()) 0 '1') (CONSTANT (INTEGER 4 0 0
INTEGER ()) 0 '121')) 0 () () () 0 0)
348 'v3' 'lcp_2d' 'v3' 1 ((VARIABLE UNKNOWN-INTENT UNKNOWN-PROC UNKNOWN
UNKNOWN DIMENSION) (REAL 8 0 0 REAL ()) 0 0 () (2 EXPLICIT (CONSTANT (
INTEGER 4 0 0 INTEGER ()) 0 '1') (CONSTANT (INTEGER 4 0 0 INTEGER ()) 0
'128') (CONSTANT (INTEGER 4 0 0 INTEGER ()) 0 '1') (CONSTANT (INTEGER 4
0 0 INTEGER ()) 0 '3')) 0 () () () 0 0)
349 'velocity' 'velocity' 'velocity' 1 ((MODULE UNKNOWN-INTENT
UNKNOWN-PROC UNKNOWN UNKNOWN) (UNKNOWN 0 0 0 UNKNOWN ()) 0 0 () () 0 ()
() () 0 0)
350 'ys' 'lcp_2d' 'ys' 1 ((VARIABLE UNKNOWN-INTENT UNKNOWN-PROC UNKNOWN
UNKNOWN DIMENSION) (REAL 8 0 0 REAL ()) 0 0 () (1 EXPLICIT (CONSTANT (
INTEGER 4 0 0 INTEGER ()) 0 '0') (CONSTANT (INTEGER 4 0 0 INTEGER ()) 0
'128')) 0 () () () 0 0)
10 'ni' '' 'ni' 8 ((VARIABLE IN UNKNOWN-PROC UNKNOWN UNKNOWN DUMMY) (
INTEGER 4 0 0 INTEGER ()) 0 0 () () 0 () () () 0 0)
11 'nd' '' 'nd' 8 ((VARIABLE IN UNKNOWN-PROC UNKNOWN UNKNOWN DUMMY) (
INTEGER 4 0 0 INTEGER ()) 0 0 () () 0 () () () 0 0)
9 'mi' '' 'mi' 8 ((VARIABLE IN UNKNOWN-PROC UNKNOWN UNKNOWN DUMMY) (
INTEGER 4 0 0 INTEGER ()) 0 0 () () 0 () () () 0 0)
69 'k' '' 'k' 66 ((VARIABLE IN UNKNOWN-PROC UNKNOWN UNKNOWN DUMMY) (
INTEGER 4 0 0 INTEGER ()) 0 0 () () 0 () () () 0 0)
154 'j' '' 'j' 151 ((VARIABLE UNKNOWN-INTENT UNKNOWN-PROC UNKNOWN
UNKNOWN DUMMY) (INTEGER 4 0 0 INTEGER ()) 0 0 () () 0 () () () 0 0)
153 'v' '' 'v' 151 ((VARIABLE UNKNOWN-INTENT UNKNOWN-PROC UNKNOWN
UNKNOWN DUMMY) (REAL 8 0 0 REAL ()) 0 0 () () 0 () () () 0 0)
152 'tn' '' 'tn' 151 ((VARIABLE UNKNOWN-INTENT UNKNOWN-PROC UNKNOWN
UNKNOWN DUMMY) (REAL 8 0 0 REAL ()) 0 0 () () 0 () () () 0 0)
157 'm_in' '' 'm_in' 156 ((VARIABLE UNKNOWN-INTENT UNKNOWN-PROC UNKNOWN
UNKNOWN DUMMY) (INTEGER 4 0 0 INTEGER ()) 0 0 () () 0 () () () 0 0)
158 'n_in' '' 'n_in' 156 ((VARIABLE UNKNOWN-INTENT UNKNOWN-PROC UNKNOWN
UNKNOWN DUMMY) (INTEGER 4 0 0 INTEGER ()) 0 0 () () 0 () () () 0 0)
70 'size' '(intrinsic)' 'size' 66 ((PROCEDURE UNKNOWN-INTENT
UNKNOWN-PROC UNKNOWN UNKNOWN FUNCTION) (REAL 4 0 0 REAL ()) 0 0 () () 70
() () () 0 0)
64 'gx' '' 'gx' 62 ((VARIABLE UNKNOWN-INTENT UNKNOWN-PROC UNKNOWN
UNKNOWN DIMENSION DUMMY) (REAL 8 0 0 REAL ()) 0 0 () (1 ASSUMED_SHAPE (
CONSTANT (INTEGER 4 0 0 INTEGER ()) 0 '1') ()) 0 () () () 0 0)
63 'x' '' 'x' 62 ((VARIABLE UNKNOWN-INTENT UNKNOWN-PROC UNKNOWN UNKNOWN
DIMENSION DUMMY) (REAL 8 0 0 REAL ()) 0 0 () (2 ASSUMED_SHAPE (CONSTANT
(INTEGER 4 0 0 INTEGER ()) 0 '1') () (CONSTANT (INTEGER 4 0 0 INTEGER ())
0 '1') ()) 0 () () () 0 0)
295 'gx' '' 'gx' 292 ((VARIABLE UNKNOWN-INTENT UNKNOWN-PROC UNKNOWN
UNKNOWN DIMENSION DUMMY) (REAL 8 0 0 REAL ()) 0 0 () (1 ASSUMED_SHAPE (
CONSTANT (INTEGER 4 0 0 INTEGER ()) 0 '1') ()) 0 () () () 0 0)
296 'ts' '' 'ts' 292 ((VARIABLE UNKNOWN-INTENT UNKNOWN-PROC UNKNOWN
UNKNOWN DUMMY) (REAL 8 0 0 REAL ()) 0 0 () () 0 () () () 0 0)
319 'ts' '' 'ts' 316 ((VARIABLE UNKNOWN-INTENT UNKNOWN-PROC UNKNOWN
UNKNOWN DUMMY) (REAL 8 0 0 REAL ()) 0 0 () () 0 () () () 0 0)
68 'xn' '' 'xn' 66 ((VARIABLE IN UNKNOWN-PROC UNKNOWN UNKNOWN DIMENSION
DUMMY) (REAL 8 0 0 REAL ()) 0 0 () (1 ASSUMED_SHAPE (CONSTANT (INTEGER 4
0 0 INTEGER ()) 0 '1') ()) 0 () () () 0 0)
67 'x' '' 'x' 66 ((VARIABLE IN UNKNOWN-PROC UNKNOWN UNKNOWN DIMENSION
DUMMY) (REAL 8 0 0 REAL ()) 0 0 () (1 ASSUMED_SHAPE (CONSTANT (INTEGER 4
0 0 INTEGER ()) 0 '1') ()) 0 () () () 0 0)
73 'x' '' 'x' 72 ((VARIABLE IN UNKNOWN-PROC UNKNOWN UNKNOWN DUMMY) (
REAL 8 0 0 REAL ()) 0 0 () () 0 () () () 0 0)
75 'k' '' 'k' 72 ((VARIABLE IN UNKNOWN-PROC UNKNOWN UNKNOWN DUMMY) (
INTEGER 4 0 0 INTEGER ()) 0 0 () () 0 () () () 0 0)
19 'ca' '' 'ca' 16 ((VARIABLE UNKNOWN-INTENT UNKNOWN-PROC UNKNOWN
UNKNOWN DUMMY) (REAL 8 0 0 REAL ()) 0 0 () () 0 () () () 0 0)
18 'v' '' 'v' 16 ((VARIABLE OUT UNKNOWN-PROC UNKNOWN UNKNOWN DIMENSION
DUMMY) (REAL 8 0 0 REAL ()) 0 0 () (1 ASSUMED_SHAPE (CONSTANT (INTEGER 4
0 0 INTEGER ()) 0 '1') ()) 0 () () () 0 0)
43 'dv' '' 'dv' 37 ((VARIABLE UNKNOWN-INTENT UNKNOWN-PROC UNKNOWN
UNKNOWN DIMENSION DUMMY) (REAL 8 0 0 REAL ()) 0 0 () (2 EXPLICIT (
CONSTANT (INTEGER 4 0 0 INTEGER ()) 0 '1') (CONSTANT (INTEGER 4 0 0
INTEGER ()) 0 '3') (CONSTANT (INTEGER 4 0 0 INTEGER ()) 0 '1') (
CONSTANT (INTEGER 4 0 0 INTEGER ()) 0 '3')) 0 () () () 0 0)
44 'fv' '' 'fv' 37 ((VARIABLE UNKNOWN-INTENT UNKNOWN-PROC UNKNOWN
UNKNOWN DIMENSION DUMMY) (REAL 8 0 0 REAL ()) 0 0 () (1 ASSUMED_SHAPE (
CONSTANT (INTEGER 4 0 0 INTEGER ()) 0 '1') ()) 0 () () () 0 0)
42 'd2aiy' '' 'd2aiy' 37 ((VARIABLE UNKNOWN-INTENT UNKNOWN-PROC UNKNOWN
UNKNOWN DIMENSION DUMMY) (REAL 8 0 0 REAL ()) 0 0 () (1 ASSUMED_SHAPE (
CONSTANT (INTEGER 4 0 0 INTEGER ()) 0 '1') ()) 0 () () () 0 0)
20 'tf' '' 'tf' 16 ((VARIABLE UNKNOWN-INTENT UNKNOWN-PROC UNKNOWN
UNKNOWN DUMMY) (REAL 8 0 0 REAL ()) 0 0 () () 0 () () () 0 0)
55 't' '' 't' 53 ((VARIABLE UNKNOWN-INTENT UNKNOWN-PROC UNKNOWN UNKNOWN
DUMMY) (REAL 8 0 0 REAL ()) 0 0 () () 0 () () () 0 0)
54 'u' '' 'u' 53 ((VARIABLE UNKNOWN-INTENT UNKNOWN-PROC UNKNOWN UNKNOWN
DIMENSION DUMMY) (REAL 8 0 0 REAL ()) 0 0 () (1 ASSUMED_SHAPE (CONSTANT
(INTEGER 4 0 0 INTEGER ()) 0 '1') ()) 0 () () () 0 0)
49 'time' '' 'time' 46 ((VARIABLE UNKNOWN-INTENT UNKNOWN-PROC UNKNOWN
UNKNOWN DUMMY) (REAL 8 0 0 REAL ()) 0 0 () () 0 () () () 0 0)
56 'abse' '' 'abse' 53 ((VARIABLE UNKNOWN-INTENT UNKNOWN-PROC UNKNOWN
UNKNOWN DUMMY) (REAL 8 0 0 REAL ()) 0 0 () () 0 () () () 0 0)
59 'n' '' 'n' 58 ((VARIABLE UNKNOWN-INTENT UNKNOWN-PROC UNKNOWN UNKNOWN
DUMMY) (INTEGER 4 0 0 INTEGER ()) 0 0 () () 0 () () () 0 0)
81 'dvds' '' 'dvds' 79 ((VARIABLE UNKNOWN-INTENT UNKNOWN-PROC UNKNOWN
UNKNOWN DIMENSION DUMMY) (REAL 8 0 0 REAL ()) 0 0 () (3 ASSUMED_SHAPE (
CONSTANT (INTEGER 4 0 0 INTEGER ()) 0 '1') () (CONSTANT (INTEGER 4 0 0
INTEGER ()) 0 '1') () (CONSTANT (INTEGER 4 0 0 INTEGER ()) 0 '1') ()) 0
() () () 0 0)
80 'v' '' 'v' 79 ((VARIABLE UNKNOWN-INTENT UNKNOWN-PROC UNKNOWN UNKNOWN
DIMENSION DUMMY) (REAL 8 0 0 REAL ()) 0 0 () (2 ASSUMED_SHAPE (CONSTANT
(INTEGER 4 0 0 INTEGER ()) 0 '1') () (CONSTANT (INTEGER 4 0 0 INTEGER ())
0 '1') ()) 0 () () () 0 0)
89 'c' '' 'c' 87 ((VARIABLE UNKNOWN-INTENT UNKNOWN-PROC UNKNOWN UNKNOWN
DIMENSION DUMMY) (REAL 8 0 0 REAL ()) 0 0 () (2 EXPLICIT (CONSTANT (
INTEGER 4 0 0 INTEGER ()) 0 '0') (CONSTANT (INTEGER 4 0 0 INTEGER ()) 0
'10') (CONSTANT (INTEGER 4 0 0 INTEGER ()) 0 '-10') (CONSTANT (INTEGER 4
0 0 INTEGER ()) 0 '10')) 0 () () () 0 0)
60 't' '' 't' 58 ((VARIABLE UNKNOWN-INTENT UNKNOWN-PROC UNKNOWN UNKNOWN
DUMMY) (REAL 8 0 0 REAL ()) 0 0 () () 0 () () () 0 0)
91 'd' '' 'd' 87 ((VARIABLE UNKNOWN-INTENT UNKNOWN-PROC UNKNOWN UNKNOWN
DIMENSION DUMMY) (REAL 8 0 0 REAL ()) 0 0 () (2 EXPLICIT (CONSTANT (
INTEGER 4 0 0 INTEGER ()) 0 '0') (CONSTANT (INTEGER 4 0 0 INTEGER ()) 0
'10') (CONSTANT (INTEGER 4 0 0 INTEGER ()) 0 '-10') (CONSTANT (INTEGER 4
0 0 INTEGER ()) 0 '10')) 0 () () () 0 0)
95 'a' '' 'a' 93 ((VARIABLE UNKNOWN-INTENT UNKNOWN-PROC UNKNOWN UNKNOWN
DIMENSION DUMMY) (REAL 8 0 0 REAL ()) 0 0 () (1 ASSUMED_SHAPE (CONSTANT
(INTEGER 4 0 0 INTEGER ()) 0 '1') ()) 0 () () () 0 0)
94 'jm' '' 'jm' 93 ((VARIABLE UNKNOWN-INTENT UNKNOWN-PROC UNKNOWN
UNKNOWN DUMMY) (INTEGER 4 0 0 INTEGER ()) 0 0 () () 0 () () () 0 0)
97 'fv' '' 'fv' 93 ((VARIABLE UNKNOWN-INTENT UNKNOWN-PROC UNKNOWN
UNKNOWN DIMENSION DUMMY) (REAL 8 0 0 REAL ()) 0 0 () (1 ASSUMED_SHAPE (
CONSTANT (INTEGER 4 0 0 INTEGER ()) 0 '1') ()) 0 () () () 0 0)
96 'ax' '' 'ax' 93 ((VARIABLE UNKNOWN-INTENT UNKNOWN-PROC UNKNOWN
UNKNOWN DIMENSION DUMMY) (REAL 8 0 0 REAL ()) 0 0 () (1 ASSUMED_SHAPE (
CONSTANT (INTEGER 4 0 0 INTEGER ()) 0 '1') ()) 0 () () () 0 0)
105 'dv' '' 'dv' 103 ((VARIABLE IN UNKNOWN-PROC UNKNOWN UNKNOWN
DIMENSION DUMMY) (REAL 8 0 0 REAL ()) 0 0 () (2 ASSUMED_SHAPE (CONSTANT
(INTEGER 4 0 0 INTEGER ()) 0 '1') () (CONSTANT (INTEGER 4 0 0 INTEGER ())
0 '1') ()) 0 () () () 0 0)
104 'u' '' 'u' 103 ((VARIABLE IN UNKNOWN-PROC UNKNOWN UNKNOWN DIMENSION
DUMMY) (REAL 8 0 0 REAL ()) 0 0 () (1 ASSUMED_SHAPE (CONSTANT (INTEGER 4
0 0 INTEGER ()) 0 '1') ()) 0 () () () 0 0)
90 'b' '' 'b' 87 ((VARIABLE UNKNOWN-INTENT UNKNOWN-PROC UNKNOWN UNKNOWN
DIMENSION DUMMY) (REAL 8 0 0 REAL ()) 0 0 () (2 EXPLICIT (CONSTANT (
INTEGER 4 0 0 INTEGER ()) 0 '0') (CONSTANT (INTEGER 4 0 0 INTEGER ()) 0
'10') (CONSTANT (INTEGER 4 0 0 INTEGER ()) 0 '-10') (CONSTANT (INTEGER 4
0 0 INTEGER ()) 0 '10')) 0 () () () 0 0)
112 'f' '' 'f' 109 ((VARIABLE OUT UNKNOWN-PROC UNKNOWN UNKNOWN DIMENSION
DUMMY) (REAL 8 0 0 REAL ()) 0 0 () (1 ASSUMED_SHAPE (CONSTANT (INTEGER 4
0 0 INTEGER ()) 0 '1') ()) 0 () () () 0 0)
111 't' '' 't' 109 ((VARIABLE UNKNOWN-INTENT UNKNOWN-PROC UNKNOWN
UNKNOWN DUMMY) (REAL 8 0 0 REAL ()) 0 0 () () 0 () () () 0 0)
107 'f' '' 'f' 103 ((VARIABLE OUT UNKNOWN-PROC UNKNOWN UNKNOWN DIMENSION
DUMMY) (REAL 8 0 0 REAL ()) 0 0 () (1 ASSUMED_SHAPE (CONSTANT (INTEGER 4
0 0 INTEGER ()) 0 '1') ()) 0 () () () 0 0)
106 'da2p' '' 'da2p' 103 ((VARIABLE IN UNKNOWN-PROC UNKNOWN UNKNOWN
DIMENSION DUMMY) (REAL 8 0 0 REAL ()) 0 0 () (2 ASSUMED_SHAPE (CONSTANT
(INTEGER 4 0 0 INTEGER ()) 0 '1') () (CONSTANT (INTEGER 4 0 0 INTEGER ())
0 '1') ()) 0 () () () 0 0)
48 'tau' '' 'tau' 46 ((VARIABLE UNKNOWN-INTENT UNKNOWN-PROC UNKNOWN
UNKNOWN DIMENSION DUMMY) (REAL 8 0 0 REAL ()) 0 0 () (3 ASSUMED_SHAPE (
CONSTANT (INTEGER 4 0 0 INTEGER ()) 0 '1') () (CONSTANT (INTEGER 4 0 0
INTEGER ()) 0 '1') () (CONSTANT (INTEGER 4 0 0 INTEGER ()) 0 '1') ()) 0
() () () 0 0)
126 't' '' 't' 124 ((VARIABLE UNKNOWN-INTENT UNKNOWN-PROC UNKNOWN
UNKNOWN DUMMY) (REAL 8 0 0 REAL ()) 0 0 () () 0 () () () 0 0)
127 'f' '' 'f' 124 ((VARIABLE UNKNOWN-INTENT UNKNOWN-PROC UNKNOWN
UNKNOWN DIMENSION DUMMY) (REAL 8 0 0 REAL ()) 0 0 () (1 ASSUMED_SHAPE (
CONSTANT (INTEGER 4 0 0 INTEGER ()) 0 '1') ()) 0 () () () 0 0)
125 'u' '' 'u' 124 ((VARIABLE UNKNOWN-INTENT UNKNOWN-PROC UNKNOWN
UNKNOWN DIMENSION DUMMY) (REAL 8 0 0 REAL ()) 0 0 () (1 ASSUMED_SHAPE (
CONSTANT (INTEGER 4 0 0 INTEGER ()) 0 '1') ()) 0 () () () 0 0)
132 'f' '' 'f' 129 ((VARIABLE UNKNOWN-INTENT UNKNOWN-PROC UNKNOWN
UNKNOWN DIMENSION DUMMY) (REAL 8 0 0 REAL ()) 0 0 () (1 ASSUMED_SHAPE (
CONSTANT (INTEGER 4 0 0 INTEGER ()) 0 '1') ()) 0 () () () 0 0)
131 't' '' 't' 129 ((VARIABLE UNKNOWN-INTENT UNKNOWN-PROC UNKNOWN
UNKNOWN DUMMY) (REAL 8 0 0 REAL ()) 0 0 () () 0 () () () 0 0)
130 'u' '' 'u' 129 ((VARIABLE UNKNOWN-INTENT UNKNOWN-PROC UNKNOWN
UNKNOWN DIMENSION DUMMY) (REAL 8 0 0 REAL ()) 0 0 () (1 ASSUMED_SHAPE (
CONSTANT (INTEGER 4 0 0 INTEGER ()) 0 '1') ()) 0 () () () 0 0)
193 'u' '' 'u' 192 ((VARIABLE UNKNOWN-INTENT UNKNOWN-PROC UNKNOWN
UNKNOWN DIMENSION DUMMY) (REAL 8 0 0 REAL ()) 0 0 () (1 ASSUMED_SHAPE (
CONSTANT (INTEGER 4 0 0 INTEGER ()) 0 '0') ()) 0 () () () 0 0)
198 'f' '' 'f' 195 ((VARIABLE OUT UNKNOWN-PROC UNKNOWN UNKNOWN DIMENSION
DUMMY) (REAL 8 0 0 REAL ()) 0 0 () (1 ASSUMED_SHAPE (CONSTANT (INTEGER 4
0 0 INTEGER ()) 0 '1') ()) 0 () () () 0 0)
197 't' '' 't' 195 ((VARIABLE UNKNOWN-INTENT UNKNOWN-PROC UNKNOWN
UNKNOWN DUMMY) (REAL 8 0 0 REAL ()) 0 0 () () 0 () () () 0 0)
201 'u' '' 'u' 200 ((VARIABLE IN UNKNOWN-PROC UNKNOWN UNKNOWN DIMENSION
DUMMY) (REAL 8 0 0 REAL ()) 0 0 () (1 ASSUMED_SHAPE (CONSTANT (INTEGER 4
0 0 INTEGER ()) 0 '1') ()) 0 () () () 0 0)
196 'u' '' 'u' 195 ((VARIABLE IN UNKNOWN-PROC UNKNOWN UNKNOWN DIMENSION
DUMMY) (REAL 8 0 0 REAL ()) 0 0 () (1 ASSUMED_SHAPE (CONSTANT (INTEGER 4
0 0 INTEGER ()) 0 '1') ()) 0 () () () 0 0)
203 'f' '' 'f' 200 ((VARIABLE OUT UNKNOWN-PROC UNKNOWN UNKNOWN DIMENSION
DUMMY) (REAL 8 0 0 REAL ()) 0 0 () (1 ASSUMED_SHAPE (CONSTANT (INTEGER 4
0 0 INTEGER ()) 0 '1') ()) 0 () () () 0 0)
208 'f' '' 'f' 205 ((VARIABLE OUT UNKNOWN-PROC UNKNOWN UNKNOWN DIMENSION
DUMMY) (REAL 8 0 0 REAL ()) 0 0 () (1 ASSUMED_SHAPE (CONSTANT (INTEGER 4
0 0 INTEGER ()) 0 '1') ()) 0 () () () 0 0)
207 't' '' 't' 205 ((VARIABLE UNKNOWN-INTENT UNKNOWN-PROC UNKNOWN
UNKNOWN DUMMY) (REAL 8 0 0 REAL ()) 0 0 () () 0 () () () 0 0)
206 'u' '' 'u' 205 ((VARIABLE IN UNKNOWN-PROC UNKNOWN UNKNOWN DIMENSION
DUMMY) (REAL 8 0 0 REAL ()) 0 0 () (1 ASSUMED_SHAPE (CONSTANT (INTEGER 4
0 0 INTEGER ()) 0 '1') ()) 0 () () () 0 0)
202 't' '' 't' 200 ((VARIABLE UNKNOWN-INTENT UNKNOWN-PROC UNKNOWN
UNKNOWN DUMMY) (REAL 8 0 0 REAL ()) 0 0 () () 0 () () () 0 0)
228 'dt' '' 'dt' 225 ((VARIABLE UNKNOWN-INTENT UNKNOWN-PROC UNKNOWN
UNKNOWN DUMMY) (REAL 8 0 0 REAL ()) 0 0 () () 0 () () () 0 0)
227 'v' '' 'v' 225 ((VARIABLE OUT UNKNOWN-PROC UNKNOWN UNKNOWN DIMENSION
DUMMY) (REAL 8 0 0 REAL ()) 0 0 () (1 ASSUMED_SHAPE (CONSTANT (INTEGER 4
0 0 INTEGER ()) 0 '1') ()) 0 () () () 0 0)
226 'f' '' 'f' 225 ((VARIABLE IN UNKNOWN-PROC UNKNOWN UNKNOWN DIMENSION
DUMMY) (REAL 8 0 0 REAL ()) 0 0 () (1 ASSUMED_SHAPE (CONSTANT (INTEGER 4
0 0 INTEGER ()) 0 '1') ()) 0 () () () 0 0)
238 'ppal' '' 'ppal' 236 ((VARIABLE UNKNOWN-INTENT UNKNOWN-PROC UNKNOWN
UNKNOWN DUMMY) (REAL 8 0 0 REAL ()) 0 0 () () 0 () () () 0 0)
237 'ppn1' '' 'ppn1' 236 ((VARIABLE UNKNOWN-INTENT UNKNOWN-PROC UNKNOWN
UNKNOWN DUMMY) (REAL 8 0 0 REAL ()) 0 0 () () 0 () () () 0 0)
240 'ppu0' '' 'ppu0' 236 ((VARIABLE UNKNOWN-INTENT UNKNOWN-PROC UNKNOWN
UNKNOWN DUMMY) (REAL 8 0 0 REAL ()) 0 0 () () 0 () () () 0 0)
241 'ppds' '' 'ppds' 236 ((VARIABLE UNKNOWN-INTENT UNKNOWN-PROC UNKNOWN
UNKNOWN DUMMY) (REAL 8 0 0 REAL ()) 0 0 () () 0 () () () 0 0)
243 'ppa' '' 'ppa' 236 ((VARIABLE UNKNOWN-INTENT UNKNOWN-PROC UNKNOWN
UNKNOWN DUMMY) (REAL 8 0 0 REAL ()) 0 0 () () 0 () () () 0 0)
244 'co2' '' 'co2' 236 ((VARIABLE UNKNOWN-INTENT UNKNOWN-PROC UNKNOWN
UNKNOWN DUMMY) (REAL 8 0 0 REAL ()) 0 0 () () 0 () () () 0 0)
242 'ppde' '' 'ppde' 236 ((VARIABLE UNKNOWN-INTENT UNKNOWN-PROC UNKNOWN
UNKNOWN DUMMY) (REAL 8 0 0 REAL ()) 0 0 () () 0 () () () 0 0)
246 'pf' '' 'pf' 236 ((VARIABLE UNKNOWN-INTENT UNKNOWN-PROC UNKNOWN
UNKNOWN DUMMY) (REAL 8 0 0 REAL ()) 0 0 () () 0 () () () 0 0)
254 'm' '' 'm' 251 ((VARIABLE UNKNOWN-INTENT UNKNOWN-PROC UNKNOWN
UNKNOWN DUMMY) (INTEGER 4 0 0 INTEGER ()) 0 0 () () 0 () () () 0 0)
253 'l' '' 'l' 251 ((VARIABLE UNKNOWN-INTENT UNKNOWN-PROC UNKNOWN
UNKNOWN DUMMY) (INTEGER 4 0 0 INTEGER ()) 0 0 () () 0 () () () 0 0)
252 'a' '' 'a' 251 ((VARIABLE UNKNOWN-INTENT UNKNOWN-PROC UNKNOWN
UNKNOWN DIMENSION DUMMY) (REAL 8 0 0 REAL ()) 0 0 () (2 EXPLICIT (
CONSTANT (INTEGER 4 0 0 INTEGER ()) 0 '0') (CONSTANT (INTEGER 4 0 0
INTEGER ()) 0 '10') (CONSTANT (INTEGER 4 0 0 INTEGER ()) 0 '-10') (
CONSTANT (INTEGER 4 0 0 INTEGER ()) 0 '10')) 0 () () () 0 0)
245 'ct2' '' 'ct2' 236 ((VARIABLE UNKNOWN-INTENT UNKNOWN-PROC UNKNOWN
UNKNOWN DUMMY) (REAL 8 0 0 REAL ()) 0 0 () () 0 () () () 0 0)
239 'ppn2' '' 'ppn2' 236 ((VARIABLE UNKNOWN-INTENT UNKNOWN-PROC UNKNOWN
UNKNOWN DUMMY) (REAL 8 0 0 REAL ()) 0 0 () () 0 () () () 0 0)
260 'a' '' 'a' 258 ((VARIABLE UNKNOWN-INTENT UNKNOWN-PROC UNKNOWN
UNKNOWN DIMENSION DUMMY) (REAL 8 0 0 REAL ()) 0 0 () (2 EXPLICIT (
CONSTANT (INTEGER 4 0 0 INTEGER ()) 0 '0') (CONSTANT (INTEGER 4 0 0
INTEGER ()) 0 '10') (CONSTANT (INTEGER 4 0 0 INTEGER ()) 0 '-10') (
CONSTANT (INTEGER 4 0 0 INTEGER ()) 0 '10')) 0 () () () 0 0)
261 'd' '' 'd' 258 ((VARIABLE UNKNOWN-INTENT UNKNOWN-PROC UNKNOWN
UNKNOWN DIMENSION DUMMY) (REAL 8 0 0 REAL ()) 0 0 () (2 EXPLICIT (
CONSTANT (INTEGER 4 0 0 INTEGER ()) 0 '0') (CONSTANT (INTEGER 4 0 0
INTEGER ()) 0 '10') (CONSTANT (INTEGER 4 0 0 INTEGER ()) 0 '-10') (
CONSTANT (INTEGER 4 0 0 INTEGER ()) 0 '10')) 0 () () () 0 0)
259 'jm' '' 'jm' 258 ((VARIABLE UNKNOWN-INTENT UNKNOWN-PROC UNKNOWN
UNKNOWN DUMMY) (INTEGER 4 0 0 INTEGER ()) 0 0 () () 0 () () () 0 0)
278 'ppv' '' 'ppv' 276 ((VARIABLE UNKNOWN-INTENT UNKNOWN-PROC UNKNOWN
UNKNOWN DUMMY) (REAL 8 0 0 REAL ()) 0 0 () () 0 () () () 0 0)
277 'p3' '' 'p3' 276 ((VARIABLE UNKNOWN-INTENT UNKNOWN-PROC UNKNOWN
UNKNOWN DUMMY) (REAL 8 0 0 REAL ()) 0 0 () () 0 () () () 0 0)
283 'pnn1' '' 'pnn1' 280 ((VARIABLE UNKNOWN-INTENT UNKNOWN-PROC UNKNOWN
UNKNOWN DUMMY) (REAL 8 0 0 REAL ()) 0 0 () () 0 () () () 0 0)
284 'ppds' '' 'ppds' 280 ((VARIABLE UNKNOWN-INTENT UNKNOWN-PROC UNKNOWN
UNKNOWN DUMMY) (REAL 8 0 0 REAL ()) 0 0 () () 0 () () () 0 0)
282 'ppal' '' 'ppal' 280 ((VARIABLE UNKNOWN-INTENT UNKNOWN-PROC UNKNOWN
UNKNOWN DUMMY) (REAL 8 0 0 REAL ()) 0 0 () () 0 () () () 0 0)
286 'al' '' 'al' 280 ((VARIABLE UNKNOWN-INTENT UNKNOWN-PROC UNKNOWN
UNKNOWN DUMMY) (REAL 8 0 0 REAL ()) 0 0 () () 0 () () () 0 0)
285 'pct' '' 'pct' 280 ((VARIABLE UNKNOWN-INTENT UNKNOWN-PROC UNKNOWN
UNKNOWN DUMMY) (REAL 8 0 0 REAL ()) 0 0 () () 0 () () () 0 0)
287 'et' '' 'et' 280 ((VARIABLE UNKNOWN-INTENT UNKNOWN-PROC UNKNOWN
UNKNOWN DUMMY) (REAL 8 0 0 REAL ()) 0 0 () () 0 () () () 0 0)
281 'pnn' '' 'pnn' 280 ((VARIABLE UNKNOWN-INTENT UNKNOWN-PROC UNKNOWN
UNKNOWN DUMMY) (REAL 8 0 0 REAL ()) 0 0 () () 0 () () () 0 0)
262 'c' '' 'c' 258 ((VARIABLE UNKNOWN-INTENT UNKNOWN-PROC UNKNOWN
UNKNOWN DIMENSION DUMMY) (REAL 8 0 0 REAL ()) 0 0 () (2 EXPLICIT (
CONSTANT (INTEGER 4 0 0 INTEGER ()) 0 '0') (CONSTANT (INTEGER 4 0 0
INTEGER ()) 0 '10') (CONSTANT (INTEGER 4 0 0 INTEGER ()) 0 '-10') (
CONSTANT (INTEGER 4 0 0 INTEGER ()) 0 '10')) 0 () () () 0 0)
135 'p' '' 'p' 134 ((VARIABLE UNKNOWN-INTENT UNKNOWN-PROC UNKNOWN
UNKNOWN DIMENSION DUMMY) (REAL 8 0 0 REAL ()) 0 0 () (1 EXPLICIT (
CONSTANT (INTEGER 4 0 0 INTEGER ()) 0 '1') (CONSTANT (INTEGER 4 0 0
INTEGER ()) 0 '128')) 0 () () () 0 0)
290 'gg' '' 'gg' 280 ((VARIABLE UNKNOWN-INTENT UNKNOWN-PROC UNKNOWN
UNKNOWN DUMMY) (REAL 8 0 0 REAL ()) 0 0 () () 0 () () () 0 0)
289 'p3' '' 'p3' 280 ((VARIABLE UNKNOWN-INTENT UNKNOWN-PROC UNKNOWN
UNKNOWN DUMMY) (REAL 8 0 0 REAL ()) 0 0 () () 0 () () () 0 0)
288 'p2' '' 'p2' 280 ((VARIABLE UNKNOWN-INTENT UNKNOWN-PROC UNKNOWN
UNKNOWN DUMMY) (REAL 8 0 0 REAL ()) 0 0 () () 0 () () () 0 0)
308 'tau' '' 'tau' 306 ((VARIABLE UNKNOWN-INTENT UNKNOWN-PROC UNKNOWN
UNKNOWN DIMENSION DUMMY) (REAL 8 0 0 REAL ()) 0 0 () (2 ASSUMED_SHAPE (
CONSTANT (INTEGER 4 0 0 INTEGER ()) 0 '1') () (CONSTANT (INTEGER 4 0 0
INTEGER ()) 0 '1') ()) 0 () () () 0 0)
117 'f' '' 'f' 114 ((VARIABLE UNKNOWN-INTENT UNKNOWN-PROC UNKNOWN
UNKNOWN DIMENSION DUMMY) (REAL 8 0 0 REAL ()) 0 0 () (2 ASSUMED_SHAPE (
CONSTANT (INTEGER 4 0 0 INTEGER ()) 0 '1') () (CONSTANT (INTEGER 4 0 0
INTEGER ()) 0 '1') ()) 0 () () () 0 0)
17 'f' '' 'f' 16 ((VARIABLE IN UNKNOWN-PROC UNKNOWN UNKNOWN DIMENSION
DUMMY) (REAL 8 0 0 REAL ()) 0 0 () (1 ASSUMED_SHAPE (CONSTANT (INTEGER 4
0 0 INTEGER ()) 0 '1') ()) 0 () () () 0 0)
40 'd2aix' '' 'd2aix' 37 ((VARIABLE UNKNOWN-INTENT UNKNOWN-PROC UNKNOWN
UNKNOWN DIMENSION DUMMY) (REAL 8 0 0 REAL ()) 0 0 () (1 ASSUMED_SHAPE (
CONSTANT (INTEGER 4 0 0 INTEGER ()) 0 '1') ()) 0 () () () 0 0)
39 'd1aix' '' 'd1aix' 37 ((VARIABLE UNKNOWN-INTENT UNKNOWN-PROC UNKNOWN
UNKNOWN DIMENSION DUMMY) (REAL 8 0 0 REAL ()) 0 0 () (1 ASSUMED_SHAPE (
CONSTANT (INTEGER 4 0 0 INTEGER ()) 0 '1') ()) 0 () () () 0 0)
41 'd1aiy' '' 'd1aiy' 37 ((VARIABLE UNKNOWN-INTENT UNKNOWN-PROC UNKNOWN
UNKNOWN DIMENSION DUMMY) (REAL 8 0 0 REAL ()) 0 0 () (1 ASSUMED_SHAPE (
CONSTANT (INTEGER 4 0 0 INTEGER ()) 0 '1') ()) 0 () () () 0 0)
38 'ai' '' 'ai' 37 ((VARIABLE UNKNOWN-INTENT UNKNOWN-PROC UNKNOWN
UNKNOWN DIMENSION DUMMY) (REAL 8 0 0 REAL ()) 0 0 () (1 ASSUMED_SHAPE (
CONSTANT (INTEGER 4 0 0 INTEGER ()) 0 '1') ()) 0 () () () 0 0)
47 'u' '' 'u' 46 ((VARIABLE UNKNOWN-INTENT UNKNOWN-PROC UNKNOWN UNKNOWN
DIMENSION DUMMY) (REAL 8 0 0 REAL ()) 0 0 () (2 EXPLICIT (CONSTANT (
INTEGER 4 0 0 INTEGER ()) 0 '1') (CONSTANT (INTEGER 4 0 0 INTEGER ()) 0
'128') (CONSTANT (INTEGER 4 0 0 INTEGER ()) 0 '1') (CONSTANT (INTEGER 4
0 0 INTEGER ()) 0 '121')) 0 () () () 0 0)
88 'jm' '' 'jm' 87 ((VARIABLE UNKNOWN-INTENT UNKNOWN-PROC UNKNOWN
UNKNOWN DUMMY) (INTEGER 4 0 0 INTEGER ()) 0 0 () () 0 () () () 0 0)
110 'u' '' 'u' 109 ((VARIABLE IN UNKNOWN-PROC UNKNOWN UNKNOWN DIMENSION
DUMMY) (REAL 8 0 0 REAL ()) 0 0 () (1 ASSUMED_SHAPE (CONSTANT (INTEGER 4
0 0 INTEGER ()) 0 '1') ()) 0 () () () 0 0)
115 'u' '' 'u' 114 ((VARIABLE UNKNOWN-INTENT UNKNOWN-PROC UNKNOWN
UNKNOWN DIMENSION DUMMY) (REAL 8 0 0 REAL ()) 0 0 () (2 ASSUMED_SHAPE (
CONSTANT (INTEGER 4 0 0 INTEGER ()) 0 '1') () (CONSTANT (INTEGER 4 0 0
INTEGER ()) 0 '1') ()) 0 () () () 0 0)
116 'v' '' 'v' 114 ((VARIABLE UNKNOWN-INTENT UNKNOWN-PROC UNKNOWN
UNKNOWN DIMENSION DUMMY) (REAL 8 0 0 REAL ()) 0 0 () (2 ASSUMED_SHAPE (
CONSTANT (INTEGER 4 0 0 INTEGER ()) 0 '1') () (CONSTANT (INTEGER 4 0 0
INTEGER ()) 0 '1') ()) 0 () () () 0 0)
122 'f' '' 'f' 119 ((VARIABLE UNKNOWN-INTENT UNKNOWN-PROC UNKNOWN
UNKNOWN DIMENSION DUMMY) (REAL 8 0 0 REAL ()) 0 0 () (1 ASSUMED_SHAPE (
CONSTANT (INTEGER 4 0 0 INTEGER ()) 0 '1') ()) 0 () () () 0 0)
121 't' '' 't' 119 ((VARIABLE UNKNOWN-INTENT UNKNOWN-PROC UNKNOWN
UNKNOWN DUMMY) (REAL 8 0 0 REAL ()) 0 0 () () 0 () () () 0 0)
120 'u' '' 'u' 119 ((VARIABLE UNKNOWN-INTENT UNKNOWN-PROC UNKNOWN
UNKNOWN DIMENSION DUMMY) (REAL 8 0 0 REAL ()) 0 0 () (1 ASSUMED_SHAPE (
CONSTANT (INTEGER 4 0 0 INTEGER ()) 0 '1') ()) 0 () () () 0 0)
140 'l' '' 'l' 138 ((VARIABLE UNKNOWN-INTENT UNKNOWN-PROC UNKNOWN
UNKNOWN DUMMY) (INTEGER 4 0 0 INTEGER ()) 0 0 () () 0 () () () 0 0)
139 'a' '' 'a' 138 ((VARIABLE UNKNOWN-INTENT UNKNOWN-PROC UNKNOWN
UNKNOWN DIMENSION DUMMY) (REAL 8 0 0 REAL ()) 0 0 () (2 EXPLICIT (
CONSTANT (INTEGER 4 0 0 INTEGER ()) 0 '0') (CONSTANT (INTEGER 4 0 0
INTEGER ()) 0 '10') (CONSTANT (INTEGER 4 0 0 INTEGER ()) 0 '-10') (
CONSTANT (INTEGER 4 0 0 INTEGER ()) 0 '10')) 0 () () () 0 0)
161 'f' '' 'f' 160 ((VARIABLE IN UNKNOWN-PROC UNKNOWN UNKNOWN DIMENSION
DUMMY) (REAL 8 0 0 REAL ()) 0 0 () (1 ASSUMED_SHAPE (CONSTANT (INTEGER 4
0 0 INTEGER ()) 0 '1') ()) 0 () () () 0 0)
163 'dt' '' 'dt' 160 ((VARIABLE UNKNOWN-INTENT UNKNOWN-PROC UNKNOWN
UNKNOWN DUMMY) (REAL 8 0 0 REAL ()) 0 0 () () 0 () () () 0 0)
162 'v' '' 'v' 160 ((VARIABLE OUT UNKNOWN-PROC UNKNOWN UNKNOWN DIMENSION
DUMMY) (REAL 8 0 0 REAL ()) 0 0 () (1 ASSUMED_SHAPE (CONSTANT (INTEGER 4
0 0 INTEGER ()) 0 '1') ()) 0 () () () 0 0)
141 'm' '' 'm' 138 ((VARIABLE UNKNOWN-INTENT UNKNOWN-PROC UNKNOWN
UNKNOWN DUMMY) (INTEGER 4 0 0 INTEGER ()) 0 0 () () 0 () () () 0 0)
231 'v' '' 'v' 230 ((VARIABLE UNKNOWN-INTENT UNKNOWN-PROC UNKNOWN
UNKNOWN DIMENSION DUMMY) (REAL 8 0 0 REAL ()) 0 0 () (2 EXPLICIT (
CONSTANT (INTEGER 4 0 0 INTEGER ()) 0 '1') (CONSTANT (INTEGER 4 0 0
INTEGER ()) 0 '128') (CONSTANT (INTEGER 4 0 0 INTEGER ()) 0 '1') (
CONSTANT (INTEGER 4 0 0 INTEGER ()) 0 '3')) 0 () () () 0 0)
234 'time' '' 'time' 230 ((VARIABLE UNKNOWN-INTENT UNKNOWN-PROC UNKNOWN
UNKNOWN DUMMY) (REAL 8 0 0 REAL ()) 0 0 () () 0 () () () 0 0)
233 'tau' '' 'tau' 230 ((VARIABLE UNKNOWN-INTENT UNKNOWN-PROC UNKNOWN
UNKNOWN DIMENSION DUMMY) (REAL 8 0 0 REAL ()) 0 0 () (3 EXPLICIT (
CONSTANT (INTEGER 4 0 0 INTEGER ()) 0 '1') (CONSTANT (INTEGER 4 0 0
INTEGER ()) 0 '3') (CONSTANT (INTEGER 4 0 0 INTEGER ()) 0 '1') (
CONSTANT (INTEGER 4 0 0 INTEGER ()) 0 '3') (CONSTANT (INTEGER 4 0 0
INTEGER ()) 0 '1') (CONSTANT (INTEGER 4 0 0 INTEGER ()) 0 '128')) 0 () ()
() 0 0)
232 'p' '' 'p' 230 ((VARIABLE UNKNOWN-INTENT UNKNOWN-PROC UNKNOWN
UNKNOWN DIMENSION DUMMY) (REAL 8 0 0 REAL ()) 0 0 () (1 EXPLICIT (
CONSTANT (INTEGER 4 0 0 INTEGER ()) 0 '1') (CONSTANT (INTEGER 4 0 0
INTEGER ()) 0 '128')) 0 () () () 0 0)
299 'a00' '' 'a00' 298 ((VARIABLE UNKNOWN-INTENT UNKNOWN-PROC UNKNOWN
UNKNOWN DUMMY) (REAL 8 0 0 REAL ()) 0 0 () () 0 () () () 0 0)
300 'tm' '' 'tm' 298 ((VARIABLE UNKNOWN-INTENT UNKNOWN-PROC UNKNOWN
UNKNOWN DIMENSION DUMMY) (REAL 8 0 0 REAL ()) 0 0 () (1 ASSUMED_SHAPE (
CONSTANT (INTEGER 4 0 0 INTEGER ()) 0 '1') ()) 0 () () () 0 0)
301 'sm' '' 'sm' 298 ((VARIABLE UNKNOWN-INTENT UNKNOWN-PROC UNKNOWN
UNKNOWN DIMENSION DUMMY) (REAL 8 0 0 REAL ()) 0 0 () (2 ASSUMED_SHAPE (
CONSTANT (INTEGER 4 0 0 INTEGER ()) 0 '1') () (CONSTANT (INTEGER 4 0 0
INTEGER ()) 0 '1') ()) 0 () () () 0 0)
303 'vd' '' 'vd' 298 ((VARIABLE UNKNOWN-INTENT UNKNOWN-PROC UNKNOWN
UNKNOWN DIMENSION DUMMY) (REAL 8 0 0 REAL ()) 0 0 () (2 EXPLICIT (
CONSTANT (INTEGER 4 0 0 INTEGER ()) 0 '1') (CONSTANT (INTEGER 4 0 0
INTEGER ()) 0 '3') (CONSTANT (INTEGER 4 0 0 INTEGER ()) 0 '1') (
CONSTANT (INTEGER 4 0 0 INTEGER ()) 0 '3')) 0 () () () 0 0)
307 'dd' '' 'dd' 306 ((VARIABLE UNKNOWN-INTENT UNKNOWN-PROC UNKNOWN
UNKNOWN DIMENSION DUMMY) (REAL 8 0 0 REAL ()) 0 0 () (2 ASSUMED_SHAPE (
CONSTANT (INTEGER 4 0 0 INTEGER ()) 0 '1') () (CONSTANT (INTEGER 4 0 0
INTEGER ()) 0 '1') ()) 0 () () () 0 0)
304 'tau' '' 'tau' 298 ((VARIABLE UNKNOWN-INTENT UNKNOWN-PROC UNKNOWN
UNKNOWN DIMENSION DUMMY) (REAL 8 0 0 REAL ()) 0 0 () (2 ASSUMED_SHAPE (
CONSTANT (INTEGER 4 0 0 INTEGER ()) 0 '1') () (CONSTANT (INTEGER 4 0 0
INTEGER ()) 0 '1') ()) 0 () () () 0 0)
302 'fm' '' 'fm' 298 ((VARIABLE UNKNOWN-INTENT UNKNOWN-PROC UNKNOWN
UNKNOWN DIMENSION DUMMY) (REAL 8 0 0 REAL ()) 0 0 () (1 ASSUMED_SHAPE (
CONSTANT (INTEGER 4 0 0 INTEGER ()) 0 '1') ()) 0 () () () 0 0)
312 't' '' 't' 310 ((VARIABLE UNKNOWN-INTENT UNKNOWN-PROC UNKNOWN
UNKNOWN DUMMY) (REAL 8 0 0 REAL ()) 0 0 () () 0 () () () 0 0)
311 'u' '' 'u' 310 ((VARIABLE IN UNKNOWN-PROC UNKNOWN UNKNOWN DIMENSION
DUMMY) (REAL 8 0 0 REAL ()) 0 0 () (1 ASSUMED_SHAPE (CONSTANT (INTEGER 4
0 0 INTEGER ()) 0 '1') ()) 0 () () () 0 0)
342 'u' '' 'u' 341 ((VARIABLE UNKNOWN-INTENT UNKNOWN-PROC UNKNOWN
UNKNOWN DIMENSION DUMMY) (REAL 8 0 0 REAL ()) 0 0 () (2 EXPLICIT (
CONSTANT (INTEGER 4 0 0 INTEGER ()) 0 '1') (CONSTANT (INTEGER 4 0 0
INTEGER ()) 0 '128') (CONSTANT (INTEGER 4 0 0 INTEGER ()) 0 '1') (
CONSTANT (INTEGER 4 0 0 INTEGER ()) 0 '121')) 0 () () () 0 0)
343 'tau' '' 'tau' 341 ((VARIABLE UNKNOWN-INTENT UNKNOWN-PROC UNKNOWN
UNKNOWN DIMENSION DUMMY) (REAL 8 0 0 REAL ()) 0 0 () (3 ASSUMED_SHAPE (
CONSTANT (INTEGER 4 0 0 INTEGER ()) 0 '1') () (CONSTANT (INTEGER 4 0 0
INTEGER ()) 0 '1') () (CONSTANT (INTEGER 4 0 0 INTEGER ()) 0 '1') ()) 0
() () () 0 0)
344 'time' '' 'time' 341 ((VARIABLE UNKNOWN-INTENT UNKNOWN-PROC UNKNOWN
UNKNOWN DUMMY) (REAL 8 0 0 REAL ()) 0 0 () () 0 () () () 0 0)
313 'f' '' 'f' 310 ((VARIABLE OUT UNKNOWN-PROC UNKNOWN UNKNOWN DIMENSION
DUMMY) (REAL 8 0 0 REAL ()) 0 0 () (1 ASSUMED_SHAPE (CONSTANT (INTEGER 4
0 0 INTEGER ()) 0 '1') ()) 0 () () () 0 0)
74 'xn' '' 'xn' 72 ((VARIABLE IN UNKNOWN-PROC UNKNOWN UNKNOWN DIMENSION
DUMMY) (REAL 8 0 0 REAL ()) 0 0 () (1 ASSUMED_SHAPE (CONSTANT (INTEGER 4
0 0 INTEGER ()) 0 '1') ()) 0 () () () 0 0)
168 'mc' '' 'mc' 167 ((VARIABLE UNKNOWN-INTENT UNKNOWN-PROC UNKNOWN
UNKNOWN DUMMY) (INTEGER 4 0 0 INTEGER ()) 0 0 () () 0 () () () 0 0)
172 'mc' '' 'mc' 171 ((VARIABLE UNKNOWN-INTENT UNKNOWN-PROC UNKNOWN
UNKNOWN DUMMY) (INTEGER 4 0 0 INTEGER ()) 0 0 () () 0 () () () 0 0)
294 'x' '' 'x' 292 ((VARIABLE UNKNOWN-INTENT UNKNOWN-PROC UNKNOWN
UNKNOWN DIMENSION DUMMY) (REAL 8 0 0 REAL ()) 0 0 () (2 ASSUMED_SHAPE (
CONSTANT (INTEGER 4 0 0 INTEGER ()) 0 '1') () (CONSTANT (INTEGER 4 0 0
INTEGER ()) 0 '1') ()) 0 () () () 0 0)
293 'u' '' 'u' 292 ((VARIABLE UNKNOWN-INTENT UNKNOWN-PROC UNKNOWN
UNKNOWN DIMENSION DUMMY) (REAL 8 0 0 REAL ()) 0 0 () (1 ASSUMED_SHAPE (
CONSTANT (INTEGER 4 0 0 INTEGER ()) 0 '1') ()) 0 () () () 0 0)
249 'mc' '' 'mc' 248 ((VARIABLE UNKNOWN-INTENT UNKNOWN-PROC UNKNOWN
UNKNOWN DUMMY) (INTEGER 4 0 0 INTEGER ()) 0 0 () () 0 () () () 0 0)
317 'fi' '' 'fi' 316 ((VARIABLE UNKNOWN-INTENT UNKNOWN-PROC UNKNOWN
UNKNOWN DIMENSION DUMMY) (REAL 8 0 0 REAL ()) 0 0 () (2 ASSUMED_SHAPE (
CONSTANT (INTEGER 4 0 0 INTEGER ()) 0 '1') () (CONSTANT (INTEGER 4 0 0
INTEGER ()) 0 '1') ()) 0 () () () 0 0)
318 'g' '' 'g' 316 ((VARIABLE UNKNOWN-INTENT UNKNOWN-PROC UNKNOWN
UNKNOWN DIMENSION DUMMY) (REAL 8 0 0 REAL ()) 0 0 () (2 ASSUMED_SHAPE (
CONSTANT (INTEGER 4 0 0 INTEGER ()) 0 '1') () (CONSTANT (INTEGER 4 0 0
INTEGER ()) 0 '1') ()) 0 () () () 0 0)
339 'subts' '' 'subts' 337 ((VARIABLE UNKNOWN-INTENT UNKNOWN-PROC
UNKNOWN UNKNOWN DIMENSION DUMMY) (REAL 8 0 0 REAL ()) 0 0 () (1
ASSUMED_SHAPE (CONSTANT (INTEGER 4 0 0 INTEGER ()) 0 '1') ()) 0 () () ()
0 0)
338 'ts' '' 'ts' 337 ((VARIABLE UNKNOWN-INTENT UNKNOWN-PROC UNKNOWN
UNKNOWN DUMMY) (REAL 8 0 0 REAL ()) 0 0 () () 0 () () () 0 0)
12 'ki' '' 'ki' 8 ((VARIABLE IN UNKNOWN-PROC UNKNOWN UNKNOWN DUMMY) (
INTEGER 4 0 0 INTEGER ()) 0 0 () () 0 () () () 0 0)
13 'nx' '' 'nx' 8 ((VARIABLE IN UNKNOWN-PROC UNKNOWN UNKNOWN DUMMY) (
INTEGER 4 0 0 INTEGER ()) 0 0 () () 0 () () () 0 0)
14 'ipp' '' 'ipp' 8 ((VARIABLE IN UNKNOWN-PROC UNKNOWN UNKNOWN DUMMY) (
INTEGER 4 0 0 INTEGER ()) 0 0 () () 0 () () () 0 0)
144 'ts' '' 'ts' 143 ((VARIABLE IN UNKNOWN-PROC UNKNOWN UNKNOWN DUMMY) (
REAL 8 0 0 REAL ()) 0 0 () () 0 () () () 0 0)
145 'nd' '' 'nd' 143 ((VARIABLE UNKNOWN-INTENT UNKNOWN-PROC UNKNOWN
UNKNOWN DUMMY) (INTEGER 4 0 0 INTEGER ()) 0 0 () () 0 () () () 0 0)
148 'ts' '' 'ts' 147 ((VARIABLE IN UNKNOWN-PROC UNKNOWN UNKNOWN DUMMY) (
REAL 8 0 0 REAL ()) 0 0 () () 0 () () () 0 0)
149 'nd' '' 'nd' 147 ((VARIABLE UNKNOWN-INTENT UNKNOWN-PROC UNKNOWN
UNKNOWN DUMMY) (INTEGER 4 0 0 INTEGER ()) 0 0 () () 0 () () () 0 0)
184 'ui' '' 'ui' 183 ((VARIABLE IN UNKNOWN-PROC UNKNOWN UNKNOWN
DIMENSION DUMMY) (REAL 8 0 0 REAL ()) 0 0 () (1 ASSUMED_SHAPE (CONSTANT
(INTEGER 4 0 0 INTEGER ()) 0 '1') ()) 0 () () () 0 0)
185 'uo' '' 'uo' 183 ((VARIABLE OUT UNKNOWN-PROC UNKNOWN UNKNOWN
DIMENSION DUMMY) (REAL 8 0 0 REAL ()) 0 0 () (1 ASSUMED_SHAPE (CONSTANT
(INTEGER 4 0 0 INTEGER ()) 0 '1') ()) 0 () () () 0 0)
186 't' '' 't' 183 ((VARIABLE IN UNKNOWN-PROC UNKNOWN UNKNOWN DUMMY) (
REAL 8 0 0 REAL ()) 0 0 () () 0 () () () 0 0)
187 'ts' '' 'ts' 183 ((VARIABLE IN UNKNOWN-PROC UNKNOWN UNKNOWN DUMMY) (
REAL 8 0 0 REAL ()) 0 0 () () 0 () () () 0 0)
188 'ncr' '' 'ncr' 183 ((VARIABLE UNKNOWN-INTENT UNKNOWN-PROC UNKNOWN
UNKNOWN DUMMY) (INTEGER 4 0 0 INTEGER ()) 0 0 () () 0 () () () 0 0)
189 'up' '' 'up' 183 ((VARIABLE UNKNOWN-INTENT UNKNOWN-PROC UNKNOWN
UNKNOWN DIMENSION OPTIONAL DUMMY) (REAL 8 0 0 REAL ()) 0 0 () (1
ASSUMED_SHAPE (CONSTANT (INTEGER 4 0 0 INTEGER ()) 0 '1') ()) 0 () () ()
0 0)
265 'u' '' 'u' 264 ((VARIABLE INOUT UNKNOWN-PROC UNKNOWN UNKNOWN
DIMENSION DUMMY) (REAL 8 0 0 REAL ()) 0 0 () (2 ASSUMED_SHAPE (CONSTANT
(INTEGER 4 0 0 INTEGER ()) 0 '1') () (CONSTANT (INTEGER 4 0 0 INTEGER ())
0 '1') ()) 0 () () () 0 0)
266 't' '' 't' 264 ((VARIABLE UNKNOWN-INTENT UNKNOWN-PROC UNKNOWN
UNKNOWN DUMMY) (REAL 8 0 0 REAL ()) 0 0 () () 0 () () () 0 0)
267 'ts' '' 'ts' 264 ((VARIABLE UNKNOWN-INTENT UNKNOWN-PROC UNKNOWN
UNKNOWN DUMMY) (REAL 8 0 0 REAL ()) 0 0 () () 0 () () () 0 0)
270 'ub' '' 'ub' 269 ((VARIABLE IN UNKNOWN-PROC UNKNOWN UNKNOWN
DIMENSION DUMMY) (REAL 8 0 0 REAL ()) 0 0 () (2 ASSUMED_SHAPE (CONSTANT
(INTEGER 4 0 0 INTEGER ()) 0 '1') () (CONSTANT (INTEGER 4 0 0 INTEGER ())
0 '1') ()) 0 () () () 0 0)
23 'u' '' 'u' 22 ((VARIABLE IN UNKNOWN-PROC UNKNOWN UNKNOWN DIMENSION
DUMMY) (REAL 8 0 0 REAL ()) 0 0 () (2 ASSUMED_SHAPE (CONSTANT (INTEGER 4
0 0 INTEGER ()) 0 '1') () (CONSTANT (INTEGER 4 0 0 INTEGER ()) 0 '1') ())
0 () () () 0 0)
24 'ut' '' 'ut' 22 ((VARIABLE OUT UNKNOWN-PROC UNKNOWN UNKNOWN DIMENSION
DUMMY) (REAL 8 0 0 REAL ()) 0 0 () (2 ASSUMED_SHAPE (CONSTANT (INTEGER 4
0 0 INTEGER ()) 0 '1') () (CONSTANT (INTEGER 4 0 0 INTEGER ()) 0 '1') ())
0 () () () 0 0)
25 't' '' 't' 22 ((VARIABLE UNKNOWN-INTENT UNKNOWN-PROC UNKNOWN UNKNOWN
DUMMY) (REAL 8 0 0 REAL ()) 0 0 () () 0 () () () 0 0)
26 'ts' '' 'ts' 22 ((VARIABLE UNKNOWN-INTENT UNKNOWN-PROC UNKNOWN
UNKNOWN DUMMY) (REAL 8 0 0 REAL ()) 0 0 () () 0 () () () 0 0)
27 'kmax' '' 'kmax' 22 ((VARIABLE UNKNOWN-INTENT UNKNOWN-PROC UNKNOWN
UNKNOWN DUMMY) (INTEGER 4 0 0 INTEGER ()) 0 0 () () 0 () () () 0 0)
28 'up' '' 'up' 22 ((VARIABLE UNKNOWN-INTENT UNKNOWN-PROC UNKNOWN
UNKNOWN DIMENSION OPTIONAL DUMMY) (REAL 8 0 0 REAL ()) 0 0 () (1
ASSUMED_SHAPE (CONSTANT (INTEGER 4 0 0 INTEGER ()) 0 '1') ()) 0 () () ()
0 0)
213 'ua' '' 'ua' 212 ((VARIABLE IN UNKNOWN-PROC UNKNOWN UNKNOWN
DIMENSION DUMMY) (REAL 8 0 0 REAL ()) 0 0 () (2 ASSUMED_SHAPE (CONSTANT
(INTEGER 4 0 0 INTEGER ()) 0 '1') () (CONSTANT (INTEGER 4 0 0 INTEGER ())
0 '1') ()) 0 () () () 0 0)
214 'ut' '' 'ut' 212 ((VARIABLE IN UNKNOWN-PROC UNKNOWN UNKNOWN
DIMENSION DUMMY) (REAL 8 0 0 REAL ()) 0 0 () (2 ASSUMED_SHAPE (CONSTANT
(INTEGER 4 0 0 INTEGER ()) 0 '1') () (CONSTANT (INTEGER 4 0 0 INTEGER ())
0 '1') ()) 0 () () () 0 0)
215 'ub' '' 'ub' 212 ((VARIABLE INOUT UNKNOWN-PROC UNKNOWN UNKNOWN
DIMENSION DUMMY) (REAL 8 0 0 REAL ()) 0 0 () (2 ASSUMED_SHAPE (CONSTANT
(INTEGER 4 0 0 INTEGER ()) 0 '1') () (CONSTANT (INTEGER 4 0 0 INTEGER ())
0 '1') ()) 0 () () () 0 0)
216 't' '' 't' 212 ((VARIABLE UNKNOWN-INTENT UNKNOWN-PROC UNKNOWN
UNKNOWN DUMMY) (REAL 8 0 0 REAL ()) 0 0 () () 0 () () () 0 0)
217 'ts' '' 'ts' 212 ((VARIABLE UNKNOWN-INTENT UNKNOWN-PROC UNKNOWN
UNKNOWN DUMMY) (REAL 8 0 0 REAL ()) 0 0 () () 0 () () () 0 0)
177 'uold' '' 'uold' 176 ((VARIABLE IN UNKNOWN-PROC UNKNOWN UNKNOWN
DIMENSION DUMMY) (REAL 8 0 0 REAL ()) 0 0 () (1 ASSUMED_SHAPE (CONSTANT
(INTEGER 4 0 0 INTEGER ()) 0 '1') ()) 0 () () () 0 0)
178 'unew' '' 'unew' 176 ((VARIABLE OUT UNKNOWN-PROC UNKNOWN UNKNOWN
DIMENSION DUMMY) (REAL 8 0 0 REAL ()) 0 0 () (1 ASSUMED_SHAPE (CONSTANT
(INTEGER 4 0 0 INTEGER ()) 0 '1') ()) 0 () () () 0 0)
179 't' '' 't' 176 ((VARIABLE UNKNOWN-INTENT UNKNOWN-PROC UNKNOWN
UNKNOWN DUMMY) (REAL 8 0 0 REAL ()) 0 0 () () 0 () () () 0 0)
180 'ts' '' 'ts' 176 ((VARIABLE UNKNOWN-INTENT UNKNOWN-PROC UNKNOWN
UNKNOWN DUMMY) (REAL 8 0 0 REAL ()) 0 0 () () 0 () () () 0 0)
181 'corr' '' 'corr' 176 ((VARIABLE IN UNKNOWN-PROC UNKNOWN UNKNOWN
DIMENSION DUMMY) (REAL 8 0 0 REAL ()) 0 0 () (1 ASSUMED_SHAPE (CONSTANT
(INTEGER 4 0 0 INTEGER ()) 0 '1') ()) 0 () () () 0 0)
322 'uold' '' 'uold' 321 ((VARIABLE IN UNKNOWN-PROC UNKNOWN UNKNOWN
DIMENSION DUMMY) (REAL 8 0 0 REAL ()) 0 0 () (1 ASSUMED_SHAPE (CONSTANT
(INTEGER 4 0 0 INTEGER ()) 0 '1') ()) 0 () () () 0 0)
323 'unew' '' 'unew' 321 ((VARIABLE OUT UNKNOWN-PROC UNKNOWN UNKNOWN
DIMENSION DUMMY) (REAL 8 0 0 REAL ()) 0 0 () (1 ASSUMED_SHAPE (CONSTANT
(INTEGER 4 0 0 INTEGER ()) 0 '1') ()) 0 () () () 0 0)
324 't' '' 't' 321 ((VARIABLE UNKNOWN-INTENT UNKNOWN-PROC UNKNOWN
UNKNOWN DUMMY) (REAL 8 0 0 REAL ()) 0 0 () () 0 () () () 0 0)
325 'ts' '' 'ts' 321 ((VARIABLE UNKNOWN-INTENT UNKNOWN-PROC UNKNOWN
UNKNOWN DUMMY) (REAL 8 0 0 REAL ()) 0 0 () () 0 () () () 0 0)
326 'k' '' 'k' 321 ((VARIABLE UNKNOWN-INTENT UNKNOWN-PROC UNKNOWN
UNKNOWN DUMMY) (INTEGER 4 0 0 INTEGER ()) 0 0 () () 0 () () () 0 0)
271 'unew' '' 'unew' 269 ((VARIABLE OUT UNKNOWN-PROC UNKNOWN UNKNOWN
DIMENSION DUMMY) (REAL 8 0 0 REAL ()) 0 0 () (1 ASSUMED_SHAPE (CONSTANT
(INTEGER 4 0 0 INTEGER ()) 0 '1') ()) 0 () () () 0 0)
272 'tf' '' 'tf' 269 ((VARIABLE UNKNOWN-INTENT UNKNOWN-PROC UNKNOWN
UNKNOWN DUMMY) (REAL 8 0 0 REAL ()) 0 0 () () 0 () () () 0 0)
273 'ks' '' 'ks' 269 ((VARIABLE UNKNOWN-INTENT UNKNOWN-PROC UNKNOWN
UNKNOWN DUMMY) (INTEGER 4 0 0 INTEGER ()) 0 0 () () 0 () () () 0 0)
329 'u1' '' 'u1' 328 ((VARIABLE UNKNOWN-INTENT UNKNOWN-PROC UNKNOWN
UNKNOWN DIMENSION DUMMY) (REAL 8 0 0 REAL ()) 0 0 () (1 ASSUMED_SHAPE (
CONSTANT (INTEGER 4 0 0 INTEGER ()) 0 '1') ()) 0 () () () 0 0)
330 'u2' '' 'u2' 328 ((VARIABLE UNKNOWN-INTENT UNKNOWN-PROC UNKNOWN
UNKNOWN DIMENSION DUMMY) (REAL 8 0 0 REAL ()) 0 0 () (1 ASSUMED_SHAPE (
CONSTANT (INTEGER 4 0 0 INTEGER ()) 0 '1') ()) 0 () () () 0 0)
331 'eps' '' 'eps' 328 ((VARIABLE UNKNOWN-INTENT UNKNOWN-PROC UNKNOWN
UNKNOWN DUMMY) (REAL 8 0 0 REAL ()) 0 0 () () 0 () () () 0 0)
332 'tso' '' 'tso' 328 ((VARIABLE UNKNOWN-INTENT UNKNOWN-PROC UNKNOWN
UNKNOWN DUMMY) (REAL 8 0 0 REAL ()) 0 0 () () 0 () () () 0 0)
333 'ts' '' 'ts' 328 ((VARIABLE UNKNOWN-INTENT UNKNOWN-PROC UNKNOWN
UNKNOWN DUMMY) (REAL 8 0 0 REAL ()) 0 0 () () 0 () () () 0 0)
334 'order' '' 'order' 328 ((VARIABLE UNKNOWN-INTENT UNKNOWN-PROC
UNKNOWN UNKNOWN DUMMY) (REAL 8 0 0 REAL ()) 0 0 () () 0 () () () 0 0)
335 'info' '' 'info' 328 ((VARIABLE UNKNOWN-INTENT UNKNOWN-PROC UNKNOWN
UNKNOWN DUMMY) (INTEGER 4 0 0 INTEGER ()) 0 0 () () 0 () () () 0 0)
)

('__convert_i4_r4' 0 2 '__convert_i4_r8' 0 3 '__convert_r4_r8' 0 4
'__convert_r8_r4' 0 5 'acp' 0 6 'assignspace' 0 7 'bdf_solv' 0 15
'correction' 0 21 'd1x' 0 29 'd1y' 0 30 'd2u' 0 31 'd2x' 0 32 'd2y' 0 33
'dagp' 0 34 'dble' 0 35 'dfdt' 0 36 'dtaum' 0 45 'dvds' 0 50 'er' 0 51
'error' 0 52 'exact_value' 0 57 'extrap' 0 61 'f' 0 65 'f1' 0 71 'f_para'
0 76 'f_value' 0 77 'flow_field' 0 78 'fourpin1' 0 82 'fourpio3al' 0 83
'fourpio5n' 0 84 'freespace' 0 85 'ftg' 0 86 'ftgo' 0 92 'ftuy' 0 98 'fu3'
0 99 'fv3' 0 100 'fv3a' 0 101 'fv_11' 0 102 'fvalue' 0 108 'fvalue_1' 0
113 'fvalue_ex' 0 118 'fvalue_exc' 0 123 'fvalue_im' 0 128 'gradient_p'
0 133 'hy' 0 136 'im' 0 137 'initial_value' 0 142 'initial_value_0' 0
146 'integrate' 0 150 'intematx' 0 155 'itersolv' 0 159 'kind' 0 164
'lcp_2d' 0 165 'legendre' 0 166 'lmax' 0 169 'lobatto' 0 170 'lp' 0 173
'm' 0 174 'md_one_step' 0 175 'method' 0 182 'mi' 0 190 'moments' 0 191
'momentum' 0 194 'momentum_ex' 0 199 'momentum_o' 0 204 'n' 0 209 'n3' 0
210 'neighbor_solu' 0 211 'no' 0 218 'np' 0 219 'nv' 0 220 'ny' 0 221 'pd'
0 222 'pi' 0 223 'precondition' 0 224 'pressure' 0 229 'pvalues' 0 235
'radau' 0 247 're' 0 250 'read_3js' 0 255 'reshape' 0 256 'rftrg' 0 257
'rough_solu' 0 263 'sbdf' 0 268 'sdc' 0 274 'set_ns_value' 0 275 'setanpe'
0 279 'sigl' 0 291 'single_taum' 0 297 'single_tauv' 0 305 'smoluchowski'
0 309 'spec_defe_corr' 0 314 'specint' 0 315 'start_method' 0 320
'stepsize' 0 327 'subinterval' 0 336 'taum_value' 0 340 'u3' 0 345 'uay'
0 346 'ubv' 0 347 'v3' 0 348 'velocity' 0 349 'ys' 0 350)
