GFORTRAN module version '0' created from matrix.f90 on Sun Apr 17 10:27:26 2016
MD5:81a9c00ac1fb300e3a802db882a4e612 -- If you edit this, you'll get what you deserve.

(() () () () () () () () () () () () () () () () () () () () () () () ()
() () ())

()

()

()

()

(2 'extrap' 'spec_defe_corr' 'extrap' 1 ((PROCEDURE UNKNOWN-INTENT
MODULE-PROC DECL UNKNOWN SUBROUTINE ALWAYS_EXPLICIT) (UNKNOWN 0 0 0
UNKNOWN ()) 3 0 (4 5) () 0 () () () 0 0)
6 'f' 'spec_defe_corr' 'f' 1 ((PROCEDURE UNKNOWN-INTENT MODULE-PROC DECL
UNKNOWN DIMENSION FUNCTION ALWAYS_EXPLICIT) (REAL 8 0 0 REAL ()) 7 0 (8
9 10) (1 EXPLICIT (CONSTANT (INTEGER 4 0 0 INTEGER ()) 0 '1') (FUNCTION
(INTEGER 4 0 0 INTEGER ()) 0 11 (('' (VARIABLE (REAL 8 0 0 REAL ()) 1 8
((ARRAY (FULL 0))))) ('' ()) ('' ())) '' 0 'size')) 6 () () () 0 0)
12 'f1' 'spec_defe_corr' 'f1' 1 ((PROCEDURE UNKNOWN-INTENT MODULE-PROC
DECL UNKNOWN FUNCTION ALWAYS_EXPLICIT) (REAL 8 0 0 REAL ()) 13 0 (14 15
16) () 12 () () () 0 0)
17 'integrate' 'spec_defe_corr' 'integrate' 1 ((PROCEDURE UNKNOWN-INTENT
MODULE-PROC DECL UNKNOWN SUBROUTINE) (UNKNOWN 0 0 0 UNKNOWN ()) 18 0 (
19 20 21) () 0 () () () 0 0)
22 'intematx' 'spec_defe_corr' 'intematx' 1 ((PROCEDURE UNKNOWN-INTENT
MODULE-PROC DECL UNKNOWN SUBROUTINE) (UNKNOWN 0 0 0 UNKNOWN ()) 23 0 (
24 25) () 0 () () () 0 0)
26 'kind' '(intrinsic)' 'kind' 1 ((PROCEDURE UNKNOWN-INTENT UNKNOWN-PROC
UNKNOWN UNKNOWN FUNCTION) (INTEGER 4 0 0 INTEGER ()) 0 0 () () 26 () ()
() 0 0)
27 'legendre' 'spec_defe_corr' 'legendre' 1 ((PROCEDURE UNKNOWN-INTENT
MODULE-PROC DECL UNKNOWN SUBROUTINE) (UNKNOWN 0 0 0 UNKNOWN ()) 28 0 (
29) () 0 () () () 0 0)
30 'lobatto' 'spec_defe_corr' 'lobatto' 1 ((PROCEDURE UNKNOWN-INTENT
MODULE-PROC DECL UNKNOWN SUBROUTINE) (UNKNOWN 0 0 0 UNKNOWN ()) 31 0 (
32) () 0 () () () 0 0)
33 'm' 'spec_defe_corr' 'm' 1 ((VARIABLE UNKNOWN-INTENT UNKNOWN-PROC
UNKNOWN EXPLICIT-SAVE) (INTEGER 4 0 0 INTEGER ()) 0 0 () () 0 () () () 0
0)
34 'mi' 'spec_defe_corr' 'mi' 1 ((VARIABLE UNKNOWN-INTENT UNKNOWN-PROC
UNKNOWN EXPLICIT-SAVE) (INTEGER 4 0 0 INTEGER ()) 0 0 () () 0 () () () 0
0)
35 'no' 'spec_defe_corr' 'no' 1 ((VARIABLE UNKNOWN-INTENT UNKNOWN-PROC
UNKNOWN EXPLICIT-SAVE) (INTEGER 4 0 0 INTEGER ()) 0 0 () () 0 () () () 0
0)
36 'np' 'spec_defe_corr' 'np' 1 ((VARIABLE UNKNOWN-INTENT UNKNOWN-PROC
UNKNOWN EXPLICIT-SAVE) (INTEGER 4 0 0 INTEGER ()) 0 0 () () 0 () () () 0
0)
37 'radau' 'spec_defe_corr' 'radau' 1 ((PROCEDURE UNKNOWN-INTENT
MODULE-PROC DECL UNKNOWN SUBROUTINE) (UNKNOWN 0 0 0 UNKNOWN ()) 38 0 (
39) () 0 () () () 0 0)
40 'sigl' 'spec_defe_corr' 'sigl' 1 ((PROCEDURE UNKNOWN-INTENT
MODULE-PROC DECL UNKNOWN SUBROUTINE ALWAYS_EXPLICIT) (UNKNOWN 0 0 0
UNKNOWN ()) 41 0 (42 43 44 45) () 0 () () () 0 0)
46 'spec_defe_corr' 'spec_defe_corr' 'spec_defe_corr' 1 ((MODULE
UNKNOWN-INTENT UNKNOWN-PROC UNKNOWN UNKNOWN) (UNKNOWN 0 0 0 UNKNOWN ())
0 0 () () 0 () () () 0 0)
47 'specint' 'spec_defe_corr' 'specint' 1 ((PROCEDURE UNKNOWN-INTENT
MODULE-PROC DECL UNKNOWN SUBROUTINE ALWAYS_EXPLICIT) (UNKNOWN 0 0 0
UNKNOWN ()) 48 0 (49 50 51) () 0 () () () 0 0)
52 'subinterval' 'spec_defe_corr' 'subinterval' 1 ((PROCEDURE
UNKNOWN-INTENT MODULE-PROC DECL UNKNOWN SUBROUTINE ALWAYS_EXPLICIT) (
UNKNOWN 0 0 0 UNKNOWN ()) 53 0 (54 55) () 0 () () () 0 0)
55 'subts' '' 'subts' 53 ((VARIABLE UNKNOWN-INTENT UNKNOWN-PROC UNKNOWN
UNKNOWN DIMENSION DUMMY) (REAL 8 0 0 REAL ()) 0 0 () (1 ASSUMED_SHAPE (
CONSTANT (INTEGER 4 0 0 INTEGER ()) 0 '1') ()) 0 () () () 0 0)
54 'ts' '' 'ts' 53 ((VARIABLE UNKNOWN-INTENT UNKNOWN-PROC UNKNOWN
UNKNOWN DUMMY) (REAL 8 0 0 REAL ()) 0 0 () () 0 () () () 0 0)
42 'u' '' 'u' 41 ((VARIABLE UNKNOWN-INTENT UNKNOWN-PROC UNKNOWN UNKNOWN
DIMENSION DUMMY) (REAL 8 0 0 REAL ()) 0 0 () (1 ASSUMED_SHAPE (CONSTANT
(INTEGER 4 0 0 INTEGER ()) 0 '1') ()) 0 () () () 0 0)
43 'x' '' 'x' 41 ((VARIABLE UNKNOWN-INTENT UNKNOWN-PROC UNKNOWN UNKNOWN
DIMENSION DUMMY) (REAL 8 0 0 REAL ()) 0 0 () (2 ASSUMED_SHAPE (CONSTANT
(INTEGER 4 0 0 INTEGER ()) 0 '1') () (CONSTANT (INTEGER 4 0 0 INTEGER ())
0 '1') ()) 0 () () () 0 0)
44 'gx' '' 'gx' 41 ((VARIABLE UNKNOWN-INTENT UNKNOWN-PROC UNKNOWN
UNKNOWN DIMENSION DUMMY) (REAL 8 0 0 REAL ()) 0 0 () (1 ASSUMED_SHAPE (
CONSTANT (INTEGER 4 0 0 INTEGER ()) 0 '1') ()) 0 () () () 0 0)
45 'ts' '' 'ts' 41 ((VARIABLE UNKNOWN-INTENT UNKNOWN-PROC UNKNOWN
UNKNOWN DUMMY) (REAL 8 0 0 REAL ()) 0 0 () () 0 () () () 0 0)
4 'x' '' 'x' 3 ((VARIABLE UNKNOWN-INTENT UNKNOWN-PROC UNKNOWN UNKNOWN
DIMENSION DUMMY) (REAL 8 0 0 REAL ()) 0 0 () (2 ASSUMED_SHAPE (CONSTANT
(INTEGER 4 0 0 INTEGER ()) 0 '1') () (CONSTANT (INTEGER 4 0 0 INTEGER ())
0 '1') ()) 0 () () () 0 0)
5 'gx' '' 'gx' 3 ((VARIABLE UNKNOWN-INTENT UNKNOWN-PROC UNKNOWN UNKNOWN
DIMENSION DUMMY) (REAL 8 0 0 REAL ()) 0 0 () (1 ASSUMED_SHAPE (CONSTANT
(INTEGER 4 0 0 INTEGER ()) 0 '1') ()) 0 () () () 0 0)
49 'fi' '' 'fi' 48 ((VARIABLE UNKNOWN-INTENT UNKNOWN-PROC UNKNOWN
UNKNOWN DIMENSION DUMMY) (REAL 8 0 0 REAL ()) 0 0 () (2 ASSUMED_SHAPE (
CONSTANT (INTEGER 4 0 0 INTEGER ()) 0 '1') () (CONSTANT (INTEGER 4 0 0
INTEGER ()) 0 '1') ()) 0 () () () 0 0)
50 'g' '' 'g' 48 ((VARIABLE UNKNOWN-INTENT UNKNOWN-PROC UNKNOWN UNKNOWN
DIMENSION DUMMY) (REAL 8 0 0 REAL ()) 0 0 () (2 ASSUMED_SHAPE (CONSTANT
(INTEGER 4 0 0 INTEGER ()) 0 '1') () (CONSTANT (INTEGER 4 0 0 INTEGER ())
0 '1') ()) 0 () () () 0 0)
51 'ts' '' 'ts' 48 ((VARIABLE UNKNOWN-INTENT UNKNOWN-PROC UNKNOWN
UNKNOWN DUMMY) (REAL 8 0 0 REAL ()) 0 0 () () 0 () () () 0 0)
24 'm_in' '' 'm_in' 23 ((VARIABLE UNKNOWN-INTENT UNKNOWN-PROC UNKNOWN
UNKNOWN DUMMY) (INTEGER 4 0 0 INTEGER ()) 0 0 () () 0 () () () 0 0)
25 'n_in' '' 'n_in' 23 ((VARIABLE UNKNOWN-INTENT UNKNOWN-PROC UNKNOWN
UNKNOWN DUMMY) (INTEGER 4 0 0 INTEGER ()) 0 0 () () 0 () () () 0 0)
29 'mc' '' 'mc' 28 ((VARIABLE UNKNOWN-INTENT UNKNOWN-PROC UNKNOWN
UNKNOWN DUMMY) (INTEGER 4 0 0 INTEGER ()) 0 0 () () 0 () () () 0 0)
39 'mc' '' 'mc' 38 ((VARIABLE UNKNOWN-INTENT UNKNOWN-PROC UNKNOWN
UNKNOWN DUMMY) (INTEGER 4 0 0 INTEGER ()) 0 0 () () 0 () () () 0 0)
32 'mc' '' 'mc' 31 ((VARIABLE UNKNOWN-INTENT UNKNOWN-PROC UNKNOWN
UNKNOWN DUMMY) (INTEGER 4 0 0 INTEGER ()) 0 0 () () 0 () () () 0 0)
19 'tn' '' 'tn' 18 ((VARIABLE UNKNOWN-INTENT UNKNOWN-PROC UNKNOWN
UNKNOWN DUMMY) (REAL 8 0 0 REAL ()) 0 0 () () 0 () () () 0 0)
20 'v' '' 'v' 18 ((VARIABLE UNKNOWN-INTENT UNKNOWN-PROC UNKNOWN UNKNOWN
DUMMY) (REAL 8 0 0 REAL ()) 0 0 () () 0 () () () 0 0)
21 'j' '' 'j' 18 ((VARIABLE UNKNOWN-INTENT UNKNOWN-PROC UNKNOWN UNKNOWN
DUMMY) (INTEGER 4 0 0 INTEGER ()) 0 0 () () 0 () () () 0 0)
16 'k' '' 'k' 13 ((VARIABLE IN UNKNOWN-PROC UNKNOWN UNKNOWN DUMMY) (
INTEGER 4 0 0 INTEGER ()) 0 0 () () 0 () () () 0 0)
8 'x' '' 'x' 7 ((VARIABLE IN UNKNOWN-PROC UNKNOWN UNKNOWN DIMENSION
DUMMY) (REAL 8 0 0 REAL ()) 0 0 () (1 ASSUMED_SHAPE (CONSTANT (INTEGER 4
0 0 INTEGER ()) 0 '1') ()) 0 () () () 0 0)
9 'xn' '' 'xn' 7 ((VARIABLE IN UNKNOWN-PROC UNKNOWN UNKNOWN DIMENSION
DUMMY) (REAL 8 0 0 REAL ()) 0 0 () (1 ASSUMED_SHAPE (CONSTANT (INTEGER 4
0 0 INTEGER ()) 0 '1') ()) 0 () () () 0 0)
10 'k' '' 'k' 7 ((VARIABLE IN UNKNOWN-PROC UNKNOWN UNKNOWN DUMMY) (
INTEGER 4 0 0 INTEGER ()) 0 0 () () 0 () () () 0 0)
11 'size' '(intrinsic)' 'size' 7 ((PROCEDURE UNKNOWN-INTENT UNKNOWN-PROC
UNKNOWN UNKNOWN FUNCTION) (UNKNOWN 0 0 0 UNKNOWN ()) 0 0 () () 11 () ()
() 0 0)
14 'x' '' 'x' 13 ((VARIABLE IN UNKNOWN-PROC UNKNOWN UNKNOWN DUMMY) (
REAL 8 0 0 REAL ()) 0 0 () () 0 () () () 0 0)
15 'xn' '' 'xn' 13 ((VARIABLE IN UNKNOWN-PROC UNKNOWN UNKNOWN DIMENSION
DUMMY) (REAL 8 0 0 REAL ()) 0 0 () (1 ASSUMED_SHAPE (CONSTANT (INTEGER 4
0 0 INTEGER ()) 0 '1') ()) 0 () () () 0 0)
)

('extrap' 0 2 'f' 0 6 'f1' 0 12 'integrate' 0 17 'intematx' 0 22 'kind'
0 26 'legendre' 0 27 'lobatto' 0 30 'm' 0 33 'mi' 0 34 'no' 0 35 'np' 0
36 'radau' 0 37 'sigl' 0 40 'spec_defe_corr' 0 46 'specint' 0 47
'subinterval' 0 52)
