%!PS-Adobe-3.0 EPSF-3.0
%%Title: 88.eps
%%Creator: matplotlib version 1.5.1, http://matplotlib.org/
%%CreationDate: Sun Feb 21 08:25:49 2016
%%Orientation: portrait
%%BoundingBox: 18 180 594 612
%%EndComments
%%BeginProlog
/mpldict 8 dict def
mpldict begin
/m { moveto } bind def
/l { lineto } bind def
/r { rlineto } bind def
/c { curveto } bind def
/cl { closepath } bind def
/box {
m
1 index 0 r
0 exch r
neg 0 r
cl
} bind def
/clipbox {
box
clip
newpath
} bind def
%!PS-Adobe-3.0 Resource-Font
%%Title: DejaVu Sans
%%Copyright: Copyright (c) 2003 by Bitstream, Inc. All Rights Reserved. Copyright (c) 2006 by Tavmjong Bah. All Rights Reserved. DejaVu changes are in public domain 
%%Creator: Converted from TrueType to type 3 by PPR
25 dict begin
/_d{bind def}bind def
/_m{moveto}_d
/_l{lineto}_d
/_cl{closepath eofill}_d
/_c{curveto}_d
/_sc{7 -1 roll{setcachedevice}{pop pop pop pop pop pop}ifelse}_d
/_e{exec}_d
/FontName /DejaVuSans def
/PaintType 0 def
/FontMatrix[.001 0 0 .001 0 0]def
/FontBBox[-1021 -415 1681 1167]def
/FontType 3 def
/Encoding [ /space /period /zero /one /two /three /four /six /eight /n /p /v ] def
/FontInfo 10 dict dup begin
/FamilyName (DejaVu Sans) def
/FullName (DejaVu Sans) def
/Notice (Copyright (c) 2003 by Bitstream, Inc. All Rights Reserved. Copyright (c) 2006 by Tavmjong Bah. All Rights Reserved. DejaVu changes are in public domain ) def
/Weight (Book) def
/Version (Version 2.34) def
/ItalicAngle 0.0 def
/isFixedPitch false def
/UnderlinePosition -130 def
/UnderlineThickness 90 def
end readonly def
/CharStrings 12 dict dup begin
/space{318 0 0 0 0 0 _sc
}_d
/period{318 0 107 0 210 124 _sc
107 124 _m
210 124 _l
210 0 _l
107 0 _l
107 124 _l
_cl}_d
/zero{636 0 66 -13 570 742 _sc
318 664 _m
267 664 229 639 203 589 _c
177 539 165 464 165 364 _c
165 264 177 189 203 139 _c
229 89 267 64 318 64 _c
369 64 407 89 433 139 _c
458 189 471 264 471 364 _c
471 464 458 539 433 589 _c
407 639 369 664 318 664 _c
318 742 _m
399 742 461 709 505 645 _c
548 580 570 486 570 364 _c
570 241 548 147 505 83 _c
461 19 399 -13 318 -13 _c
236 -13 173 19 130 83 _c
87 147 66 241 66 364 _c
66 486 87 580 130 645 _c
173 709 236 742 318 742 _c
_cl}_d
/one{636 0 110 0 544 729 _sc
124 83 _m
285 83 _l
285 639 _l
110 604 _l
110 694 _l
284 729 _l
383 729 _l
383 83 _l
544 83 _l
544 0 _l
124 0 _l
124 83 _l
_cl}_d
/two{{636 0 73 0 536 742 _sc
192 83 _m
536 83 _l
536 0 _l
73 0 _l
73 83 _l
110 121 161 173 226 239 _c
290 304 331 346 348 365 _c
380 400 402 430 414 455 _c
426 479 433 504 433 528 _c
433 566 419 598 392 622 _c
365 646 330 659 286 659 _c
255 659 222 653 188 643 _c
154 632 117 616 78 594 _c
78 694 _l
118 710 155 722 189 730 _c
223 738 255 742 284 742 _c
}_e{359 742 419 723 464 685 _c
509 647 532 597 532 534 _c
532 504 526 475 515 449 _c
504 422 484 390 454 354 _c
446 344 420 317 376 272 _c
332 227 271 164 192 83 _c
_cl}_e}_d
/three{{636 0 76 -13 556 742 _sc
406 393 _m
453 383 490 362 516 330 _c
542 298 556 258 556 212 _c
556 140 531 84 482 45 _c
432 6 362 -13 271 -13 _c
240 -13 208 -10 176 -4 _c
144 1 110 10 76 22 _c
76 117 _l
103 101 133 89 166 81 _c
198 73 232 69 268 69 _c
330 69 377 81 409 105 _c
441 129 458 165 458 212 _c
458 254 443 288 413 312 _c
383 336 341 349 287 349 _c
}_e{202 349 _l
202 430 _l
291 430 _l
339 430 376 439 402 459 _c
428 478 441 506 441 543 _c
441 580 427 609 401 629 _c
374 649 336 659 287 659 _c
260 659 231 656 200 650 _c
169 644 135 635 98 623 _c
98 711 _l
135 721 170 729 203 734 _c
235 739 266 742 296 742 _c
370 742 429 725 473 691 _c
517 657 539 611 539 553 _c
539 513 527 479 504 451 _c
481 423 448 403 406 393 _c
_cl}_e}_d
/four{636 0 49 0 580 729 _sc
378 643 _m
129 254 _l
378 254 _l
378 643 _l
352 729 _m
476 729 _l
476 254 _l
580 254 _l
580 172 _l
476 172 _l
476 0 _l
378 0 _l
378 172 _l
49 172 _l
49 267 _l
352 729 _l
_cl}_d
/six{{636 0 70 -13 573 742 _sc
330 404 _m
286 404 251 388 225 358 _c
199 328 186 286 186 234 _c
186 181 199 139 225 109 _c
251 79 286 64 330 64 _c
374 64 409 79 435 109 _c
461 139 474 181 474 234 _c
474 286 461 328 435 358 _c
409 388 374 404 330 404 _c
526 713 _m
526 623 _l
501 635 476 644 451 650 _c
425 656 400 659 376 659 _c
310 659 260 637 226 593 _c
}_e{192 549 172 482 168 394 _c
187 422 211 444 240 459 _c
269 474 301 482 336 482 _c
409 482 467 459 509 415 _c
551 371 573 310 573 234 _c
573 159 550 99 506 54 _c
462 9 403 -13 330 -13 _c
246 -13 181 19 137 83 _c
92 147 70 241 70 364 _c
70 479 97 571 152 639 _c
206 707 280 742 372 742 _c
396 742 421 739 447 735 _c
472 730 498 723 526 713 _c
_cl}_e}_d
/eight{{636 0 68 -13 568 742 _sc
318 346 _m
271 346 234 333 207 308 _c
180 283 167 249 167 205 _c
167 161 180 126 207 101 _c
234 76 271 64 318 64 _c
364 64 401 76 428 102 _c
455 127 469 161 469 205 _c
469 249 455 283 429 308 _c
402 333 365 346 318 346 _c
219 388 _m
177 398 144 418 120 447 _c
96 476 85 511 85 553 _c
85 611 105 657 147 691 _c
188 725 245 742 318 742 _c
}_e{390 742 447 725 489 691 _c
530 657 551 611 551 553 _c
551 511 539 476 515 447 _c
491 418 459 398 417 388 _c
464 377 501 355 528 323 _c
554 291 568 251 568 205 _c
568 134 546 80 503 43 _c
459 5 398 -13 318 -13 _c
237 -13 175 5 132 43 _c
89 80 68 134 68 205 _c
68 251 81 291 108 323 _c
134 355 171 377 219 388 _c
183 544 _m
183 506 194 476 218 455 _c
}_e{242 434 275 424 318 424 _c
360 424 393 434 417 455 _c
441 476 453 506 453 544 _c
453 582 441 611 417 632 _c
393 653 360 664 318 664 _c
275 664 242 653 218 632 _c
194 611 183 582 183 544 _c
_cl}_e}_d
/n{634 0 91 0 549 560 _sc
549 330 _m
549 0 _l
459 0 _l
459 327 _l
459 379 448 417 428 443 _c
408 469 378 482 338 482 _c
289 482 251 466 223 435 _c
195 404 181 362 181 309 _c
181 0 _l
91 0 _l
91 547 _l
181 547 _l
181 462 _l
202 494 227 519 257 535 _c
286 551 320 560 358 560 _c
420 560 468 540 500 501 _c
532 462 549 405 549 330 _c
_cl}_d
/p{{635 0 91 -207 580 560 _sc
181 82 _m
181 -207 _l
91 -207 _l
91 547 _l
181 547 _l
181 464 _l
199 496 223 520 252 536 _c
281 552 316 560 356 560 _c
422 560 476 533 518 481 _c
559 428 580 359 580 273 _c
580 187 559 117 518 65 _c
476 13 422 -13 356 -13 _c
316 -13 281 -5 252 10 _c
223 25 199 49 181 82 _c
487 273 _m
487 339 473 390 446 428 _c
418 466 381 485 334 485 _c
}_e{286 485 249 466 222 428 _c
194 390 181 339 181 273 _c
181 207 194 155 222 117 _c
249 79 286 61 334 61 _c
381 61 418 79 446 117 _c
473 155 487 207 487 273 _c
_cl}_e}_d
/v{592 0 30 0 562 547 _sc
30 547 _m
125 547 _l
296 88 _l
467 547 _l
562 547 _l
357 0 _l
235 0 _l
30 547 _l
_cl}_d
end readonly def

/BuildGlyph
 {exch begin
 CharStrings exch
 2 copy known not{pop /.notdef}if
 true 3 1 roll get exec
 end}_d

/BuildChar {
 1 index /Encoding get exch get
 1 index /BuildGlyph get exec
}_d

FontName currentdict end definefont pop
end
%%EndProlog
mpldict begin
18 180 translate
576 432 0 0 clipbox
100000 setmiterlimit
gsave
0 0 m
576 0 l
576 432 l
0 432 l
cl
1.000 setgray
fill
grestore
gsave
72 43.2 m
518.4 43.2 l
518.4 388.8 l
72 388.8 l
cl
1.000 setgray
fill
grestore
1.000 setlinewidth
1 setlinejoin
2 setlinecap
[] 0 setdash
0.000 0.000 1.000 setrgbcolor
gsave
446.4 345.6 72 43.2 clipbox
92.290909 60.700243 m
93.331469 61.23078 l
94.372028 60.847626 l
95.412587 65.585996 l
96.453147 77.538 l
98.534266 112.185 l
100.615385 145.394466 l
101.655944 158.958404 l
102.696503 170.34049 l
103.737063 179.730204 l
104.777622 187.393647 l
105.818182 193.606368 l
106.858741 198.621954 l
107.899301 202.660398 l
108.93986 205.906425 l
109.98042 208.512294 l
111.020979 210.602179 l
112.061538 212.276751 l
113.102098 213.617366 l
114.142657 214.689655 l
115.183217 215.546515 l
116.223776 216.230553 l
118.304895 217.210664 l
120.386014 217.831476 l
122.467133 218.223046 l
125.588811 218.554955 l
129.751049 218.752081 l
138.075524 218.856626 l
173.454545 218.873571 l
498.109091 218.873571 l
498.109091 218.873571 l
stroke
grestore
0.000 0.500 0.000 setrgbcolor
gsave
446.4 345.6 72 43.2 clipbox
92.290909 60.700243 m
93.331469 75.416013 l
94.372028 110.568781 l
97.493706 228.967242 l
98.534266 260.885208 l
99.574825 286.366326 l
100.615385 305.845649 l
101.655944 320.279572 l
102.696503 330.733696 l
103.737063 338.177749 l
104.777622 343.410407 l
105.818182 347.051872 l
106.858741 349.565748 l
107.899301 351.289661 l
108.93986 352.464969 l
109.98042 353.261894 l
111.020979 353.799287 l
112.061538 354.159496 l
114.142657 354.557439 l
117.264336 354.768627 l
123.507692 354.819657 l
201.54965 354.795083 l
498.109091 354.795083 l
498.109091 354.795083 l
stroke
grestore
0 setlinejoin
0.000 setgray
gsave
72 388.8 m
518.4 388.8 l
stroke
grestore
gsave
518.4 43.2 m
518.4 388.8 l
stroke
grestore
gsave
72 43.2 m
518.4 43.2 l
stroke
grestore
gsave
72 43.2 m
72 388.8 l
stroke
grestore
0.500 setlinewidth
1 setlinejoin
0 setlinecap
gsave
/o {
gsave
newpath
translate
0.5 setlinewidth
1 setlinejoin
0 setlinecap
0 0 m
0 4 l

gsave
0.000 setgray
fill
grestore
stroke
grestore
} bind def
92.2909 43.2 o
grestore
gsave
/o {
gsave
newpath
translate
0.5 setlinewidth
1 setlinejoin
0 setlinecap
0 0 m
0 -4 l

gsave
0.000 setgray
fill
grestore
stroke
grestore
} bind def
92.2909 388.8 o
grestore
/DejaVuSans findfont
12.000 scalefont
setfont
gsave
82.744034 30.075000 translate
0.000000 rotate
0.000000 0.000000 m /zero glyphshow
7.634766 0.000000 m /period glyphshow
11.449219 0.000000 m /zero glyphshow
grestore
gsave
/o {
gsave
newpath
translate
0.5 setlinewidth
1 setlinejoin
0 setlinecap
0 0 m
0 4 l

gsave
0.000 setgray
fill
grestore
stroke
grestore
} bind def
173.455 43.2 o
grestore
gsave
/o {
gsave
newpath
translate
0.5 setlinewidth
1 setlinejoin
0 setlinecap
0 0 m
0 -4 l

gsave
0.000 setgray
fill
grestore
stroke
grestore
} bind def
173.455 388.8 o
grestore
gsave
163.907670 30.075000 translate
0.000000 rotate
0.000000 0.000000 m /zero glyphshow
7.634766 0.000000 m /period glyphshow
11.449219 0.000000 m /two glyphshow
grestore
gsave
/o {
gsave
newpath
translate
0.5 setlinewidth
1 setlinejoin
0 setlinecap
0 0 m
0 4 l

gsave
0.000 setgray
fill
grestore
stroke
grestore
} bind def
254.618 43.2 o
grestore
gsave
/o {
gsave
newpath
translate
0.5 setlinewidth
1 setlinejoin
0 setlinecap
0 0 m
0 -4 l

gsave
0.000 setgray
fill
grestore
stroke
grestore
} bind def
254.618 388.8 o
grestore
gsave
245.071307 30.075000 translate
0.000000 rotate
0.000000 0.000000 m /zero glyphshow
7.634766 0.000000 m /period glyphshow
11.449219 0.000000 m /four glyphshow
grestore
gsave
/o {
gsave
newpath
translate
0.5 setlinewidth
1 setlinejoin
0 setlinecap
0 0 m
0 4 l

gsave
0.000 setgray
fill
grestore
stroke
grestore
} bind def
335.782 43.2 o
grestore
gsave
/o {
gsave
newpath
translate
0.5 setlinewidth
1 setlinejoin
0 setlinecap
0 0 m
0 -4 l

gsave
0.000 setgray
fill
grestore
stroke
grestore
} bind def
335.782 388.8 o
grestore
gsave
326.234943 30.075000 translate
0.000000 rotate
0.000000 0.000000 m /zero glyphshow
7.634766 0.000000 m /period glyphshow
11.449219 0.000000 m /six glyphshow
grestore
gsave
/o {
gsave
newpath
translate
0.5 setlinewidth
1 setlinejoin
0 setlinecap
0 0 m
0 4 l

gsave
0.000 setgray
fill
grestore
stroke
grestore
} bind def
416.945 43.2 o
grestore
gsave
/o {
gsave
newpath
translate
0.5 setlinewidth
1 setlinejoin
0 setlinecap
0 0 m
0 -4 l

gsave
0.000 setgray
fill
grestore
stroke
grestore
} bind def
416.945 388.8 o
grestore
gsave
407.398580 30.075000 translate
0.000000 rotate
0.000000 0.000000 m /zero glyphshow
7.634766 0.000000 m /period glyphshow
11.449219 0.000000 m /eight glyphshow
grestore
gsave
/o {
gsave
newpath
translate
0.5 setlinewidth
1 setlinejoin
0 setlinecap
0 0 m
0 4 l

gsave
0.000 setgray
fill
grestore
stroke
grestore
} bind def
498.109 43.2 o
grestore
gsave
/o {
gsave
newpath
translate
0.5 setlinewidth
1 setlinejoin
0 setlinecap
0 0 m
0 -4 l

gsave
0.000 setgray
fill
grestore
stroke
grestore
} bind def
498.109 388.8 o
grestore
gsave
488.562216 30.075000 translate
0.000000 rotate
0.000000 0.000000 m /one glyphshow
7.634766 0.000000 m /period glyphshow
11.449219 0.000000 m /zero glyphshow
grestore
gsave
/o {
gsave
newpath
translate
0.5 setlinewidth
1 setlinejoin
0 setlinecap
0 0 m
4 0 l

gsave
0.000 setgray
fill
grestore
stroke
grestore
} bind def
72 58.9091 o
grestore
gsave
/o {
gsave
newpath
translate
0.5 setlinewidth
1 setlinejoin
0 setlinecap
0 0 m
-4 0 l

gsave
0.000 setgray
fill
grestore
stroke
grestore
} bind def
518.4 58.9091 o
grestore
gsave
25.984375 55.596591 translate
0.000000 rotate
0.000000 0.000000 m /zero glyphshow
7.634766 0.000000 m /period glyphshow
11.449219 0.000000 m /zero glyphshow
19.083984 0.000000 m /zero glyphshow
26.718750 0.000000 m /zero glyphshow
34.353516 0.000000 m /zero glyphshow
grestore
gsave
/o {
gsave
newpath
translate
0.5 setlinewidth
1 setlinejoin
0 setlinecap
0 0 m
4 0 l

gsave
0.000 setgray
fill
grestore
stroke
grestore
} bind def
72 137.455 o
grestore
gsave
/o {
gsave
newpath
translate
0.5 setlinewidth
1 setlinejoin
0 setlinecap
0 0 m
-4 0 l

gsave
0.000 setgray
fill
grestore
stroke
grestore
} bind def
518.4 137.455 o
grestore
gsave
25.984375 134.142045 translate
0.000000 rotate
0.000000 0.000000 m /zero glyphshow
7.634766 0.000000 m /period glyphshow
11.449219 0.000000 m /zero glyphshow
19.083984 0.000000 m /zero glyphshow
26.718750 0.000000 m /zero glyphshow
34.353516 0.000000 m /one glyphshow
grestore
gsave
/o {
gsave
newpath
translate
0.5 setlinewidth
1 setlinejoin
0 setlinecap
0 0 m
4 0 l

gsave
0.000 setgray
fill
grestore
stroke
grestore
} bind def
72 216 o
grestore
gsave
/o {
gsave
newpath
translate
0.5 setlinewidth
1 setlinejoin
0 setlinecap
0 0 m
-4 0 l

gsave
0.000 setgray
fill
grestore
stroke
grestore
} bind def
518.4 216 o
grestore
gsave
25.984375 212.687500 translate
0.000000 rotate
0.000000 0.000000 m /zero glyphshow
7.634766 0.000000 m /period glyphshow
11.449219 0.000000 m /zero glyphshow
19.083984 0.000000 m /zero glyphshow
26.718750 0.000000 m /zero glyphshow
34.353516 0.000000 m /two glyphshow
grestore
gsave
/o {
gsave
newpath
translate
0.5 setlinewidth
1 setlinejoin
0 setlinecap
0 0 m
4 0 l

gsave
0.000 setgray
fill
grestore
stroke
grestore
} bind def
72 294.545 o
grestore
gsave
/o {
gsave
newpath
translate
0.5 setlinewidth
1 setlinejoin
0 setlinecap
0 0 m
-4 0 l

gsave
0.000 setgray
fill
grestore
stroke
grestore
} bind def
518.4 294.545 o
grestore
gsave
25.984375 291.232955 translate
0.000000 rotate
0.000000 0.000000 m /zero glyphshow
7.634766 0.000000 m /period glyphshow
11.449219 0.000000 m /zero glyphshow
19.083984 0.000000 m /zero glyphshow
26.718750 0.000000 m /zero glyphshow
34.353516 0.000000 m /three glyphshow
grestore
gsave
/o {
gsave
newpath
translate
0.5 setlinewidth
1 setlinejoin
0 setlinecap
0 0 m
4 0 l

gsave
0.000 setgray
fill
grestore
stroke
grestore
} bind def
72 373.091 o
grestore
gsave
/o {
gsave
newpath
translate
0.5 setlinewidth
1 setlinejoin
0 setlinecap
0 0 m
-4 0 l

gsave
0.000 setgray
fill
grestore
stroke
grestore
} bind def
518.4 373.091 o
grestore
gsave
25.984375 369.778409 translate
0.000000 rotate
0.000000 0.000000 m /zero glyphshow
7.634766 0.000000 m /period glyphshow
11.449219 0.000000 m /zero glyphshow
19.083984 0.000000 m /zero glyphshow
26.718750 0.000000 m /zero glyphshow
34.353516 0.000000 m /four glyphshow
grestore
1.000 setlinewidth
0 setlinejoin
gsave
400.625625 50.4 m
511.2 50.4 l
511.2 96.21375 l
400.625625 96.21375 l
cl
gsave
1.000 setgray
fill
grestore
stroke
grestore
1 setlinejoin
2 setlinecap
0.000 0.000 1.000 setrgbcolor
gsave
410.705625 84.853125 m
430.865625 84.853125 l
stroke
grestore
0.000 setgray
/DejaVuSans findfont
14.400 scalefont
setfont
gsave
446.705625 79.813125 translate
0.000000 rotate
0.000000 0.000000 m /p glyphshow
9.124756 0.000000 m /v glyphshow
17.631836 0.000000 m /one glyphshow
26.777649 0.000000 m /space glyphshow
31.347046 0.000000 m /p glyphshow
40.471802 0.000000 m /n glyphshow
49.582520 0.000000 m /one glyphshow
grestore
0.000 0.500 0.000 setrgbcolor
gsave
410.705625 64.10625 m
430.865625 64.10625 l
stroke
grestore
0.000 setgray
gsave
446.705625 59.066250 translate
0.000000 rotate
0.000000 0.000000 m /p glyphshow
9.124756 0.000000 m /v glyphshow
17.631836 0.000000 m /one glyphshow
26.777649 0.000000 m /space glyphshow
31.347046 0.000000 m /p glyphshow
40.471802 0.000000 m /n glyphshow
49.582520 0.000000 m /two glyphshow
grestore

end
showpage
